﻿object={
	name="cypress_mediterranean_dense_generator_3_0"
	clamp_to_water_level=no
	render_under_water=no
	generated_content=yes
	layer="semidynamic_high"
	pdxmesh="tree_cypress_mediterranean_02_mesh"
	count=279
	transform="3819.407227 0.000000 2642.509277 0.000000 0.865747 0.000000 -0.500482 0.213310 0.213310 0.213310
3803.739258 0.000000 2641.904541 0.000000 0.991517 0.000000 0.129976 0.213773 0.213773 0.213773
3800.203857 0.000000 2642.808838 0.000000 0.108107 0.000000 0.994139 0.210612 0.210612 0.210612
3808.813721 0.000000 2641.787109 0.000000 0.123515 0.000000 0.992343 0.216098 0.216098 0.216098
3819.248047 0.000000 2645.478271 0.000000 0.493921 0.000000 0.869507 0.235459 0.235459 0.235459
3814.464600 0.000000 2641.175293 0.000000 0.977255 0.000000 0.212069 0.244383 0.244383 0.244383
3804.472656 0.000000 2643.797363 0.000000 0.856412 0.000000 -0.516292 0.252271 0.252271 0.252271
3794.134277 0.000000 2654.681396 0.000000 0.378316 0.000000 0.925676 0.245806 0.245806 0.245806
3815.072021 0.000000 2647.999268 0.000000 0.939513 0.000000 0.342512 0.249882 0.249882 0.249882
3813.869873 0.000000 2651.209229 0.000000 0.816566 0.000000 0.577253 0.251421 0.251421 0.251421
3816.275879 0.000000 2647.053955 0.000000 0.846291 0.000000 -0.532720 0.270869 0.270869 0.270869
3802.378418 0.000000 2648.955078 0.000000 0.998170 0.000000 0.060468 0.268923 0.268923 0.268923
3790.558350 0.000000 2651.154053 0.000000 0.471386 0.000000 0.881927 0.250080 0.250080 0.250080
3795.400635 0.000000 2654.254395 0.000000 0.955402 0.000000 -0.295308 0.264580 0.264580 0.264580
3812.052490 0.000000 2637.724365 0.000000 0.998351 0.000000 0.057411 0.264511 0.264511 0.264511
3804.950195 0.000000 2646.145996 0.000000 0.844351 0.000000 0.535791 0.250991 0.250991 0.250991
3804.341553 0.000000 2647.945312 0.000000 0.731134 0.000000 0.682234 0.248699 0.248699 0.248699
3817.344238 0.000000 2647.709229 0.000000 0.220841 0.000000 0.975310 0.246109 0.246109 0.246109
3802.823242 0.000000 2648.001465 0.000000 0.994912 0.000000 0.100745 0.268372 0.268372 0.268372
3810.961670 0.000000 2647.462402 0.000000 0.497635 0.000000 0.867387 0.248981 0.248981 0.248981
3816.788330 0.000000 2637.668701 0.000000 0.887328 0.000000 0.461139 0.286490 0.286490 0.286490
3809.751221 0.000000 2638.257812 0.000000 0.645632 0.000000 0.763649 0.282063 0.282063 0.282063
3804.115479 0.000000 2652.109375 0.000000 0.996529 0.000000 0.083241 0.274716 0.274716 0.274716
3805.353760 0.000000 2653.215576 0.000000 0.672224 0.000000 0.740348 0.263967 0.263967 0.263967
3811.500000 0.000000 2645.155029 0.000000 0.745149 0.000000 0.666898 0.279798 0.279798 0.279798
3803.948730 0.000000 2650.106934 0.000000 0.976658 0.000000 0.214798 0.289189 0.289189 0.289189
3813.517334 0.000000 2645.430420 0.000000 0.607473 0.000000 0.794340 0.266269 0.266269 0.266269
3794.971924 0.000000 2648.998291 0.000000 0.966362 0.000000 -0.257187 0.302736 0.302736 0.302736
3793.233643 0.000000 2654.446289 0.000000 0.581331 0.000000 0.813667 0.283094 0.283094 0.283094
3807.888916 0.000000 2654.434082 0.000000 0.731626 0.000000 0.681707 0.278965 0.278965 0.278965
3794.325195 0.000000 2649.680420 0.000000 0.796436 0.000000 0.604723 0.287292 0.287292 0.287292
3817.873291 0.000000 2649.582275 0.000000 0.265235 0.000000 0.964184 0.275127 0.275127 0.275127
3820.581055 0.000000 2651.122070 0.000000 0.872869 0.000000 0.487955 0.282307 0.282307 0.282307
3809.003662 0.000000 2647.894531 0.000000 0.017390 0.000000 0.999849 0.270332 0.270332 0.270332
3817.615967 0.000000 2641.169922 0.000000 0.318598 0.000000 0.947890 0.276193 0.276193 0.276193
3796.250488 0.000000 2649.882812 0.000000 0.715606 0.000000 0.698504 0.285231 0.285231 0.285231
3812.282471 0.000000 2640.814453 0.000000 0.869091 0.000000 0.494653 0.290176 0.290176 0.290176
3788.220459 0.000000 2650.930908 0.000000 0.873524 0.000000 0.486780 0.286535 0.286535 0.286535
3803.523193 0.000000 2647.462646 0.000000 0.990553 0.000000 -0.137133 0.302519 0.302519 0.302519
3810.492676 0.000000 2648.480469 0.000000 0.587461 0.000000 0.809252 0.281992 0.281992 0.281992
3811.050781 0.000000 2649.227539 0.000000 0.997499 0.000000 -0.070685 0.301351 0.301351 0.301351
3812.712646 0.000000 2646.504395 0.000000 0.989143 0.000000 -0.146955 0.302601 0.302601 0.302601
3795.405029 0.000000 2651.788574 0.000000 0.134625 0.000000 0.990897 0.272579 0.272579 0.272579
3809.864746 0.000000 2650.123047 0.000000 0.788504 0.000000 0.615030 0.287349 0.287349 0.287349
3812.415039 0.000000 2648.038330 0.000000 0.973641 0.000000 0.228086 0.295605 0.295605 0.295605
3799.568359 0.000000 2647.049561 0.000000 0.373751 0.000000 0.927529 0.277583 0.277583 0.277583
3815.519531 0.000000 2649.969482 0.000000 0.934644 0.000000 -0.355585 0.306943 0.306943 0.306943
3808.640869 0.000000 2646.496826 0.000000 0.889250 0.000000 0.457421 0.290926 0.290926 0.290926
3811.181641 0.000000 2642.133789 0.000000 0.730815 0.000000 0.682575 0.286214 0.286214 0.286214
3806.946289 0.000000 2651.313721 0.000000 0.897720 0.000000 -0.440566 0.308713 0.308713 0.308713
3816.470703 0.000000 2640.313232 0.000000 0.085387 0.000000 0.996348 0.271633 0.271633 0.271633
3809.570557 0.000000 2651.044434 0.000000 0.565275 0.000000 0.824903 0.281474 0.281474 0.281474
3806.100586 0.000000 2647.333496 0.000000 0.937302 0.000000 0.348519 0.293201 0.293201 0.293201
3805.374268 0.000000 2649.107422 0.000000 0.985316 0.000000 -0.170742 0.303277 0.303277 0.303277
3796.237549 0.000000 2648.316406 0.000000 0.741496 0.000000 0.670958 0.285953 0.285953 0.285953
3811.922363 0.000000 2649.106201 0.000000 0.834161 0.000000 0.551521 0.288843 0.288843 0.288843
3792.749023 0.000000 2652.982666 0.000000 0.994803 0.000000 -0.101818 0.301948 0.301948 0.301948
3808.024170 0.000000 2651.833496 0.000000 0.872142 0.000000 0.489254 0.290236 0.290236 0.290236
3813.391113 0.000000 2649.193115 0.000000 0.242042 0.000000 0.970266 0.274669 0.274669 0.274669
3796.348633 0.000000 2652.971924 0.000000 0.833477 0.000000 0.552554 0.288973 0.288973 0.288973
3817.811279 0.000000 2639.845215 0.000000 0.976951 0.000000 -0.213465 0.304109 0.304109 0.304109
3808.288330 0.000000 2650.545410 0.000000 0.760209 0.000000 0.649679 0.286494 0.286494 0.286494
3807.141357 0.000000 2649.393311 0.000000 0.971654 0.000000 0.236409 0.295442 0.295442 0.295442
3796.569336 0.000000 2660.152100 0.000000 0.917063 0.000000 0.398743 0.197358 0.197358 0.197358
3818.440430 0.000000 2670.974609 0.000000 0.379153 0.000000 0.925334 0.202597 0.202597 0.202597
3808.131592 0.000000 2659.885010 0.000000 0.714995 0.000000 0.699130 0.214738 0.214738 0.214738
3833.144531 0.000000 2656.380859 0.000000 0.999884 0.000000 -0.015203 0.222825 0.222825 0.222825
3820.311035 0.000000 2668.354736 0.000000 0.965327 0.000000 0.261044 0.234541 0.234541 0.234541
3807.069336 0.000000 2664.148682 0.000000 0.134750 0.000000 0.990880 0.219116 0.219116 0.219116
3809.739258 0.000000 2657.289551 0.000000 0.425311 0.000000 0.905047 0.235580 0.235580 0.235580
3812.154541 0.000000 2662.468018 0.000000 0.908696 0.000000 0.417457 0.242486 0.242486 0.242486
3816.398438 0.000000 2663.632080 0.000000 0.983870 0.000000 0.178884 0.254110 0.254110 0.254110
3816.923828 0.000000 2661.463623 0.000000 0.861536 0.000000 -0.507696 0.258064 0.258064 0.258064
3819.277832 0.000000 2667.778320 0.000000 0.999998 0.000000 0.001915 0.250678 0.250678 0.250678
3815.854004 0.000000 2665.814209 0.000000 0.155958 0.000000 0.987764 0.257528 0.257528 0.257528
3794.265625 0.000000 2657.474365 0.000000 0.296480 0.000000 0.955039 0.254356 0.254356 0.254356
3819.013184 0.000000 2655.975830 0.000000 0.940296 0.000000 0.340358 0.279539 0.279539 0.279539
3794.082275 0.000000 2654.827881 0.000000 0.785070 0.000000 0.619407 0.252326 0.252326 0.252326
3823.739990 0.000000 2669.904297 0.000000 0.288110 0.000000 0.957597 0.246528 0.246528 0.246528
3804.025146 0.000000 2661.136475 0.000000 0.112405 0.000000 0.993663 0.258753 0.258753 0.258753
3811.665283 0.000000 2664.346680 0.000000 0.754985 0.000000 0.655742 0.266179 0.266179 0.266179
3814.425049 0.000000 2658.576904 0.000000 0.286724 0.000000 0.958013 0.266163 0.266163 0.266163
3805.493652 0.000000 2662.123535 0.000000 0.951648 0.000000 -0.307192 0.276325 0.276325 0.276325
3819.191406 0.000000 2659.312988 0.000000 0.534909 0.000000 0.844910 0.276316 0.276316 0.276316
3831.173828 0.000000 2657.813232 0.000000 0.968130 0.000000 0.250447 0.283159 0.283159 0.283159
3829.817627 0.000000 2655.816162 0.000000 0.547132 0.000000 0.837046 0.268151 0.268151 0.268151
3812.187500 0.000000 2667.821289 0.000000 0.314177 0.000000 0.949364 0.263740 0.263740 0.263740
3807.969482 0.000000 2655.892578 0.000000 0.880177 0.000000 -0.474645 0.298996 0.298996 0.298996
3803.759033 0.000000 2657.487793 0.000000 0.614981 0.000000 0.788542 0.283888 0.283888 0.283888
3807.629150 0.000000 2657.896484 0.000000 0.959542 0.000000 -0.281566 0.292154 0.292154 0.292154
3833.307861 0.000000 2663.412109 0.000000 0.843974 0.000000 -0.536383 0.304937 0.304937 0.304937
3810.215820 0.000000 2665.558594 0.000000 0.659829 0.000000 0.751416 0.264235 0.264235 0.264235
3830.026367 0.000000 2659.675781 0.000000 0.585873 0.000000 0.810403 0.282275 0.282275 0.282275
3819.391113 0.000000 2664.458008 0.000000 0.549888 0.000000 0.835238 0.282638 0.282638 0.282638
3818.464355 0.000000 2664.619629 0.000000 0.432397 0.000000 0.901683 0.280265 0.280265 0.280265
3816.732178 0.000000 2668.884033 0.000000 0.423335 0.000000 0.905973 0.279919 0.279919 0.279919
3822.526367 0.000000 2662.820068 0.000000 0.923589 0.000000 -0.383384 0.307220 0.307220 0.307220
3802.547852 0.000000 2657.541504 0.000000 0.983135 0.000000 -0.182882 0.302588 0.302588 0.302588
3797.098389 0.000000 2655.708984 0.000000 0.972523 0.000000 0.232806 0.295891 0.295891 0.295891
3828.597900 0.000000 2657.324707 0.000000 0.954204 0.000000 -0.299155 0.305802 0.305802 0.305802
3822.859131 0.000000 2657.454590 0.000000 0.573341 0.000000 0.819317 0.281661 0.281661 0.281661
3810.001465 0.000000 2658.276367 0.000000 0.974676 0.000000 -0.223623 0.304307 0.304307 0.304307
3831.095947 0.000000 2661.025635 0.000000 0.978577 0.000000 -0.205883 0.295522 0.295522 0.295522
3819.767090 0.000000 2660.668457 0.000000 0.975891 0.000000 -0.218259 0.304202 0.304202 0.304202
3832.301758 0.000000 2661.928955 0.000000 0.992639 0.000000 -0.121113 0.291854 0.291854 0.291854
3829.164307 0.000000 2666.395508 0.000000 0.647323 0.000000 0.762216 0.284102 0.284102 0.284102
3820.346680 0.000000 2655.675781 0.000000 0.131551 0.000000 0.991309 0.272520 0.272520 0.272520
3804.175537 0.000000 2656.671387 0.000000 0.772414 0.000000 0.635119 0.286857 0.286857 0.286857
3812.888184 0.000000 2659.699463 0.000000 0.549134 0.000000 0.835734 0.281177 0.281177 0.281177
3808.472168 0.000000 2665.122314 0.000000 0.399806 0.000000 0.916600 0.275747 0.275747 0.275747
3813.097656 0.000000 2656.383789 0.000000 0.968718 0.000000 0.248165 0.295605 0.295605 0.295605
3826.033203 0.000000 2662.891357 0.000000 0.919929 0.000000 -0.392085 0.307695 0.307695 0.307695
3827.154785 0.000000 2661.142334 0.000000 0.671432 0.000000 0.741066 0.284997 0.284997 0.284997
3818.392578 0.000000 2661.535889 0.000000 0.410080 0.000000 0.912049 0.278070 0.278070 0.278070
3827.295410 0.000000 2667.586670 0.000000 0.190839 0.000000 0.981621 0.273667 0.273667 0.273667
3814.294189 0.000000 2660.704346 0.000000 0.857209 0.000000 -0.514968 0.310332 0.310332 0.310332
3815.482666 0.000000 2663.759277 0.000000 0.972823 0.000000 -0.231549 0.304078 0.304078 0.304078
3796.746094 0.000000 2659.303223 0.000000 0.716982 0.000000 0.697092 0.285269 0.285269 0.285269
3798.411865 0.000000 2658.610352 0.000000 0.937344 0.000000 -0.348405 0.306797 0.306797 0.306797
3811.844727 0.000000 2656.640137 0.000000 0.949540 0.000000 0.313646 0.293907 0.293907 0.293907
3824.474854 0.000000 2657.014404 0.000000 0.321865 0.000000 0.946786 0.276259 0.276259 0.276259
3807.473389 0.000000 2660.421143 0.000000 0.938204 0.000000 -0.346083 0.306326 0.306326 0.306326
3821.165771 0.000000 2660.730469 0.000000 0.991891 0.000000 -0.127093 0.302434 0.302434 0.302434
3803.628662 0.000000 2661.915283 0.000000 0.999021 0.000000 -0.044250 0.300845 0.300845 0.300845
3804.945068 0.000000 2664.448730 0.000000 0.382549 0.000000 0.923935 0.277497 0.277497 0.277497
3793.401123 0.000000 2655.337891 0.000000 0.062653 0.000000 0.998035 0.273174 0.273174 0.273174
3820.868164 0.000000 2662.018066 0.000000 0.992096 0.000000 0.125484 0.297597 0.297597 0.297597
3798.214600 0.000000 2659.458252 0.000000 0.827465 0.000000 0.561518 0.288613 0.288613 0.288613
3810.658203 0.000000 2657.533936 0.000000 0.762177 0.000000 0.647368 0.286552 0.286552 0.286552
3801.368896 0.000000 2662.609375 0.000000 0.817011 0.000000 0.576622 0.288953 0.288953 0.288953
3815.041016 0.000000 2669.124268 0.000000 0.920550 0.000000 0.390625 0.292336 0.292336 0.292336
3815.543701 0.000000 2657.926758 0.000000 0.961795 0.000000 -0.273770 0.305296 0.305296 0.305296
3798.025391 0.000000 2661.570557 0.000000 0.979874 0.000000 -0.199617 0.303688 0.303688 0.303688
3799.881836 0.000000 2658.956055 0.000000 0.681428 0.000000 0.731885 0.284318 0.284318 0.284318
3807.611572 0.000000 2667.313232 0.000000 0.993512 0.000000 0.113726 0.297828 0.297828 0.297828
3826.949219 0.000000 2657.577637 0.000000 0.999708 0.000000 -0.024168 0.300462 0.300462 0.300462
3813.101807 0.000000 2661.628418 0.000000 0.868499 0.000000 0.495691 0.290095 0.290095 0.290095
3797.434814 0.000000 2659.715088 0.000000 0.504132 0.000000 0.863627 0.280091 0.280091 0.280091
3831.791016 0.000000 2666.970703 0.000000 0.772285 0.000000 0.635276 0.286853 0.286853 0.286853
3798.701172 0.000000 2655.645752 0.000000 0.838232 0.000000 0.545315 0.288985 0.288985 0.288985
3810.809814 0.000000 2655.667969 0.000000 0.022391 0.000000 0.999749 0.270428 0.270428 0.270428
3812.917725 0.000000 2658.066406 0.000000 0.934480 0.000000 -0.356016 0.306925 0.306925 0.306925
3828.323975 0.000000 2656.384766 0.000000 0.551243 0.000000 0.834345 0.281151 0.281151 0.281151
3819.717285 0.000000 2669.587646 0.000000 0.936269 0.000000 0.351284 0.293145 0.293145 0.293145
3801.045166 0.000000 2661.888672 0.000000 0.242957 0.000000 0.970037 0.274687 0.274687 0.274687
4469.385254 0.000000 2572.404053 0.000000 0.277581 0.000000 0.960702 0.209199 0.209199 0.209199
4473.187988 0.000000 2573.282227 0.000000 0.193645 0.000000 0.981072 0.223601 0.223601 0.223601
4470.992676 0.000000 2573.489502 0.000000 1.000000 0.000000 -0.000428 0.300008 0.300008 0.300008
4470.086914 0.000000 2572.992676 0.000000 0.973668 0.000000 0.227970 0.295607 0.295607 0.295607
4543.374512 0.000000 2581.892334 0.000000 0.811047 0.000000 0.584981 0.200146 0.200146 0.200146
4510.716309 0.000000 2588.034912 0.000000 0.947610 0.000000 -0.319429 0.214068 0.214068 0.214068
4515.429199 0.000000 2591.967773 0.000000 0.999842 0.000000 -0.017790 0.243611 0.243611 0.243611
4492.164062 0.000000 2577.306396 0.000000 0.595221 0.000000 0.803562 0.237329 0.237329 0.237329
4534.834961 0.000000 2579.471436 0.000000 0.183541 0.000000 0.983012 0.230270 0.230270 0.230270
4535.950684 0.000000 2579.980957 0.000000 0.215045 0.000000 0.976604 0.230627 0.230627 0.230627
4485.747070 0.000000 2574.767822 0.000000 0.999102 0.000000 0.042367 0.272515 0.272515 0.272515
4516.531250 0.000000 2585.942871 0.000000 0.599523 0.000000 0.800358 0.263618 0.263618 0.263618
4513.586426 0.000000 2588.916992 0.000000 0.785048 0.000000 0.619435 0.268410 0.268410 0.268410
4489.796387 0.000000 2574.291016 0.000000 0.982816 0.000000 0.184588 0.273250 0.273250 0.273250
4481.447266 0.000000 2573.418945 0.000000 0.411320 0.000000 0.911491 0.266771 0.266771 0.266771
4543.416016 0.000000 2588.603760 0.000000 0.870438 0.000000 -0.492278 0.309830 0.309830 0.309830
4542.866699 0.000000 2586.241699 0.000000 0.646465 0.000000 0.762944 0.283425 0.283425 0.283425
4483.793457 0.000000 2574.255127 0.000000 0.680711 0.000000 0.732552 0.284854 0.284854 0.284854
4543.655273 0.000000 2587.393311 0.000000 0.978878 0.000000 -0.204446 0.303932 0.303932 0.303932
4542.886719 0.000000 2587.053955 0.000000 0.984367 0.000000 -0.176128 0.303381 0.303381 0.303381
4589.814941 0.000000 2578.343018 0.000000 0.921965 0.000000 -0.387272 0.209435 0.209435 0.209435
4544.126465 0.000000 2587.479736 0.000000 0.323920 0.000000 0.946085 0.228444 0.228444 0.228444
4545.354492 0.000000 2583.512939 0.000000 0.834202 0.000000 0.551459 0.250234 0.250234 0.250234
4602.917480 0.000000 2589.043457 0.000000 0.983288 0.000000 0.182055 0.265056 0.265056 0.265056
4588.563965 0.000000 2581.516602 0.000000 0.999398 0.000000 -0.034693 0.278657 0.278657 0.278657
4545.237793 0.000000 2578.118896 0.000000 0.740633 0.000000 0.671910 0.248355 0.248355 0.248355
4575.761230 0.000000 2580.804932 0.000000 0.528278 0.000000 0.849071 0.281807 0.281807 0.281807
4684.080078 0.000000 2516.601318 0.000000 0.705440 0.000000 0.708770 0.212013 0.212013 0.212013
4711.039551 0.000000 2525.474121 0.000000 0.900179 0.000000 0.435521 0.217593 0.217593 0.217593
4686.777344 0.000000 2505.564697 0.000000 0.834884 0.000000 0.550426 0.212706 0.212706 0.212706
4697.034668 0.000000 2517.259033 0.000000 0.252555 0.000000 0.967583 0.206001 0.206001 0.206001
4687.974609 0.000000 2518.872314 0.000000 0.883472 0.000000 -0.468483 0.222948 0.222948 0.222948
4683.147461 0.000000 2523.478027 0.000000 0.803288 0.000000 0.595591 0.216468 0.216468 0.216468
4695.838867 0.000000 2516.336182 0.000000 0.999851 0.000000 0.017282 0.239314 0.239314 0.239314
4704.868164 0.000000 2501.683838 0.000000 0.989809 0.000000 -0.142404 0.242699 0.242699 0.242699
4694.292480 0.000000 2516.733154 0.000000 0.683675 0.000000 0.729786 0.230912 0.230912 0.230912
4691.301758 0.000000 2504.881348 0.000000 0.429399 0.000000 0.903115 0.230660 0.230660 0.230660
4695.285645 0.000000 2525.022949 0.000000 0.717756 0.000000 0.696295 0.228821 0.228821 0.228821
4694.709473 0.000000 2505.274658 0.000000 0.429579 0.000000 0.903030 0.239105 0.239105 0.239105
4703.169922 0.000000 2498.550049 0.000000 0.916862 0.000000 -0.399205 0.253717 0.253717 0.253717
4723.609375 0.000000 2515.478760 0.000000 0.731941 0.000000 0.681368 0.243031 0.243031 0.243031
4723.089355 0.000000 2514.309326 0.000000 0.341943 0.000000 0.939721 0.237495 0.237495 0.237495
4678.969727 0.000000 2517.636719 0.000000 0.988008 0.000000 -0.154405 0.273572 0.273572 0.273572
4700.939453 0.000000 2528.925293 0.000000 0.810536 0.000000 0.585689 0.267986 0.267986 0.267986
4696.183105 0.000000 2507.000000 0.000000 0.265571 0.000000 0.964091 0.241399 0.241399 0.241399
4695.987793 0.000000 2513.950928 0.000000 0.488349 0.000000 0.872648 0.257755 0.257755 0.257755
4700.514160 0.000000 2499.109375 0.000000 0.870630 0.000000 0.491939 0.287487 0.287487 0.287487
4700.338867 0.000000 2529.814453 0.000000 0.908566 0.000000 -0.417741 0.283260 0.283260 0.283260
4696.788574 0.000000 2499.424805 0.000000 0.003485 0.000000 0.999994 0.256674 0.256674 0.256674
4710.730957 0.000000 2510.905518 0.000000 0.495791 0.000000 0.868442 0.262317 0.262317 0.262317
4702.965820 0.000000 2514.801758 0.000000 0.844267 0.000000 -0.535923 0.306725 0.306725 0.306725
4719.847168 0.000000 2513.434326 0.000000 0.955217 0.000000 0.295905 0.273771 0.273771 0.273771
4699.129883 0.000000 2528.116699 0.000000 0.533780 0.000000 0.845624 0.269393 0.269393 0.269393
4718.351074 0.000000 2504.262451 0.000000 0.950351 0.000000 -0.311181 0.296711 0.296711 0.296711
4696.943848 0.000000 2498.238525 0.000000 0.832149 0.000000 0.554552 0.271146 0.271146 0.271146
4701.937500 0.000000 2500.307617 0.000000 0.619396 0.000000 0.785079 0.263478 0.263478 0.263478
4686.583984 0.000000 2506.527588 0.000000 0.989483 0.000000 0.144647 0.279340 0.279340 0.279340
4702.683105 0.000000 2525.584717 0.000000 0.074980 0.000000 0.997185 0.274122 0.274122 0.274122
4700.431152 0.000000 2504.775146 0.000000 0.599934 0.000000 0.800049 0.283157 0.283157 0.283157
4683.228027 0.000000 2520.944092 0.000000 0.504928 0.000000 0.863162 0.279657 0.279657 0.279657
4717.326660 0.000000 2511.165283 0.000000 0.926407 0.000000 -0.376523 0.306780 0.306780 0.306780
4701.746582 0.000000 2502.726562 0.000000 0.406656 0.000000 0.913581 0.277998 0.277998 0.277998
4702.161621 0.000000 2504.240234 0.000000 0.873077 0.000000 0.487582 0.291150 0.291150 0.291150
4694.711914 0.000000 2503.211182 0.000000 0.949595 0.000000 -0.313479 0.306090 0.306090 0.306090
4699.044922 0.000000 2505.892822 0.000000 0.054998 0.000000 0.998487 0.271051 0.271051 0.271051
4703.843262 0.000000 2504.447754 0.000000 0.556912 0.000000 0.830572 0.282969 0.282969 0.282969
4698.685059 0.000000 2521.453857 0.000000 0.666810 0.000000 0.745228 0.285045 0.285045 0.285045
4680.206543 0.000000 2516.017578 0.000000 0.999690 0.000000 -0.024884 0.300444 0.300444 0.300444
4698.909668 0.000000 2520.522949 0.000000 0.976107 0.000000 0.217292 0.295690 0.295690 0.295690
4700.162598 0.000000 2502.768311 0.000000 0.074712 0.000000 0.997205 0.271428 0.271428 0.271428
4694.864258 0.000000 2527.338379 0.000000 0.664856 0.000000 0.746972 0.283890 0.283890 0.283890
4703.761230 0.000000 2524.320557 0.000000 0.942529 0.000000 0.334123 0.294106 0.294106 0.294106
4712.175781 0.000000 2526.469238 0.000000 0.961210 0.000000 -0.275818 0.304876 0.304876 0.304876
4694.175293 0.000000 2526.749023 0.000000 0.887518 0.000000 -0.460774 0.309146 0.309146 0.309146
4704.896973 0.000000 2525.213623 0.000000 0.859901 0.000000 0.510461 0.290270 0.290270 0.290270
4701.415527 0.000000 2503.870117 0.000000 0.935173 0.000000 -0.354190 0.306915 0.306915 0.306915
4695.416504 0.000000 2503.693115 0.000000 0.959044 0.000000 0.283257 0.294515 0.294515 0.294515
4694.880859 0.000000 2502.280762 0.000000 0.997908 0.000000 -0.064650 0.301236 0.301236 0.301236
4699.485840 0.000000 2504.833252 0.000000 0.451826 0.000000 0.892106 0.278954 0.278954 0.278954
4700.598633 0.000000 2503.971680 0.000000 0.975135 0.000000 0.221612 0.295732 0.295732 0.295732
4718.016113 0.000000 2510.660889 0.000000 0.997098 0.000000 -0.076127 0.301455 0.301455 0.301455
4629.917480 0.000000 2586.059082 0.000000 0.318838 0.000000 0.947809 0.203084 0.203084 0.203084
4626.010742 0.000000 2592.329834 0.000000 0.843071 0.000000 0.537803 0.225589 0.225589 0.225589
4654.203125 0.000000 2565.318359 0.000000 0.881002 0.000000 -0.473113 0.237627 0.237627 0.237627
4628.708984 0.000000 2585.362305 0.000000 0.991194 0.000000 0.132415 0.250816 0.250816 0.250816
4663.129883 0.000000 2568.390137 0.000000 0.098845 0.000000 0.995103 0.226450 0.226450 0.226450
4656.056641 0.000000 2593.003662 0.000000 0.646305 0.000000 0.763079 0.227821 0.227821 0.227821
4659.089355 0.000000 2570.793701 0.000000 0.539812 0.000000 0.841786 0.243604 0.243604 0.243604
4628.580078 0.000000 2589.394043 0.000000 0.876709 0.000000 0.481021 0.243811 0.243811 0.243811
4648.134277 0.000000 2586.387451 0.000000 0.224805 0.000000 0.974404 0.236062 0.236062 0.236062
4628.942871 0.000000 2591.404053 0.000000 0.903521 0.000000 -0.428544 0.269327 0.269327 0.269327
4647.189453 0.000000 2579.755615 0.000000 0.926087 0.000000 0.377310 0.267688 0.267688 0.267688
4615.570801 0.000000 2584.892822 0.000000 0.788141 0.000000 0.615494 0.276238 0.276238 0.276238
4668.967285 0.000000 2553.386230 0.000000 0.966595 0.000000 -0.256308 0.285393 0.285393 0.285393
4636.338867 0.000000 2586.298828 0.000000 0.990750 0.000000 0.135697 0.288846 0.288846 0.288846
4646.235352 0.000000 2579.281494 0.000000 0.986390 0.000000 0.164425 0.270795 0.270795 0.270795
4663.580566 0.000000 2571.836670 0.000000 0.901444 0.000000 -0.432895 0.289983 0.289983 0.289983
4626.467285 0.000000 2586.013916 0.000000 0.999607 0.000000 -0.028036 0.300488 0.300488 0.300488
4647.420898 0.000000 2573.300537 0.000000 0.973929 0.000000 0.226852 0.281358 0.281358 0.281358
4612.888184 0.000000 2582.729980 0.000000 0.958539 0.000000 0.284960 0.285845 0.285845 0.285845
4614.644531 0.000000 2584.224365 0.000000 0.839355 0.000000 0.543584 0.277612 0.277612 0.277612
4659.399902 0.000000 2568.987793 0.000000 0.599786 0.000000 0.800161 0.283119 0.283119 0.283119
4668.331543 0.000000 2554.217773 0.000000 0.814787 0.000000 -0.579760 0.296779 0.296779 0.296779
4659.548340 0.000000 2569.963867 0.000000 0.672399 0.000000 0.740189 0.284833 0.284833 0.284833
4640.118652 0.000000 2585.898926 0.000000 0.868599 0.000000 -0.495516 0.309513 0.309513 0.309513
4627.773926 0.000000 2585.737305 0.000000 0.875547 0.000000 0.483133 0.291087 0.291087 0.291087
4627.957031 0.000000 2584.833740 0.000000 0.989254 0.000000 -0.146210 0.302594 0.302594 0.302594
4625.103516 0.000000 2591.879150 0.000000 0.161068 0.000000 0.986943 0.273301 0.273301 0.273301
4627.236816 0.000000 2586.423828 0.000000 0.728432 0.000000 0.685118 0.286857 0.286857 0.286857
4641.092285 0.000000 2584.400879 0.000000 0.657498 0.000000 0.753456 0.284342 0.284342 0.284342
4641.506836 0.000000 2585.843018 0.000000 0.068349 0.000000 0.997662 0.272432 0.272432 0.272432
4625.055176 0.000000 2588.886719 0.000000 0.300026 0.000000 0.953931 0.276578 0.276578 0.276578
4641.680664 0.000000 2585.009277 0.000000 0.876108 0.000000 0.482116 0.290769 0.290769 0.290769
4640.096191 0.000000 2584.788330 0.000000 0.824864 0.000000 -0.565331 0.311025 0.311025 0.311025
4634.310547 0.000000 2584.579102 0.000000 0.986465 0.000000 0.163971 0.297039 0.297039 0.297039
4625.081055 0.000000 2583.683594 0.000000 0.983813 0.000000 0.179200 0.296559 0.296559 0.296559
4693.235840 0.000000 2561.657959 0.000000 0.648436 0.000000 0.761269 0.194038 0.194038 0.194038
4686.033691 0.000000 2547.687744 0.000000 0.828367 0.000000 0.560186 0.201435 0.201435 0.201435
4688.790527 0.000000 2549.952148 0.000000 0.988192 0.000000 -0.153218 0.222358 0.222358 0.222358
4682.256348 0.000000 2546.027588 0.000000 0.471779 0.000000 0.881717 0.212551 0.212551 0.212551
4684.241699 0.000000 2544.061768 0.000000 0.913507 0.000000 -0.406824 0.226428 0.226428 0.226428
4694.351074 0.000000 2560.537354 0.000000 0.999527 0.000000 0.030743 0.234705 0.234705 0.234705
4675.916016 0.000000 2546.409912 0.000000 0.740907 0.000000 0.671608 0.231249 0.231249 0.231249
4673.598145 0.000000 2545.362549 0.000000 0.462618 0.000000 0.886558 0.228060 0.228060 0.228060
4688.268066 0.000000 2554.074951 0.000000 0.901083 0.000000 0.433647 0.243354 0.243354 0.243354
4678.427246 0.000000 2552.354736 0.000000 0.848180 0.000000 0.529707 0.257927 0.257927 0.257927
4684.040527 0.000000 2560.569336 0.000000 0.866067 0.000000 0.499927 0.281561 0.281561 0.281561
4691.490723 0.000000 2556.493164 0.000000 0.304043 0.000000 0.952658 0.272153 0.272153 0.272153
4680.262207 0.000000 2552.988525 0.000000 0.599651 0.000000 0.800262 0.282282 0.282282 0.282282
4691.198730 0.000000 2557.345215 0.000000 0.640493 0.000000 0.767964 0.278447 0.278447 0.278447
4680.266602 0.000000 2552.075195 0.000000 0.412182 0.000000 0.911102 0.278114 0.278114 0.278114
4686.034668 0.000000 2549.593018 0.000000 0.395274 0.000000 0.918563 0.277979 0.277979 0.277979
4681.919434 0.000000 2552.887939 0.000000 0.943319 0.000000 0.331887 0.293539 0.293539 0.293539
4684.502441 0.000000 2546.369873 0.000000 0.799328 0.000000 0.600895 0.288244 0.288244 0.288244
"}
object={
	name="cypress_mediterranean_dense_generator_3_1"
	clamp_to_water_level=no
	render_under_water=no
	generated_content=yes
	layer="semidynamic_high"
	pdxmesh="tree_cypress_mediterranean_01_mesh"
	count=104
	transform="3803.698975 0.000000 2644.780518 0.000000 0.413967 0.000000 -0.910292 0.208928 0.208928 0.208928
3816.389160 0.000000 2651.911621 0.000000 0.371943 0.000000 -0.928256 0.220321 0.220321 0.220321
3787.256348 0.000000 2651.314697 0.000000 0.189916 0.000000 -0.981800 0.230598 0.230598 0.230598
3799.599854 0.000000 2652.836426 0.000000 0.313170 0.000000 -0.949697 0.243856 0.243856 0.243856
3808.283936 0.000000 2640.469971 0.000000 0.140583 0.000000 -0.990069 0.243681 0.243681 0.243681
3816.675293 0.000000 2645.321533 0.000000 0.619504 0.000000 -0.784994 0.252016 0.252016 0.252016
3781.351807 0.000000 2649.914307 0.000000 0.585711 0.000000 -0.810520 0.263516 0.263516 0.263516
3811.980713 0.000000 2646.074707 0.000000 0.583571 0.000000 -0.812062 0.274636 0.274636 0.274636
3813.249023 0.000000 2652.486816 0.000000 0.012226 0.000000 -0.999925 0.300880 0.300880 0.300880
3813.165527 0.000000 2636.323975 0.000000 0.272555 0.000000 -0.962140 0.282286 0.282286 0.282286
3822.329102 0.000000 2652.519043 0.000000 0.692524 0.000000 -0.721395 0.297253 0.297253 0.297253
3804.664307 0.000000 2650.823975 0.000000 0.640435 0.000000 -0.768013 0.310088 0.310088 0.310088
3808.251221 0.000000 2639.489014 0.000000 0.432156 0.000000 -0.901799 0.315491 0.315491 0.315491
3809.109131 0.000000 2639.986328 0.000000 0.389048 0.000000 -0.921217 0.316284 0.316284 0.316284
3789.181641 0.000000 2650.605957 0.000000 0.090992 0.000000 -0.995852 0.319474 0.319474 0.319474
3818.709229 0.000000 2646.515869 0.000000 0.339638 0.000000 -0.940556 0.323382 0.323382 0.323382
3808.121094 0.000000 2648.159912 0.000000 0.629713 0.000000 -0.776828 0.313426 0.313426 0.313426
3816.175781 0.000000 2639.437988 0.000000 0.200181 0.000000 -0.979759 0.326151 0.326151 0.326151
3813.782471 0.000000 2639.071533 0.000000 0.675635 0.000000 -0.737236 0.315832 0.315832 0.315832
3813.347168 0.000000 2640.331543 0.000000 0.269980 0.000000 -0.962866 0.324633 0.324633 0.324633
3810.636719 0.000000 2642.843750 0.000000 0.026993 0.000000 -0.999636 0.328328 0.328328 0.328328
3811.577881 0.000000 2654.348633 0.000000 0.470423 0.000000 -0.882441 0.320646 0.320646 0.320646
3820.097900 0.000000 2654.376465 0.000000 0.083533 0.000000 -0.996505 0.328403 0.328403 0.328403
3812.594482 0.000000 2649.696289 0.000000 0.085896 0.000000 -0.996304 0.328358 0.328358 0.328358
3797.166016 0.000000 2653.329102 0.000000 0.138124 0.000000 -0.990415 0.326978 0.326978 0.326978
3810.864502 0.000000 2651.591064 0.000000 0.264106 0.000000 -0.964494 0.324895 0.324895 0.324895
3817.299805 0.000000 2640.455811 0.000000 0.236751 0.000000 -0.971570 0.325435 0.325435 0.325435
3803.966309 0.000000 2664.378662 0.000000 0.315579 0.000000 -0.948899 0.217701 0.217701 0.217701
3820.189209 0.000000 2659.786865 0.000000 0.677010 0.000000 -0.735974 0.238506 0.238506 0.238506
3827.663818 0.000000 2655.934082 0.000000 0.253445 0.000000 -0.967350 0.241948 0.241948 0.241948
3793.011475 0.000000 2656.102783 0.000000 0.770303 0.000000 -0.637679 0.265332 0.265332 0.265332
3829.270996 0.000000 2658.065674 0.000000 0.335289 0.000000 -0.942115 0.257413 0.257413 0.257413
3815.881592 0.000000 2654.828857 0.000000 0.800390 0.000000 -0.599480 0.256373 0.256373 0.256373
3816.114014 0.000000 2657.321045 0.000000 0.739849 0.000000 -0.672773 0.269525 0.269525 0.269525
3800.484619 0.000000 2654.776855 0.000000 0.459519 0.000000 -0.888168 0.289687 0.289687 0.289687
3808.901855 0.000000 2661.649414 0.000000 0.638656 0.000000 -0.769492 0.272516 0.272516 0.272516
3817.192139 0.000000 2657.211670 0.000000 0.598618 0.000000 -0.801035 0.271933 0.271933 0.271933
3834.104004 0.000000 2666.819824 0.000000 0.712239 0.000000 -0.701937 0.285230 0.285230 0.285230
3815.911377 0.000000 2659.688232 0.000000 0.247479 0.000000 -0.968893 0.306457 0.306457 0.306457
3810.543213 0.000000 2662.516357 0.000000 0.482665 0.000000 -0.875805 0.297487 0.297487 0.297487
3817.508545 0.000000 2667.139648 0.000000 0.635620 0.000000 -0.772002 0.313917 0.313917 0.313917
3814.424805 0.000000 2662.363525 0.000000 0.381016 0.000000 -0.924568 0.320590 0.320590 0.320590
3822.421143 0.000000 2654.800537 0.000000 0.739161 0.000000 -0.673529 0.312730 0.312730 0.312730
3824.167236 0.000000 2665.572510 0.000000 0.572083 0.000000 -0.820195 0.300272 0.300272 0.300272
3813.216797 0.000000 2664.915039 0.000000 0.582407 0.000000 -0.812897 0.317913 0.317913 0.317913
3796.914307 0.000000 2658.217529 0.000000 0.062096 0.000000 -0.998070 0.328813 0.328813 0.328813
3808.861816 0.000000 2655.140625 0.000000 0.363943 0.000000 -0.931421 0.322886 0.322886 0.322886
3803.286133 0.000000 2660.572754 0.000000 0.735713 0.000000 -0.677294 0.314211 0.314211 0.314211
3827.500244 0.000000 2666.042236 0.000000 0.007573 0.000000 -0.999971 0.329855 0.329855 0.329855
3815.926514 0.000000 2669.634033 0.000000 0.698712 0.000000 -0.715403 0.315225 0.315225 0.315225
3798.942139 0.000000 2660.124023 0.000000 0.132887 0.000000 -0.991131 0.326378 0.326378 0.326378
3800.679199 0.000000 2660.271484 0.000000 0.429028 0.000000 -0.903291 0.321531 0.321531 0.321531
3818.345703 0.000000 2660.075439 0.000000 0.540642 0.000000 -0.841253 0.319091 0.319091 0.319091
3821.705322 0.000000 2664.349121 0.000000 0.269497 0.000000 -0.963001 0.324789 0.324789 0.324789
3825.800293 0.000000 2666.127686 0.000000 0.471268 0.000000 -0.881990 0.320628 0.320628 0.320628
3812.138672 0.000000 2659.262207 0.000000 0.574070 0.000000 -0.818806 0.318250 0.318250 0.318250
3829.483887 0.000000 2657.280762 0.000000 0.351268 0.000000 -0.936275 0.323145 0.323145 0.323145
3825.454346 0.000000 2658.618896 0.000000 0.237638 0.000000 -0.971354 0.325418 0.325418 0.325418
4533.101074 0.000000 2587.122314 0.000000 0.243948 0.000000 -0.969788 0.220140 0.220140 0.220140
4514.837891 0.000000 2589.888184 0.000000 0.202953 0.000000 -0.979188 0.248763 0.248763 0.248763
4542.208984 0.000000 2578.457520 0.000000 0.089880 0.000000 -0.995953 0.246721 0.246721 0.246721
4481.280273 0.000000 2575.646240 0.000000 0.636810 0.000000 -0.771021 0.242659 0.242659 0.242659
4528.927734 0.000000 2586.812744 0.000000 0.367154 0.000000 -0.930160 0.253910 0.253910 0.253910
4538.406250 0.000000 2580.877197 0.000000 0.356162 0.000000 -0.934424 0.267228 0.267228 0.267228
4517.261230 0.000000 2591.178467 0.000000 0.008597 0.000000 -0.999963 0.285802 0.285802 0.285802
4516.357422 0.000000 2587.036133 0.000000 0.295869 0.000000 -0.955229 0.293472 0.293472 0.293472
4542.096680 0.000000 2587.614258 0.000000 0.000803 0.000000 -1.000000 0.329985 0.329985 0.329985
4542.385254 0.000000 2589.910645 0.000000 0.494621 0.000000 -0.869109 0.320118 0.320118 0.320118
4552.076660 0.000000 2585.850342 0.000000 0.148178 0.000000 -0.988961 0.227183 0.227183 0.227183
4592.927734 0.000000 2586.812744 0.000000 0.505419 0.000000 -0.862874 0.254123 0.254123 0.254123
4552.383301 0.000000 2586.768066 0.000000 0.081645 0.000000 -0.996661 0.325985 0.325985 0.325985
4552.052246 0.000000 2587.548096 0.000000 0.348761 0.000000 -0.937212 0.321195 0.321195 0.321195
4689.688477 0.000000 2513.539307 0.000000 0.370835 0.000000 -0.928699 0.238281 0.238281 0.238281
4700.266602 0.000000 2522.679688 0.000000 0.372120 0.000000 -0.928185 0.239511 0.239511 0.239511
4696.874512 0.000000 2503.327637 0.000000 0.121691 0.000000 -0.992568 0.256617 0.256617 0.256617
4694.619629 0.000000 2518.833740 0.000000 0.650272 0.000000 -0.759701 0.261938 0.261938 0.261938
4679.754395 0.000000 2515.278809 0.000000 0.086721 0.000000 -0.996233 0.257633 0.257633 0.257633
4697.886230 0.000000 2527.385010 0.000000 0.046504 0.000000 -0.998918 0.299722 0.299722 0.299722
4696.817383 0.000000 2518.346191 0.000000 0.243644 0.000000 -0.969865 0.281398 0.281398 0.281398
4698.105957 0.000000 2506.013428 0.000000 0.503578 0.000000 -0.863950 0.278978 0.278978 0.278978
4689.124023 0.000000 2505.313965 0.000000 0.395380 0.000000 -0.918517 0.302760 0.302760 0.302760
4712.891602 0.000000 2510.748047 0.000000 0.016774 0.000000 -0.999859 0.289628 0.289628 0.289628
4678.455566 0.000000 2516.386963 0.000000 0.699329 0.000000 -0.714799 0.282437 0.282437 0.282437
4697.353516 0.000000 2504.270020 0.000000 0.785949 0.000000 -0.618291 0.311557 0.311557 0.311557
4690.823242 0.000000 2521.450928 0.000000 0.319915 0.000000 -0.947446 0.321822 0.321822 0.321822
4719.114746 0.000000 2505.658936 0.000000 0.075993 0.000000 -0.997108 0.315753 0.315753 0.315753
4681.627441 0.000000 2516.520996 0.000000 0.740999 0.000000 -0.671506 0.313124 0.313124 0.313124
4718.760254 0.000000 2511.967285 0.000000 0.777940 0.000000 -0.628339 0.312976 0.312976 0.312976
4700.500488 0.000000 2531.649170 0.000000 0.259369 0.000000 -0.965778 0.323764 0.323764 0.323764
4719.493652 0.000000 2511.647949 0.000000 0.050243 0.000000 -0.998737 0.329040 0.329040 0.329040
4701.031738 0.000000 2502.428467 0.000000 0.398802 0.000000 -0.917037 0.322166 0.322166 0.322166
4654.880859 0.000000 2592.332520 0.000000 0.027400 0.000000 -0.999625 0.216794 0.216794 0.216794
4669.294434 0.000000 2557.312256 0.000000 0.029833 0.000000 -0.999555 0.260825 0.260825 0.260825
4627.222656 0.000000 2583.629883 0.000000 0.697326 0.000000 -0.716754 0.276380 0.276380 0.276380
4659.609375 0.000000 2571.963135 0.000000 0.521236 0.000000 -0.853413 0.268146 0.268146 0.268146
4653.173340 0.000000 2565.691162 0.000000 0.090791 0.000000 -0.995870 0.310898 0.310898 0.310898
4668.518066 0.000000 2555.119629 0.000000 0.689232 0.000000 -0.724541 0.299778 0.299778 0.299778
4624.262695 0.000000 2590.410645 0.000000 0.798551 0.000000 -0.601926 0.312239 0.312239 0.312239
4683.377441 0.000000 2561.340332 0.000000 0.801975 0.000000 -0.597357 0.233737 0.233737 0.233737
4691.704102 0.000000 2555.561035 0.000000 0.604435 0.000000 -0.796654 0.228489 0.228489 0.228489
4676.471191 0.000000 2545.440918 0.000000 0.655121 0.000000 -0.755524 0.274688 0.274688 0.274688
4684.269531 0.000000 2549.654541 0.000000 0.163721 0.000000 -0.986507 0.292814 0.292814 0.292814
4686.202637 0.000000 2555.500977 0.000000 0.560556 0.000000 -0.828117 0.297367 0.297367 0.297367
4689.859375 0.000000 2557.679443 0.000000 0.531612 0.000000 -0.846988 0.317517 0.317517 0.317517
"}
