﻿object={
	name="cypress_mediterranean_sparse_generator_3_0"
	clamp_to_water_level=no
	render_under_water=no
	generated_content=yes
	layer="semidynamic_high"
	pdxmesh="tree_cypress_mediterranean_02_mesh"
	count=205
	transform="3797.323242 0.000000 2639.503174 0.000000 0.998418 0.000000 -0.056228 0.237270 0.237270 0.237270
3795.857178 0.000000 2650.978027 0.000000 0.828414 0.000000 0.560117 0.243798 0.243798 0.243798
3796.942871 0.000000 2647.888428 0.000000 0.971633 0.000000 0.236493 0.248475 0.248475 0.248475
3822.052490 0.000000 2651.718018 0.000000 0.634698 0.000000 0.772760 0.284059 0.284059 0.284059
3817.650879 0.000000 2664.052246 0.000000 0.726123 0.000000 0.687565 0.197585 0.197585 0.197585
3814.073975 0.000000 2664.612305 0.000000 0.480652 0.000000 0.876911 0.229278 0.229278 0.229278
3816.166748 0.000000 2667.371826 0.000000 0.993131 0.000000 -0.117009 0.249794 0.249794 0.249794
3814.167725 0.000000 2666.422119 0.000000 0.396760 0.000000 0.917922 0.279360 0.279360 0.279360
3901.535889 0.000000 2652.456787 0.000000 0.960563 0.000000 -0.278062 0.221758 0.221758 0.221758
3902.093750 0.000000 2647.158203 0.000000 0.086206 0.000000 0.996277 0.243400 0.243400 0.243400
3941.294678 0.000000 2643.237305 0.000000 0.887999 0.000000 0.459846 0.215207 0.215207 0.215207
3914.331299 0.000000 2643.617676 0.000000 0.466140 0.000000 0.884711 0.218049 0.218049 0.218049
3915.735107 0.000000 2642.334473 0.000000 0.815922 0.000000 -0.578162 0.234106 0.234106 0.234106
3945.205322 0.000000 2654.737549 0.000000 0.984825 0.000000 0.173549 0.235462 0.235462 0.235462
3904.328369 0.000000 2646.749512 0.000000 0.686477 0.000000 0.727152 0.240734 0.240734 0.240734
3931.313477 0.000000 2645.914795 0.000000 0.832885 0.000000 -0.553446 0.280730 0.280730 0.280730
3931.631348 0.000000 2654.131348 0.000000 0.937455 0.000000 -0.348106 0.278091 0.278091 0.278091
3934.526123 0.000000 2642.736572 0.000000 0.375804 0.000000 0.926699 0.257954 0.257954 0.257954
3922.479248 0.000000 2644.924805 0.000000 0.954236 0.000000 0.299055 0.268313 0.268313 0.268313
3905.671143 0.000000 2648.201904 0.000000 0.980637 0.000000 -0.195832 0.270719 0.270719 0.270719
3928.413086 0.000000 2651.699463 0.000000 0.134608 0.000000 0.990899 0.248753 0.248753 0.248753
3933.641357 0.000000 2644.037109 0.000000 0.980158 0.000000 0.198220 0.266479 0.266479 0.266479
3932.950195 0.000000 2646.145996 0.000000 0.991665 0.000000 -0.128846 0.275488 0.275488 0.275488
3932.341553 0.000000 2647.945312 0.000000 0.970125 0.000000 -0.242605 0.277118 0.277118 0.277118
3929.314697 0.000000 2651.010986 0.000000 0.357930 0.000000 0.933748 0.251861 0.251861 0.251861
3927.599365 0.000000 2645.167969 0.000000 0.866652 0.000000 0.498913 0.273167 0.273167 0.273167
3933.200684 0.000000 2647.227051 0.000000 0.826742 0.000000 -0.562581 0.282079 0.282079 0.282079
3937.586182 0.000000 2645.401367 0.000000 0.159441 0.000000 0.987207 0.252872 0.252872 0.252872
3941.517334 0.000000 2645.430420 0.000000 0.247960 0.000000 0.968770 0.266012 0.266012 0.266012
3930.430664 0.000000 2643.864014 0.000000 0.919948 0.000000 -0.392040 0.307151 0.307151 0.307151
3915.876953 0.000000 2636.999756 0.000000 0.781861 0.000000 0.623453 0.283805 0.283805 0.283805
3931.169678 0.000000 2642.586670 0.000000 0.622592 0.000000 0.782547 0.284047 0.284047 0.284047
3894.180420 0.000000 2678.615723 0.000000 0.769355 0.000000 0.638822 0.201756 0.201756 0.201756
3886.245605 0.000000 2674.688232 0.000000 0.920257 0.000000 -0.391316 0.219895 0.219895 0.219895
3890.709717 0.000000 2668.855469 0.000000 0.891903 0.000000 0.452228 0.206142 0.206142 0.206142
3902.038330 0.000000 2678.748779 0.000000 0.429409 0.000000 0.903110 0.213640 0.213640 0.213640
3892.122803 0.000000 2692.430664 0.000000 0.755471 0.000000 0.655182 0.224168 0.224168 0.224168
3888.663086 0.000000 2673.421631 0.000000 0.994228 0.000000 0.107290 0.225613 0.225613 0.225613
3903.116211 0.000000 2674.515381 0.000000 0.293262 0.000000 0.956032 0.231036 0.231036 0.231036
3893.635254 0.000000 2693.288330 0.000000 0.907961 0.000000 0.419055 0.226901 0.226901 0.226901
3897.981445 0.000000 2660.393066 0.000000 0.881907 0.000000 -0.471423 0.254635 0.254635 0.254635
3896.005127 0.000000 2660.872803 0.000000 0.574014 0.000000 0.818846 0.238045 0.238045 0.238045
3898.872070 0.000000 2682.896484 0.000000 0.892766 0.000000 0.450521 0.277695 0.277695 0.277695
3899.427246 0.000000 2677.950439 0.000000 0.769510 0.000000 0.638635 0.254087 0.254087 0.254087
3902.513916 0.000000 2685.376465 0.000000 0.983386 0.000000 0.181529 0.290838 0.290838 0.290838
3893.577393 0.000000 2669.797607 0.000000 0.173510 0.000000 0.984832 0.263891 0.263891 0.263891
3892.330322 0.000000 2688.626465 0.000000 0.368606 0.000000 0.929586 0.279012 0.279012 0.279012
3897.849854 0.000000 2682.355225 0.000000 0.999220 0.000000 -0.039492 0.282667 0.282667 0.282667
3900.553711 0.000000 2655.072510 0.000000 0.986595 0.000000 0.163188 0.287849 0.287849 0.287849
3899.031494 0.000000 2685.468018 0.000000 0.183243 0.000000 0.983068 0.257932 0.257932 0.257932
3893.654785 0.000000 2687.577393 0.000000 0.999713 0.000000 -0.023969 0.300416 0.300416 0.300416
3884.766602 0.000000 2672.789062 0.000000 0.192246 0.000000 0.981347 0.273695 0.273695 0.273695
3942.535645 0.000000 2684.273682 0.000000 0.732512 0.000000 0.680754 0.195046 0.195046 0.195046
3953.687988 0.000000 2663.718262 0.000000 0.527610 0.000000 0.849487 0.196236 0.196236 0.196236
3904.712402 0.000000 2672.986572 0.000000 0.953805 0.000000 -0.300426 0.210462 0.210462 0.210462
3946.440430 0.000000 2670.974609 0.000000 0.962612 0.000000 0.270882 0.210946 0.210946 0.210946
3919.228516 0.000000 2681.777832 0.000000 0.989377 0.000000 0.145370 0.215304 0.215304 0.215304
3941.967529 0.000000 2679.662842 0.000000 0.996799 0.000000 -0.079954 0.222839 0.222839 0.222839
3923.835449 0.000000 2675.652588 0.000000 0.998155 0.000000 0.060711 0.224933 0.224933 0.224933
3919.824707 0.000000 2678.212402 0.000000 0.992617 0.000000 0.121291 0.219942 0.219942 0.219942
3948.147461 0.000000 2670.401123 0.000000 0.886060 0.000000 -0.463571 0.222901 0.222901 0.222901
3935.967773 0.000000 2672.965332 0.000000 0.396703 0.000000 0.917947 0.222316 0.222316 0.222316
3933.067139 0.000000 2678.278564 0.000000 0.682973 0.000000 0.730444 0.221084 0.221084 0.221084
3926.733154 0.000000 2663.536621 0.000000 0.642141 0.000000 0.766587 0.224683 0.224683 0.224683
3948.311035 0.000000 2668.354736 0.000000 0.799857 0.000000 0.600190 0.236415 0.236415 0.236415
3948.409912 0.000000 2680.793945 0.000000 0.929865 0.000000 -0.367900 0.236484 0.236484 0.236484
3908.588867 0.000000 2664.403076 0.000000 0.963664 0.000000 -0.267118 0.248085 0.248085 0.248085
3942.060303 0.000000 2675.589844 0.000000 0.749975 0.000000 0.661467 0.223565 0.223565 0.223565
3908.081787 0.000000 2674.735352 0.000000 0.718963 0.000000 0.695049 0.237128 0.237128 0.237128
3921.185303 0.000000 2669.271729 0.000000 0.144831 0.000000 0.989456 0.230315 0.230315 0.230315
3928.135986 0.000000 2675.179932 0.000000 0.913548 0.000000 0.406730 0.242619 0.242619 0.242619
3943.639160 0.000000 2681.838867 0.000000 0.999847 0.000000 -0.017499 0.242485 0.242485 0.242485
3908.727295 0.000000 2662.016602 0.000000 0.999136 0.000000 -0.041553 0.258497 0.258497 0.258497
3914.511230 0.000000 2673.456543 0.000000 0.999462 0.000000 -0.032807 0.246585 0.246585 0.246585
3935.121582 0.000000 2686.025879 0.000000 0.993883 0.000000 -0.110435 0.271257 0.271257 0.271257
3928.484619 0.000000 2654.776855 0.000000 0.999980 0.000000 -0.006327 0.273759 0.273759 0.273759
3933.720459 0.000000 2677.348877 0.000000 0.889809 0.000000 0.456333 0.259568 0.259568 0.259568
3935.979004 0.000000 2683.833496 0.000000 0.127732 0.000000 0.991809 0.248189 0.248189 0.248189
3930.453857 0.000000 2655.779785 0.000000 0.905089 0.000000 0.425222 0.266955 0.266955 0.266955
3942.425049 0.000000 2658.576904 0.000000 0.837220 0.000000 -0.546866 0.267517 0.267517 0.267517
3947.303711 0.000000 2657.325928 0.000000 0.679800 0.000000 0.733398 0.277786 0.277786 0.277786
3908.471191 0.000000 2658.409668 0.000000 0.933553 0.000000 0.358440 0.285136 0.285136 0.285136
3916.186768 0.000000 2675.038086 0.000000 0.160065 0.000000 0.987107 0.261810 0.261810 0.261810
3911.503174 0.000000 2662.039062 0.000000 0.934337 0.000000 -0.356391 0.281715 0.281715 0.281715
3915.304932 0.000000 2662.088623 0.000000 0.941573 0.000000 -0.336808 0.301817 0.301817 0.301817
3923.823730 0.000000 2689.030029 0.000000 0.988868 0.000000 -0.148798 0.271785 0.271785 0.271785
3917.781738 0.000000 2675.295898 0.000000 0.898190 0.000000 -0.439607 0.290096 0.290096 0.290096
3944.319824 0.000000 2676.313721 0.000000 0.104837 0.000000 0.994489 0.260965 0.260965 0.260965
3920.272217 0.000000 2689.321045 0.000000 0.985271 0.000000 -0.171000 0.287514 0.287514 0.287514
3925.314941 0.000000 2671.282471 0.000000 0.633969 0.000000 0.773358 0.258196 0.258196 0.258196
3922.752197 0.000000 2668.830078 0.000000 0.962256 0.000000 -0.272145 0.274661 0.274661 0.274661
3936.311279 0.000000 2687.531494 0.000000 0.656054 0.000000 0.754714 0.278780 0.278780 0.278780
3933.979736 0.000000 2682.969238 0.000000 0.826185 0.000000 0.563398 0.286600 0.286600 0.286600
3929.353271 0.000000 2673.723145 0.000000 0.967632 0.000000 -0.252365 0.302652 0.302652 0.302652
3920.059082 0.000000 2677.269531 0.000000 0.545985 0.000000 0.837795 0.269121 0.269121 0.269121
3920.803467 0.000000 2677.896973 0.000000 0.965790 0.000000 -0.259325 0.288326 0.288326 0.288326
3920.505371 0.000000 2678.894043 0.000000 0.943432 0.000000 0.331567 0.293912 0.293912 0.293912
3917.893066 0.000000 2684.187256 0.000000 0.729880 0.000000 0.683575 0.286246 0.286246 0.286246
3940.576660 0.000000 2675.181641 0.000000 0.611892 0.000000 0.790942 0.284010 0.284010 0.284010
3908.596924 0.000000 2660.104980 0.000000 0.372833 0.000000 0.927899 0.269021 0.269021 0.269021
3927.932129 0.000000 2659.770508 0.000000 0.442488 0.000000 0.896775 0.272162 0.272162 0.272162
3923.924072 0.000000 2672.573486 0.000000 0.778054 0.000000 0.628198 0.271861 0.271861 0.271861
3927.241455 0.000000 2658.353516 0.000000 0.129167 0.000000 0.991623 0.266914 0.266914 0.266914
3929.470459 0.000000 2680.626465 0.000000 0.280791 0.000000 0.959769 0.275869 0.275869 0.275869
3921.859375 0.000000 2670.648193 0.000000 0.975852 0.000000 -0.218432 0.304098 0.304098 0.304098
3939.621338 0.000000 2668.597656 0.000000 0.528260 0.000000 0.849083 0.282035 0.282035 0.282035
3906.881836 0.000000 2680.465088 0.000000 0.932516 0.000000 0.361130 0.280270 0.280270 0.280270
3911.293213 0.000000 2677.313477 0.000000 0.983938 0.000000 -0.178511 0.303428 0.303428 0.303428
3912.070801 0.000000 2678.789795 0.000000 0.642546 0.000000 0.766247 0.284047 0.284047 0.284047
3910.026611 0.000000 2680.075684 0.000000 0.952419 0.000000 -0.304791 0.305915 0.305915 0.305915
3942.632080 0.000000 2687.902832 0.000000 0.493898 0.000000 0.869520 0.280103 0.280103 0.280103
3938.097168 0.000000 2669.060547 0.000000 0.944596 0.000000 0.328234 0.294076 0.294076 0.294076
3905.151855 0.000000 2675.952881 0.000000 0.165532 0.000000 0.986204 0.273176 0.273176 0.273176
3922.979004 0.000000 2679.517334 0.000000 0.717006 0.000000 0.697067 0.286309 0.286309 0.286309
3923.120117 0.000000 2671.934570 0.000000 0.568318 0.000000 0.822809 0.281544 0.281544 0.281544
3912.460938 0.000000 2679.950195 0.000000 0.269673 0.000000 0.962952 0.276284 0.276284 0.276284
3935.309326 0.000000 2678.582520 0.000000 0.851518 0.000000 -0.524326 0.310355 0.310355 0.310355
3939.477783 0.000000 2660.704346 0.000000 0.931567 0.000000 -0.363568 0.307106 0.307106 0.307106
3912.206299 0.000000 2677.895996 0.000000 0.832150 0.000000 0.554551 0.288773 0.288773 0.288773
3928.189941 0.000000 2679.645752 0.000000 0.420076 0.000000 0.907489 0.279430 0.279430 0.279430
3905.600342 0.000000 2675.058838 0.000000 0.301270 0.000000 0.953539 0.275845 0.275845 0.275845
3920.188965 0.000000 2671.187744 0.000000 0.109192 0.000000 0.994021 0.272801 0.272801 0.272801
3911.094482 0.000000 2679.020020 0.000000 0.992784 0.000000 -0.119915 0.302296 0.302296 0.302296
3939.758057 0.000000 2669.638428 0.000000 0.526251 0.000000 0.850330 0.281993 0.281993 0.281993
3925.675293 0.000000 2679.972412 0.000000 0.988401 0.000000 -0.151866 0.302912 0.302912 0.302912
3943.354492 0.000000 2687.493408 0.000000 0.997969 0.000000 0.063699 0.298797 0.298797 0.298797
3907.840820 0.000000 2663.930908 0.000000 0.916838 0.000000 -0.399260 0.307706 0.307706 0.307706
3910.531982 0.000000 2678.408447 0.000000 0.412331 0.000000 0.911034 0.278117 0.278117 0.278117
3913.821533 0.000000 2677.609375 0.000000 0.786913 0.000000 0.617064 0.287299 0.287299 0.287299
3907.348145 0.000000 2674.420166 0.000000 0.526928 0.000000 0.849910 0.280599 0.280599 0.280599
3905.203613 0.000000 2678.127930 0.000000 0.999693 0.000000 0.024759 0.299527 0.299527 0.299527
3925.313477 0.000000 2678.314941 0.000000 0.193790 0.000000 0.981043 0.273725 0.273725 0.273725
3911.665771 0.000000 2676.454102 0.000000 0.899206 0.000000 -0.437526 0.308649 0.308649 0.308649
3937.354980 0.000000 2680.053467 0.000000 0.386514 0.000000 0.922284 0.277579 0.277579 0.277579
4016.647949 0.000000 2695.241455 0.000000 0.147235 0.000000 0.989102 0.190479 0.190479 0.190479
4004.952637 0.000000 2695.242432 0.000000 0.856407 0.000000 0.516301 0.201825 0.201825 0.201825
4027.429443 0.000000 2680.078125 0.000000 0.610563 0.000000 0.791967 0.210415 0.210415 0.210415
4025.864990 0.000000 2683.356934 0.000000 0.998134 0.000000 -0.061061 0.219855 0.219855 0.219855
4013.470459 0.000000 2702.050049 0.000000 0.999373 0.000000 0.035401 0.231308 0.231308 0.231308
4011.584473 0.000000 2693.840576 0.000000 0.991155 0.000000 0.132710 0.238652 0.238652 0.238652
4010.410156 0.000000 2695.801514 0.000000 0.999196 0.000000 0.040085 0.249119 0.249119 0.249119
3974.916748 0.000000 2657.189453 0.000000 0.013325 0.000000 0.999911 0.242462 0.242462 0.242462
4053.668701 0.000000 2664.554443 0.000000 0.808368 0.000000 0.588678 0.195867 0.195867 0.195867
4091.502197 0.000000 2666.762939 0.000000 0.023534 0.000000 0.999723 0.200649 0.200649 0.200649
4051.935547 0.000000 2664.524170 0.000000 0.738129 0.000000 0.674660 0.215558 0.215558 0.215558
4051.835449 0.000000 2675.652588 0.000000 0.967990 0.000000 0.250990 0.216592 0.216592 0.216592
4067.595703 0.000000 2674.877441 0.000000 0.930870 0.000000 0.365351 0.215560 0.215560 0.215560
4058.692139 0.000000 2667.216553 0.000000 0.947431 0.000000 -0.319961 0.235981 0.235981 0.235981
4070.060303 0.000000 2675.589844 0.000000 0.998749 0.000000 -0.050006 0.231015 0.231015 0.231015
4037.044922 0.000000 2685.642334 0.000000 0.670141 0.000000 0.742234 0.233805 0.233805 0.233805
4036.693359 0.000000 2687.406006 0.000000 0.983451 0.000000 -0.181173 0.252815 0.252815 0.252815
4058.770996 0.000000 2664.366211 0.000000 0.994568 0.000000 0.104084 0.244501 0.244501 0.244501
4055.342773 0.000000 2679.506104 0.000000 0.244153 0.000000 0.969737 0.245939 0.245939 0.245939
4067.832275 0.000000 2676.485107 0.000000 0.660803 0.000000 0.750559 0.268805 0.268805 0.268805
4050.223877 0.000000 2677.918701 0.000000 0.809556 0.000000 -0.587042 0.302942 0.302942 0.302942
4066.436279 0.000000 2677.865479 0.000000 0.958879 0.000000 0.283815 0.277205 0.277205 0.277205
4051.004639 0.000000 2676.159912 0.000000 0.785044 0.000000 0.619440 0.281831 0.281831 0.281831
4033.447266 0.000000 2686.387695 0.000000 0.683198 0.000000 0.730233 0.285775 0.285775 0.285775
4081.642822 0.000000 2682.454834 0.000000 0.936909 0.000000 -0.349575 0.292111 0.292111 0.292111
4032.138916 0.000000 2687.129639 0.000000 0.722273 0.000000 0.691608 0.286730 0.286730 0.286730
4006.826172 0.000000 2717.986084 0.000000 0.709312 0.000000 0.704894 0.220393 0.220393 0.220393
4009.729980 0.000000 2717.221924 0.000000 0.027441 0.000000 0.999623 0.251021 0.251021 0.251021
6731.557617 0.000000 1508.541504 0.000000 0.998414 0.000000 0.056292 0.214940 0.214940 0.214940
6754.393066 0.000000 1521.295410 0.000000 0.086255 0.000000 0.996273 0.211384 0.211384 0.211384
6730.666016 0.000000 1510.955322 0.000000 0.997189 0.000000 0.074922 0.244270 0.244270 0.244270
6740.580078 0.000000 1516.190918 0.000000 0.871342 0.000000 -0.490677 0.253708 0.253708 0.253708
6743.733887 0.000000 1510.494995 0.000000 0.574339 0.000000 0.818618 0.248640 0.248640 0.248640
6752.789062 0.000000 1521.713867 0.000000 0.815187 0.000000 -0.579198 0.273387 0.273387 0.273387
6727.104492 0.000000 1512.890625 0.000000 0.813918 0.000000 -0.580980 0.305832 0.305832 0.305832
6729.779297 0.000000 1511.133667 0.000000 0.814309 0.000000 0.580432 0.288753 0.288753 0.288753
6740.237793 0.000000 1518.628906 0.000000 0.010773 0.000000 0.999942 0.270206 0.270206 0.270206
4427.583008 0.000000 2362.804199 0.000000 0.633765 0.000000 0.773526 0.225602 0.225602 0.225602
4206.722168 0.000000 2589.608398 0.000000 0.720201 0.000000 0.693766 0.231450 0.231450 0.231450
4212.617188 0.000000 2595.153809 0.000000 0.511406 0.000000 0.859339 0.259117 0.259117 0.259117
4213.595703 0.000000 2594.858887 0.000000 0.264129 0.000000 0.964487 0.255323 0.255323 0.255323
4224.126465 0.000000 2587.479736 0.000000 0.508151 0.000000 0.861268 0.231626 0.231626 0.231626
4225.426270 0.000000 2585.640137 0.000000 0.973141 0.000000 0.230212 0.295920 0.295920 0.295920
4224.844727 0.000000 2584.398193 0.000000 0.603975 0.000000 0.797003 0.283801 0.283801 0.283801
4154.637207 0.000000 2625.214844 0.000000 0.913313 0.000000 0.407258 0.197333 0.197333 0.197333
4214.158691 0.000000 2630.341064 0.000000 0.624435 0.000000 0.781076 0.197102 0.197102 0.197102
4220.771484 0.000000 2635.365479 0.000000 0.683120 0.000000 0.730306 0.208625 0.208625 0.208625
4214.588867 0.000000 2651.464355 0.000000 0.313122 0.000000 0.949713 0.210520 0.210520 0.210520
4212.777832 0.000000 2631.229248 0.000000 0.882376 0.000000 -0.470544 0.227645 0.227645 0.227645
4200.653320 0.000000 2643.923828 0.000000 0.440049 0.000000 0.897974 0.214754 0.214754 0.214754
4186.914551 0.000000 2649.985107 0.000000 0.339197 0.000000 0.940715 0.227631 0.227631 0.227631
4198.706543 0.000000 2643.617432 0.000000 0.729968 0.000000 0.683481 0.243514 0.243514 0.243514
4219.344238 0.000000 2634.918213 0.000000 0.967460 0.000000 -0.253024 0.252521 0.252521 0.252521
4179.228027 0.000000 2602.818848 0.000000 0.860684 0.000000 -0.509139 0.293675 0.293675 0.293675
4204.581055 0.000000 2651.122070 0.000000 0.997326 0.000000 -0.073076 0.301364 0.301364 0.301364
4207.568359 0.000000 2650.194336 0.000000 0.999989 0.000000 0.004691 0.299910 0.299910 0.299910
4151.696777 0.000000 2664.051514 0.000000 0.485552 0.000000 0.874208 0.229839 0.229839 0.229839
4150.206543 0.000000 2662.181396 0.000000 0.990302 0.000000 0.138929 0.270053 0.270053 0.270053
4151.309570 0.000000 2663.011230 0.000000 0.634632 0.000000 0.772814 0.259724 0.259724 0.259724
4146.345703 0.000000 2667.881348 0.000000 0.704077 0.000000 0.710124 0.254373 0.254373 0.254373
4149.339355 0.000000 2663.086182 0.000000 0.173090 0.000000 0.984906 0.266690 0.266690 0.266690
4148.064941 0.000000 2662.626221 0.000000 0.966223 0.000000 0.257706 0.284671 0.284671 0.284671
4174.213379 0.000000 2656.470459 0.000000 0.961228 0.000000 -0.275754 0.234375 0.234375 0.234375
4174.462402 0.000000 2658.407959 0.000000 0.768799 0.000000 0.639490 0.268033 0.268033 0.268033
4177.756836 0.000000 2656.632080 0.000000 0.945721 0.000000 -0.324978 0.305863 0.305863 0.305863
4227.597168 0.000000 2623.387939 0.000000 0.961658 0.000000 -0.274253 0.233210 0.233210 0.233210
4229.431641 0.000000 2609.057861 0.000000 0.565328 0.000000 0.824866 0.227287 0.227287 0.227287
4237.322266 0.000000 2602.877930 0.000000 0.314949 0.000000 0.949109 0.216497 0.216497 0.216497
4229.597168 0.000000 2625.167969 0.000000 0.841955 0.000000 -0.539547 0.243112 0.243112 0.243112
4226.948730 0.000000 2621.444092 0.000000 0.463706 0.000000 0.885989 0.261786 0.261786 0.261786
5429.633789 0.000000 2635.338379 0.000000 0.067830 0.000000 0.997697 0.191200 0.191200 0.191200
"}
object={
	name="cypress_mediterranean_sparse_generator_3_1"
	clamp_to_water_level=no
	render_under_water=no
	generated_content=yes
	layer="semidynamic_high"
	pdxmesh="tree_cypress_mediterranean_01_mesh"
	count=89
	transform="3796.063721 0.000000 2639.155518 0.000000 0.749315 0.000000 -0.662214 0.244094 0.244094 0.244094
3820.614990 0.000000 2647.537842 0.000000 0.154487 0.000000 -0.987995 0.256902 0.256902 0.256902
3941.577148 0.000000 2646.449707 0.000000 0.450231 0.000000 -0.892912 0.235002 0.235002 0.235002
3946.601562 0.000000 2650.129883 0.000000 0.570561 0.000000 -0.821255 0.256355 0.256355 0.256355
3934.985596 0.000000 2647.325195 0.000000 0.229064 0.000000 -0.973411 0.252921 0.252921 0.252921
3930.372314 0.000000 2651.137939 0.000000 0.724453 0.000000 -0.689324 0.259530 0.259530 0.259530
3904.743896 0.000000 2649.201904 0.000000 0.145122 0.000000 -0.989414 0.287238 0.287238 0.287238
3914.928955 0.000000 2637.434326 0.000000 0.629816 0.000000 -0.776744 0.309695 0.309695 0.309695
3936.121094 0.000000 2648.159912 0.000000 0.511637 0.000000 -0.859202 0.314609 0.314609 0.314609
3938.306641 0.000000 2645.726074 0.000000 0.641777 0.000000 -0.766891 0.316692 0.316692 0.316692
3893.385498 0.000000 2685.372803 0.000000 0.294426 0.000000 -0.955674 0.240289 0.240289 0.240289
3894.998291 0.000000 2672.067871 0.000000 0.620671 0.000000 -0.784071 0.239220 0.239220 0.239220
3892.696045 0.000000 2690.869385 0.000000 0.188894 0.000000 -0.981998 0.264814 0.264814 0.264814
3896.792236 0.000000 2673.035156 0.000000 0.220355 0.000000 -0.975420 0.286852 0.286852 0.286852
3896.785400 0.000000 2683.289795 0.000000 0.397033 0.000000 -0.917804 0.299551 0.299551 0.299551
3897.619629 0.000000 2679.104492 0.000000 0.784382 0.000000 -0.620277 0.287909 0.287909 0.287909
3897.661377 0.000000 2672.497559 0.000000 0.390211 0.000000 -0.920726 0.284437 0.284437 0.284437
3899.543457 0.000000 2682.141602 0.000000 0.219945 0.000000 -0.975512 0.305598 0.305598 0.305598
3893.342529 0.000000 2688.506104 0.000000 0.239561 0.000000 -0.970881 0.322189 0.322189 0.322189
3892.046387 0.000000 2687.067627 0.000000 0.020722 0.000000 -0.999785 0.326876 0.326876 0.326876
3894.992432 0.000000 2686.458252 0.000000 0.005520 0.000000 -0.999985 0.327609 0.327609 0.327609
3896.612793 0.000000 2671.079590 0.000000 0.307244 0.000000 -0.951631 0.321773 0.321773 0.321773
3926.981445 0.000000 2682.990234 0.000000 0.411690 0.000000 -0.911324 0.224285 0.224285 0.224285
3926.351074 0.000000 2673.506104 0.000000 0.241463 0.000000 -0.970410 0.235156 0.235156 0.235156
3924.841797 0.000000 2689.331787 0.000000 0.242284 0.000000 -0.970205 0.248988 0.248988 0.248988
3916.917725 0.000000 2672.962646 0.000000 0.416564 0.000000 -0.909106 0.243393 0.243393 0.243393
3930.692139 0.000000 2667.216553 0.000000 0.464477 0.000000 -0.885585 0.244723 0.244723 0.244723
3927.560547 0.000000 2672.291504 0.000000 0.300217 0.000000 -0.953871 0.234609 0.234609 0.234609
3934.394531 0.000000 2672.812012 0.000000 0.506547 0.000000 -0.862212 0.244244 0.244244 0.244244
3933.379639 0.000000 2666.240967 0.000000 0.440099 0.000000 -0.897949 0.253682 0.253682 0.253682
3948.345703 0.000000 2665.482178 0.000000 0.011572 0.000000 -0.999933 0.274006 0.274006 0.274006
3934.868408 0.000000 2675.507812 0.000000 0.700259 0.000000 -0.713889 0.272676 0.272676 0.272676
3937.173340 0.000000 2679.162842 0.000000 0.680980 0.000000 -0.732302 0.290134 0.290134 0.290134
3929.039551 0.000000 2663.393066 0.000000 0.428235 0.000000 -0.903668 0.282615 0.282615 0.282615
3950.371826 0.000000 2675.778809 0.000000 0.659740 0.000000 -0.751494 0.313997 0.313997 0.313997
3954.001709 0.000000 2662.021484 0.000000 0.294635 0.000000 -0.955610 0.310212 0.310212 0.310212
3951.114746 0.000000 2675.112061 0.000000 0.168720 0.000000 -0.985664 0.323428 0.323428 0.323428
3941.897217 0.000000 2661.517822 0.000000 0.716217 0.000000 -0.697877 0.305305 0.305305 0.305305
3922.019287 0.000000 2660.536621 0.000000 0.325319 0.000000 -0.945604 0.321629 0.321629 0.321629
3938.721191 0.000000 2668.382324 0.000000 0.481506 0.000000 -0.876443 0.318925 0.318925 0.318925
3945.935059 0.000000 2663.197754 0.000000 0.000233 0.000000 -1.000000 0.329349 0.329349 0.329349
3912.997314 0.000000 2677.568848 0.000000 0.731563 0.000000 -0.681774 0.314327 0.314327 0.314327
3940.286865 0.000000 2674.200439 0.000000 0.671147 0.000000 -0.741324 0.314635 0.314635 0.314635
3923.198975 0.000000 2670.313965 0.000000 0.749793 0.000000 -0.661672 0.313809 0.313809 0.313809
3916.858154 0.000000 2685.458984 0.000000 0.701515 0.000000 -0.712654 0.314497 0.314497 0.314497
3910.445068 0.000000 2681.607422 0.000000 0.779413 0.000000 -0.626510 0.312931 0.312931 0.312931
3920.200195 0.000000 2670.287842 0.000000 0.000035 0.000000 -1.000000 0.329235 0.329235 0.329235
3921.229004 0.000000 2679.468018 0.000000 0.115303 0.000000 -0.993330 0.326213 0.326213 0.326213
3921.705078 0.000000 2671.692383 0.000000 0.502810 0.000000 -0.864397 0.319430 0.319430 0.319430
3922.975586 0.000000 2677.569336 0.000000 0.121870 0.000000 -0.992546 0.327667 0.327667 0.327667
3910.858154 0.000000 2679.898193 0.000000 0.661161 0.000000 -0.750244 0.316204 0.316204 0.316204
3904.465576 0.000000 2679.717285 0.000000 0.756121 0.000000 -0.654432 0.313626 0.313626 0.313626
3938.267822 0.000000 2660.879395 0.000000 0.240272 0.000000 -0.970706 0.325366 0.325366 0.325366
3937.982422 0.000000 2660.018555 0.000000 0.172754 0.000000 -0.984965 0.326684 0.326684 0.326684
3911.686523 0.000000 2681.553467 0.000000 0.350002 0.000000 -0.936749 0.323171 0.323171 0.323171
4031.163330 0.000000 2687.440186 0.000000 0.349602 0.000000 -0.936898 0.216808 0.216808 0.216808
4011.818848 0.000000 2692.267578 0.000000 0.784642 0.000000 -0.619949 0.247109 0.247109 0.247109
4048.790283 0.000000 2662.920898 0.000000 0.662590 0.000000 -0.748982 0.225424 0.225424 0.225424
4076.992676 0.000000 2677.666260 0.000000 0.751192 0.000000 -0.660084 0.254262 0.254262 0.254262
4052.231934 0.000000 2678.553467 0.000000 0.320822 0.000000 -0.947139 0.251924 0.251924 0.251924
4033.989746 0.000000 2687.842773 0.000000 0.572166 0.000000 -0.820138 0.316710 0.316710 0.316710
4088.314209 0.000000 2689.595703 0.000000 0.735987 0.000000 -0.676996 0.312866 0.312866 0.312866
4089.323242 0.000000 2688.098145 0.000000 0.384239 0.000000 -0.923234 0.320353 0.320353 0.320353
4074.561768 0.000000 2677.089600 0.000000 0.176041 0.000000 -0.984383 0.326620 0.326620 0.326620
4075.204590 0.000000 2676.631104 0.000000 0.577356 0.000000 -0.816492 0.318245 0.318245 0.318245
6740.196289 0.000000 1517.356079 0.000000 0.533734 0.000000 -0.845653 0.259313 0.259313 0.259313
6742.761719 0.000000 1513.671509 0.000000 0.262226 0.000000 -0.965006 0.322782 0.322782 0.322782
6743.622559 0.000000 1518.355591 0.000000 0.422406 0.000000 -0.906407 0.320226 0.320226 0.320226
4205.470215 0.000000 2589.081299 0.000000 0.638144 0.000000 -0.769917 0.236580 0.236580 0.236580
4216.630371 0.000000 2651.736328 0.000000 0.702710 0.000000 -0.711477 0.211206 0.211206 0.211206
4217.187988 0.000000 2629.766602 0.000000 0.430332 0.000000 -0.902671 0.255665 0.255665 0.255665
4221.367188 0.000000 2649.416992 0.000000 0.271786 0.000000 -0.962358 0.254352 0.254352 0.254352
4214.683594 0.000000 2628.843018 0.000000 0.122515 0.000000 -0.992467 0.261091 0.261091 0.261091
4195.500000 0.000000 2645.155029 0.000000 0.779534 0.000000 -0.626360 0.311635 0.311635 0.311635
4183.415527 0.000000 2649.793457 0.000000 0.513585 0.000000 -0.858039 0.318154 0.318154 0.318154
4178.243652 0.000000 2603.049805 0.000000 0.456054 0.000000 -0.889952 0.302362 0.302362 0.302362
4162.627930 0.000000 2612.828369 0.000000 0.478693 0.000000 -0.877982 0.318581 0.318581 0.318581
4163.858398 0.000000 2613.055664 0.000000 0.023777 0.000000 -0.999717 0.326823 0.326823 0.326823
4183.622559 0.000000 2648.042969 0.000000 0.526101 0.000000 -0.850422 0.317896 0.317896 0.317896
4206.052246 0.000000 2651.718018 0.000000 0.435686 0.000000 -0.900099 0.321390 0.321390 0.321390
4207.146973 0.000000 2650.884277 0.000000 0.639661 0.000000 -0.768657 0.316745 0.316745 0.316745
4150.395020 0.000000 2664.828857 0.000000 0.412491 0.000000 -0.910962 0.253386 0.253386 0.253386
4175.104980 0.000000 2657.668213 0.000000 0.266648 0.000000 -0.963794 0.244330 0.244330 0.244330
4229.597656 0.000000 2611.748779 0.000000 0.541140 0.000000 -0.840932 0.245066 0.245066 0.245066
4238.623047 0.000000 2602.992676 0.000000 0.595419 0.000000 -0.803416 0.247454 0.247454 0.247454
4236.654785 0.000000 2601.985596 0.000000 0.059117 0.000000 -0.998251 0.305459 0.305459 0.305459
4227.739746 0.000000 2620.552002 0.000000 0.289353 0.000000 -0.957223 0.296135 0.296135 0.296135
4237.181641 0.000000 2600.097168 0.000000 0.425680 0.000000 -0.904874 0.299712 0.299712 0.299712
4238.462402 0.000000 2601.923584 0.000000 0.190730 0.000000 -0.981643 0.296314 0.296314 0.296314
"}
