﻿object={
	name="cypress_mediterranean_sparse_generator_2_0"
	clamp_to_water_level=no
	render_under_water=no
	generated_content=yes
	layer="semidynamic_medium"
	pdxmesh="tree_cypress_mediterranean_02_mesh"
	count=212
	transform="3806.716309 0.000000 2644.519287 0.000000 0.996341 0.000000 0.085466 0.233597 0.233597 0.233597
3794.536621 0.000000 2651.750977 0.000000 0.966991 0.000000 0.254809 0.247709 0.247709 0.247709
3822.953857 0.000000 2651.680908 0.000000 0.949266 0.000000 0.314476 0.294226 0.294226 0.294226
3809.632324 0.000000 2652.090576 0.000000 0.996566 0.000000 -0.082808 0.273705 0.273705 0.273705
3809.152344 0.000000 2644.449219 0.000000 0.902070 0.000000 -0.431590 0.275834 0.275834 0.275834
3822.797363 0.000000 2650.084473 0.000000 0.933452 0.000000 -0.358701 0.306622 0.306622 0.306622
3814.214844 0.000000 2667.395508 0.000000 0.996302 0.000000 0.085916 0.298473 0.298473 0.298473
3815.188721 0.000000 2667.878662 0.000000 0.484317 0.000000 0.874893 0.281092 0.281092 0.281092
3897.384521 0.000000 2654.532959 0.000000 0.504861 0.000000 0.863201 0.200652 0.200652 0.200652
3903.976562 0.000000 2648.896729 0.000000 0.172143 0.000000 0.985072 0.205307 0.205307 0.205307
3903.025635 0.000000 2647.646484 0.000000 0.976449 0.000000 0.215750 0.259672 0.259672 0.259672
3898.669922 0.000000 2654.019043 0.000000 0.994914 0.000000 0.100725 0.284985 0.284985 0.284985
3900.293213 0.000000 2654.604004 0.000000 0.863185 0.000000 -0.504888 0.298958 0.298958 0.298958
3943.299805 0.000000 2644.660645 0.000000 0.873004 0.000000 0.487713 0.205292 0.205292 0.205292
3914.235840 0.000000 2641.965576 0.000000 0.359327 0.000000 0.933212 0.211952 0.211952 0.211952
3919.869873 0.000000 2635.104004 0.000000 0.171288 0.000000 0.985221 0.205299 0.205299 0.205299
3940.144287 0.000000 2647.242676 0.000000 0.606585 0.000000 0.795019 0.216544 0.216544 0.216544
3917.139648 0.000000 2641.825928 0.000000 0.994985 0.000000 0.100023 0.221240 0.221240 0.221240
3946.638916 0.000000 2648.713867 0.000000 0.991286 0.000000 -0.131729 0.236911 0.236911 0.236911
3912.076904 0.000000 2642.334717 0.000000 0.459906 0.000000 0.887968 0.216975 0.216975 0.216975
3919.800049 0.000000 2641.344971 0.000000 0.092785 0.000000 0.995686 0.215319 0.215319 0.215319
3928.203857 0.000000 2642.808838 0.000000 0.991535 0.000000 -0.129837 0.234623 0.234623 0.234623
3922.634521 0.000000 2643.549805 0.000000 0.166738 0.000000 0.986001 0.223318 0.223318 0.223318
3933.264404 0.000000 2645.062500 0.000000 0.933753 0.000000 0.357919 0.264219 0.264219 0.264219
3935.740967 0.000000 2643.249756 0.000000 0.972698 0.000000 0.232073 0.271464 0.271464 0.271464
3938.377441 0.000000 2642.008545 0.000000 0.999979 0.000000 0.006418 0.289254 0.289254 0.289254
3936.754395 0.000000 2648.782227 0.000000 0.642573 0.000000 0.766225 0.282496 0.282496 0.282496
3931.159668 0.000000 2652.409668 0.000000 0.770609 0.000000 0.637308 0.246320 0.246320 0.246320
3923.615967 0.000000 2644.540039 0.000000 0.444269 0.000000 0.895893 0.257060 0.257060 0.257060
3941.886230 0.000000 2644.452881 0.000000 0.134170 0.000000 0.990958 0.264207 0.264207 0.264207
3937.152344 0.000000 2644.449219 0.000000 0.152748 0.000000 0.988265 0.252777 0.252777 0.252777
3932.472656 0.000000 2643.797363 0.000000 0.586320 0.000000 0.810079 0.281965 0.281965 0.281965
3939.590576 0.000000 2644.169434 0.000000 0.979290 0.000000 0.202465 0.296106 0.296106 0.296106
3938.360840 0.000000 2643.654541 0.000000 0.998413 0.000000 -0.056322 0.290251 0.290251 0.290251
3921.206543 0.000000 2635.612549 0.000000 0.877311 0.000000 0.479923 0.278766 0.278766 0.278766
3932.338867 0.000000 2642.783203 0.000000 0.159003 0.000000 0.987278 0.273050 0.273050 0.273050
3939.500000 0.000000 2645.155029 0.000000 0.186594 0.000000 0.982437 0.273585 0.273585 0.273585
3896.551025 0.000000 2687.624756 0.000000 0.871006 0.000000 -0.491273 0.203372 0.203372 0.203372
3891.759033 0.000000 2686.130371 0.000000 0.997687 0.000000 -0.067970 0.205828 0.205828 0.205828
3890.798096 0.000000 2691.446777 0.000000 0.907291 0.000000 -0.420503 0.210289 0.210289 0.210289
3897.460693 0.000000 2654.868896 0.000000 0.637561 0.000000 0.770400 0.201902 0.201902 0.201902
3903.510498 0.000000 2679.502441 0.000000 0.749629 0.000000 0.661858 0.217283 0.217283 0.217283
3886.782471 0.000000 2696.829834 0.000000 0.928289 0.000000 -0.371859 0.216247 0.216247 0.216247
3898.561523 0.000000 2686.524902 0.000000 0.971243 0.000000 0.238089 0.216706 0.216706 0.216706
3889.424561 0.000000 2693.182129 0.000000 0.997112 0.000000 0.075942 0.213107 0.213107 0.213107
3885.537598 0.000000 2695.155273 0.000000 0.904800 0.000000 -0.425837 0.234773 0.234773 0.234773
3890.750244 0.000000 2695.318848 0.000000 0.994587 0.000000 0.103910 0.229529 0.229529 0.229529
3892.679199 0.000000 2674.454834 0.000000 0.851507 0.000000 -0.524343 0.222913 0.222913 0.222913
3899.261963 0.000000 2676.901611 0.000000 0.919558 0.000000 -0.392955 0.268236 0.268236 0.268236
3897.112305 0.000000 2661.355957 0.000000 0.878654 0.000000 -0.477459 0.254714 0.254714 0.254714
3884.147461 0.000000 2670.401123 0.000000 0.330949 0.000000 0.943649 0.252443 0.252443 0.252443
3902.383301 0.000000 2675.932129 0.000000 0.995147 0.000000 -0.098397 0.246187 0.246187 0.246187
3885.641357 0.000000 2671.122559 0.000000 0.704651 0.000000 0.709554 0.258479 0.258479 0.258479
3899.955078 0.000000 2685.820801 0.000000 0.419758 0.000000 0.907636 0.261562 0.261562 0.261562
3890.908447 0.000000 2693.531494 0.000000 0.979394 0.000000 -0.201957 0.245629 0.245629 0.245629
3902.321777 0.000000 2673.097900 0.000000 0.542240 0.000000 0.840224 0.252151 0.252151 0.252151
3902.095947 0.000000 2686.311768 0.000000 0.972232 0.000000 0.234020 0.255062 0.255062 0.255062
3898.093506 0.000000 2685.202393 0.000000 0.929769 0.000000 -0.368144 0.283649 0.283649 0.283649
3892.156006 0.000000 2673.133789 0.000000 0.836418 0.000000 -0.548092 0.259809 0.259809 0.259809
3901.038818 0.000000 2673.106689 0.000000 0.691132 0.000000 0.722728 0.286025 0.286025 0.286025
3898.353271 0.000000 2655.895996 0.000000 0.559497 0.000000 0.828833 0.271352 0.271352 0.271352
3895.338623 0.000000 2687.289795 0.000000 0.898095 0.000000 0.439802 0.291968 0.291968 0.291968
3884.329834 0.000000 2673.530518 0.000000 0.998957 0.000000 0.045659 0.299128 0.299128 0.299128
3893.096436 0.000000 2668.676025 0.000000 0.966477 0.000000 -0.256753 0.289440 0.289440 0.289440
3892.968506 0.000000 2686.513184 0.000000 0.979859 0.000000 0.199689 0.296514 0.296514 0.296514
3900.159912 0.000000 2672.401855 0.000000 0.982418 0.000000 -0.186695 0.303249 0.303249 0.303249
3898.572266 0.000000 2654.801514 0.000000 0.834320 0.000000 0.551281 0.277469 0.277469 0.277469
3926.937256 0.000000 2669.192871 0.000000 0.229290 0.000000 0.973358 0.191038 0.191038 0.191038
3928.795410 0.000000 2682.677734 0.000000 0.518674 0.000000 0.854972 0.196160 0.196160 0.196160
3940.029297 0.000000 2673.318359 0.000000 0.207744 0.000000 0.978183 0.193210 0.193210 0.193210
3933.958740 0.000000 2664.966064 0.000000 0.733170 0.000000 0.680046 0.206592 0.206592 0.206592
3928.535645 0.000000 2671.120605 0.000000 0.982446 0.000000 0.186549 0.219362 0.219362 0.219362
3914.166748 0.000000 2661.279297 0.000000 0.904615 0.000000 -0.426230 0.216146 0.216146 0.216146
3940.682129 0.000000 2678.554932 0.000000 0.926414 0.000000 0.376507 0.218704 0.218704 0.218704
3944.688965 0.000000 2679.166016 0.000000 0.940405 0.000000 0.340055 0.223391 0.223391 0.223391
3934.725830 0.000000 2658.358154 0.000000 0.999899 0.000000 0.014244 0.233192 0.233192 0.233192
3916.080078 0.000000 2686.054443 0.000000 0.589674 0.000000 0.807641 0.226064 0.226064 0.226064
3920.278564 0.000000 2668.321289 0.000000 0.647686 0.000000 0.761907 0.236554 0.236554 0.236554
3934.609619 0.000000 2680.428223 0.000000 0.999729 0.000000 -0.023299 0.240302 0.240302 0.240302
3941.372314 0.000000 2658.830078 0.000000 0.979686 0.000000 -0.200535 0.240472 0.240472 0.240472
3910.054199 0.000000 2656.364258 0.000000 0.390565 0.000000 0.920575 0.229208 0.229208 0.229208
3925.609863 0.000000 2687.414551 0.000000 0.278863 0.000000 0.960331 0.223035 0.223035 0.223035
3928.512695 0.000000 2662.498535 0.000000 0.954730 0.000000 -0.297474 0.271551 0.271551 0.271551
3917.306641 0.000000 2679.317139 0.000000 0.133652 0.000000 0.991028 0.216196 0.216196 0.216196
3924.433350 0.000000 2671.780273 0.000000 0.960811 0.000000 -0.277205 0.274156 0.274156 0.274156
3923.704102 0.000000 2668.529785 0.000000 0.861160 0.000000 -0.508333 0.278207 0.278207 0.278207
3925.729980 0.000000 2670.355713 0.000000 0.762043 0.000000 0.647527 0.260659 0.260659 0.260659
3930.869141 0.000000 2676.214600 0.000000 0.999937 0.000000 0.011230 0.263440 0.263440 0.263440
3918.469482 0.000000 2673.424072 0.000000 0.867974 0.000000 0.496609 0.232446 0.232446 0.232446
3917.021240 0.000000 2687.394531 0.000000 0.234011 0.000000 0.972234 0.222074 0.222074 0.222074
3904.016357 0.000000 2663.418213 0.000000 0.958393 0.000000 0.285452 0.260918 0.260918 0.260918
3941.374268 0.000000 2660.732178 0.000000 0.843544 0.000000 0.537059 0.283478 0.283478 0.283478
3922.727783 0.000000 2688.923584 0.000000 0.815070 0.000000 -0.579363 0.278175 0.278175 0.278175
3909.431641 0.000000 2665.542236 0.000000 0.039085 0.000000 0.999236 0.228181 0.228181 0.228181
3922.834473 0.000000 2681.354980 0.000000 0.753662 0.000000 0.657262 0.250668 0.250668 0.250668
3919.446289 0.000000 2670.783691 0.000000 0.074376 0.000000 0.997230 0.254936 0.254936 0.254936
3919.217529 0.000000 2686.914062 0.000000 0.989353 0.000000 0.145538 0.246245 0.246245 0.246245
3915.761963 0.000000 2679.175293 0.000000 0.982098 0.000000 -0.188370 0.248904 0.248904 0.248904
3932.286133 0.000000 2676.451172 0.000000 0.955783 0.000000 0.294072 0.261884 0.261884 0.261884
3911.015381 0.000000 2662.987793 0.000000 0.636317 0.000000 0.771428 0.263791 0.263791 0.263791
3927.062012 0.000000 2670.887207 0.000000 0.095685 0.000000 0.995412 0.236901 0.236901 0.236901
3911.500244 0.000000 2674.062012 0.000000 0.889638 0.000000 0.456667 0.251586 0.251586 0.251586
3934.348145 0.000000 2685.104004 0.000000 0.546039 0.000000 0.837760 0.239673 0.239673 0.239673
3943.522949 0.000000 2658.763672 0.000000 0.477605 0.000000 0.878575 0.246702 0.246702 0.246702
3909.475342 0.000000 2663.041748 0.000000 0.936804 0.000000 0.349855 0.253563 0.253563 0.253563
3951.546387 0.000000 2661.113037 0.000000 0.929243 0.000000 -0.369470 0.275492 0.275492 0.275492
3934.425537 0.000000 2661.649902 0.000000 0.782472 0.000000 0.622685 0.285878 0.285878 0.285878
3951.484619 0.000000 2674.224609 0.000000 0.897855 0.000000 0.440292 0.291635 0.291635 0.291635
3905.219482 0.000000 2662.784180 0.000000 0.291187 0.000000 0.956666 0.248018 0.248018 0.248018
3914.359619 0.000000 2662.583008 0.000000 0.980977 0.000000 0.194123 0.292815 0.292815 0.292815
3937.316162 0.000000 2687.458740 0.000000 0.999978 0.000000 -0.006618 0.292825 0.292825 0.292825
3909.529297 0.000000 2658.255615 0.000000 0.946453 0.000000 0.322842 0.285746 0.285746 0.285746
3931.969971 0.000000 2655.747803 0.000000 0.533259 0.000000 0.845952 0.258981 0.258981 0.258981
3908.370361 0.000000 2681.355225 0.000000 0.047289 0.000000 0.998881 0.266975 0.266975 0.266975
3930.370850 0.000000 2677.355469 0.000000 0.866479 0.000000 0.499214 0.256809 0.256809 0.256809
3921.357910 0.000000 2688.181396 0.000000 0.507584 0.000000 0.861602 0.268922 0.268922 0.268922
3928.864502 0.000000 2681.319580 0.000000 0.174064 0.000000 0.984734 0.273812 0.273812 0.273812
3943.881592 0.000000 2654.828857 0.000000 0.711777 0.000000 0.702405 0.286381 0.286381 0.286381
3905.313232 0.000000 2674.251221 0.000000 0.994486 0.000000 0.104869 0.297993 0.297993 0.297993
3906.034912 0.000000 2680.851318 0.000000 0.414701 0.000000 0.909958 0.268282 0.268282 0.268282
3907.510010 0.000000 2662.039795 0.000000 0.948656 0.000000 0.316308 0.293962 0.293962 0.293962
3945.763428 0.000000 2676.786133 0.000000 0.873685 0.000000 -0.486492 0.290898 0.290898 0.290898
3928.429443 0.000000 2678.699219 0.000000 0.992310 0.000000 -0.123781 0.302245 0.302245 0.302245
3911.767090 0.000000 2680.768311 0.000000 0.557781 0.000000 0.829988 0.281301 0.281301 0.281301
3938.956787 0.000000 2675.995850 0.000000 0.896021 0.000000 -0.444012 0.288990 0.288990 0.288990
3907.154541 0.000000 2675.517578 0.000000 0.270874 0.000000 0.962615 0.275239 0.275239 0.275239
3955.308350 0.000000 2669.940674 0.000000 0.055424 0.000000 0.998463 0.268937 0.268937 0.268937
3945.080811 0.000000 2682.282959 0.000000 0.616058 0.000000 0.787701 0.283288 0.283288 0.283288
3938.086426 0.000000 2661.663574 0.000000 0.987196 0.000000 -0.159509 0.303059 0.303059 0.303059
3905.149170 0.000000 2678.914795 0.000000 0.462928 0.000000 0.886396 0.279192 0.279192 0.279192
3922.779053 0.000000 2661.784912 0.000000 0.895027 0.000000 0.446013 0.291932 0.291932 0.291932
3937.533203 0.000000 2680.824951 0.000000 0.999980 0.000000 0.006285 0.299880 0.299880 0.299880
3915.732666 0.000000 2677.077148 0.000000 0.992625 0.000000 0.121225 0.297679 0.297679 0.297679
3955.813232 0.000000 2668.984619 0.000000 0.993382 0.000000 -0.114860 0.295729 0.295729 0.295729
3926.742920 0.000000 2681.393799 0.000000 0.201363 0.000000 0.979517 0.274999 0.274999 0.274999
3943.486328 0.000000 2683.752686 0.000000 0.996458 0.000000 0.084098 0.298464 0.298464 0.298464
3913.207275 0.000000 2679.507812 0.000000 0.151537 0.000000 0.988452 0.274074 0.274074 0.274074
3916.066650 0.000000 2685.031006 0.000000 0.945482 0.000000 0.325676 0.293938 0.293938 0.293938
3924.381104 0.000000 2676.568848 0.000000 0.668744 0.000000 0.743493 0.283990 0.283990 0.283990
3943.421143 0.000000 2686.269287 0.000000 0.999198 0.000000 -0.040030 0.300756 0.300756 0.300756
3935.025146 0.000000 2679.385986 0.000000 0.972738 0.000000 0.231907 0.295609 0.295609 0.295609
3910.565430 0.000000 2660.916748 0.000000 0.551090 0.000000 0.834446 0.281147 0.281147 0.281147
3923.004639 0.000000 2676.159912 0.000000 0.683987 0.000000 0.729494 0.284385 0.284385 0.284385
3920.854248 0.000000 2671.689209 0.000000 0.814035 0.000000 -0.580815 0.311534 0.311534 0.311534
3915.260254 0.000000 2675.290771 0.000000 0.964923 0.000000 -0.262533 0.305073 0.305073 0.305073
3916.727295 0.000000 2676.782715 0.000000 0.985911 0.000000 0.167268 0.296797 0.296797 0.296797
3936.543701 0.000000 2660.764893 0.000000 0.999347 0.000000 0.036134 0.299310 0.299310 0.299310
3910.207520 0.000000 2658.952881 0.000000 0.957024 0.000000 -0.290010 0.305620 0.305620 0.305620
3917.398682 0.000000 2677.458984 0.000000 0.357778 0.000000 0.933807 0.277033 0.277033 0.277033
4026.637451 0.000000 2681.699219 0.000000 0.999869 0.000000 -0.016175 0.218345 0.218345 0.218345
4024.096680 0.000000 2682.409668 0.000000 0.782803 0.000000 0.622270 0.213535 0.213535 0.213535
3974.935791 0.000000 2658.341553 0.000000 0.975883 0.000000 -0.218292 0.233797 0.233797 0.233797
4011.629150 0.000000 2695.156738 0.000000 0.595419 0.000000 0.803416 0.238854 0.238854 0.238854
4004.099365 0.000000 2693.083496 0.000000 0.988502 0.000000 0.151208 0.219677 0.219677 0.219677
4025.728271 0.000000 2680.160400 0.000000 0.877389 0.000000 0.479779 0.246485 0.246485 0.246485
4025.198486 0.000000 2681.500977 0.000000 0.958358 0.000000 0.285568 0.248969 0.248969 0.248969
4013.556396 0.000000 2700.408936 0.000000 0.266411 0.000000 0.963859 0.243825 0.243825 0.243825
4052.832764 0.000000 2667.345215 0.000000 0.342883 0.000000 0.939378 0.194735 0.194735 0.194735
4050.128174 0.000000 2675.527344 0.000000 0.949496 0.000000 0.313780 0.216031 0.216031 0.216031
4051.894287 0.000000 2662.537354 0.000000 0.540345 0.000000 0.841444 0.201487 0.201487 0.201487
4056.077637 0.000000 2664.162109 0.000000 0.495270 0.000000 0.868739 0.206688 0.206688 0.206688
4036.483887 0.000000 2684.514404 0.000000 0.564573 0.000000 0.825383 0.232350 0.232350 0.232350
4059.877441 0.000000 2666.256592 0.000000 0.172863 0.000000 0.984946 0.219012 0.219012 0.219012
4074.414795 0.000000 2674.383789 0.000000 0.619970 0.000000 0.784626 0.230030 0.230030 0.230030
4046.755859 0.000000 2664.213623 0.000000 0.934165 0.000000 0.356842 0.279805 0.279805 0.279805
4088.862793 0.000000 2688.888428 0.000000 0.410559 0.000000 0.911834 0.280143 0.280143 0.280143
4090.750732 0.000000 2669.252930 0.000000 0.050284 0.000000 0.998735 0.259674 0.259674 0.259674
4032.489502 0.000000 2686.187744 0.000000 0.904868 0.000000 0.425693 0.292359 0.292359 0.292359
4089.844727 0.000000 2689.195312 0.000000 0.959234 0.000000 0.282612 0.295043 0.295043 0.295043
4075.257568 0.000000 2677.578369 0.000000 0.526172 0.000000 0.850378 0.280582 0.280582 0.280582
4008.923828 0.000000 2717.947998 0.000000 0.820885 0.000000 0.571093 0.264070 0.264070 0.264070
6739.253418 0.000000 1516.180420 0.000000 0.926848 0.000000 0.375436 0.217091 0.217091 0.217091
6735.799805 0.000000 1511.657593 0.000000 0.991010 0.000000 0.133787 0.228132 0.228132 0.228132
6730.331055 0.000000 1513.930054 0.000000 0.862562 0.000000 0.505952 0.236054 0.236054 0.236054
6742.444824 0.000000 1520.292603 0.000000 0.169947 0.000000 0.985453 0.224805 0.224805 0.224805
6742.025391 0.000000 1510.887817 0.000000 0.150066 0.000000 0.988676 0.242801 0.242801 0.242801
6731.735352 0.000000 1512.647095 0.000000 0.251840 0.000000 0.967769 0.227637 0.227637 0.227637
6727.386719 0.000000 1513.809326 0.000000 0.660935 0.000000 0.750443 0.281398 0.281398 0.281398
6740.708984 0.000000 1512.159180 0.000000 0.524384 0.000000 0.851482 0.256351 0.256351 0.256351
6729.264160 0.000000 1513.187012 0.000000 0.967217 0.000000 -0.253950 0.262885 0.262885 0.262885
6733.130371 0.000000 1510.769897 0.000000 0.791324 0.000000 0.611397 0.288028 0.288028 0.288028
6743.105469 0.000000 1512.777100 0.000000 0.815515 0.000000 0.578736 0.289230 0.289230 0.289230
6740.942871 0.000000 1518.200928 0.000000 0.998408 0.000000 -0.056403 0.301078 0.301078 0.301078
6732.104980 0.000000 1511.492432 0.000000 0.971639 0.000000 -0.236467 0.304345 0.304345 0.304345
6742.826172 0.000000 1519.142822 0.000000 0.350112 0.000000 0.936708 0.278376 0.278376 0.278376
6741.486816 0.000000 1519.847900 0.000000 0.940572 0.000000 0.339595 0.293383 0.293383 0.293383
4424.237305 0.000000 2363.885986 0.000000 0.987149 0.000000 -0.159804 0.228100 0.228100 0.228100
4426.234863 0.000000 2363.305176 0.000000 0.968506 0.000000 -0.248988 0.236972 0.236972 0.236972
4222.913574 0.000000 2587.835449 0.000000 0.802873 0.000000 0.596150 0.261559 0.261559 0.261559
4222.147949 0.000000 2586.751709 0.000000 0.789409 0.000000 0.613868 0.261254 0.261254 0.261254
4227.051758 0.000000 2591.649414 0.000000 0.718543 0.000000 0.695483 0.255669 0.255669 0.255669
4224.421387 0.000000 2585.320068 0.000000 0.831246 0.000000 -0.555905 0.310353 0.310353 0.310353
4152.096680 0.000000 2625.925293 0.000000 0.865110 0.000000 -0.501583 0.221515 0.221515 0.221515
4153.864746 0.000000 2626.872559 0.000000 0.987852 0.000000 0.155397 0.249991 0.249991 0.249991
4150.609375 0.000000 2626.129883 0.000000 0.469024 0.000000 0.883185 0.266286 0.266286 0.266286
4155.031250 0.000000 2628.983643 0.000000 0.982828 0.000000 0.184526 0.296518 0.296518 0.296518
4221.611816 0.000000 2637.041016 0.000000 0.935168 0.000000 0.354204 0.198825 0.198825 0.198825
4215.405273 0.000000 2633.134277 0.000000 0.999942 0.000000 -0.010814 0.214935 0.214935 0.214935
4206.880859 0.000000 2648.816895 0.000000 0.935887 0.000000 0.352299 0.211339 0.211339 0.211339
4217.072754 0.000000 2648.398438 0.000000 0.957857 0.000000 0.287246 0.214085 0.214085 0.214085
4207.350098 0.000000 2653.024414 0.000000 0.197142 0.000000 0.980375 0.216814 0.216814 0.216814
4215.822754 0.000000 2629.574463 0.000000 0.942400 0.000000 0.334488 0.241331 0.241331 0.241331
4222.572266 0.000000 2648.799072 0.000000 0.952317 0.000000 -0.305110 0.277454 0.277454 0.277454
4185.064941 0.000000 2648.919922 0.000000 0.738394 0.000000 0.674370 0.274527 0.274527 0.274527
4205.231445 0.000000 2651.864258 0.000000 0.354249 0.000000 0.935151 0.277459 0.277459 0.277459
4182.826172 0.000000 2648.830322 0.000000 0.066889 0.000000 0.997760 0.273531 0.273531 0.273531
4155.502441 0.000000 2666.762939 0.000000 0.107564 0.000000 0.994198 0.216912 0.216912 0.216912
4147.291016 0.000000 2665.189697 0.000000 0.989920 0.000000 -0.141626 0.242691 0.242691 0.242691
4174.623047 0.000000 2659.477051 0.000000 0.955344 0.000000 -0.295496 0.282526 0.282526 0.282526
4226.069824 0.000000 2623.103027 0.000000 0.978476 0.000000 0.206359 0.228528 0.228528 0.228528
4239.104980 0.000000 2601.183838 0.000000 0.378464 0.000000 0.925616 0.259451 0.259451 0.259451
4228.993652 0.000000 2622.464355 0.000000 0.999406 0.000000 0.034470 0.277090 0.277090 0.277090
"}
object={
	name="cypress_mediterranean_sparse_generator_2_1"
	clamp_to_water_level=no
	render_under_water=no
	generated_content=yes
	layer="semidynamic_medium"
	pdxmesh="tree_cypress_mediterranean_01_mesh"
	count=89
	transform="3797.101562 0.000000 2644.732178 0.000000 0.051806 0.000000 -0.998657 0.247095 0.247095 0.247095
3821.470459 0.000000 2645.565674 0.000000 0.071256 0.000000 -0.997458 0.307909 0.307909 0.307909
3796.196533 0.000000 2647.043457 0.000000 0.536221 0.000000 -0.844078 0.262985 0.262985 0.262985
3808.520752 0.000000 2653.734131 0.000000 0.359397 0.000000 -0.933185 0.289332 0.289332 0.289332
3820.346436 0.000000 2645.921143 0.000000 0.361699 0.000000 -0.932295 0.303319 0.303319 0.303319
3902.994385 0.000000 2645.905029 0.000000 0.483571 0.000000 -0.875305 0.224235 0.224235 0.224235
3916.083740 0.000000 2643.795166 0.000000 0.593855 0.000000 -0.804572 0.223149 0.223149 0.223149
3927.348877 0.000000 2651.279785 0.000000 0.519082 0.000000 -0.854724 0.237347 0.237347 0.237347
3915.263184 0.000000 2634.843506 0.000000 0.037772 0.000000 -0.999286 0.223666 0.223666 0.223666
3920.905273 0.000000 2652.180664 0.000000 0.072416 0.000000 -0.997375 0.254577 0.254577 0.254577
3929.560059 0.000000 2641.454834 0.000000 0.147366 0.000000 -0.989082 0.264655 0.264655 0.264655
3930.283691 0.000000 2644.827148 0.000000 0.347401 0.000000 -0.937717 0.289511 0.289511 0.289511
3926.383789 0.000000 2645.292969 0.000000 0.033207 0.000000 -0.999448 0.303870 0.303870 0.303870
3928.350830 0.000000 2650.411621 0.000000 0.582399 0.000000 -0.812903 0.280835 0.280835 0.280835
3920.512451 0.000000 2634.026611 0.000000 0.359682 0.000000 -0.933075 0.305271 0.305271 0.305271
3929.752441 0.000000 2654.658447 0.000000 0.606177 0.000000 -0.795330 0.286612 0.286612 0.286612
3896.708984 0.000000 2675.209229 0.000000 0.339456 0.000000 -0.940622 0.241712 0.241712 0.241712
3903.974609 0.000000 2686.297119 0.000000 0.737712 0.000000 -0.675115 0.267148 0.267148 0.267148
3897.471191 0.000000 2671.104980 0.000000 0.309524 0.000000 -0.950892 0.321732 0.321732 0.321732
3896.633789 0.000000 2670.162842 0.000000 0.373886 0.000000 -0.927475 0.320547 0.320547 0.320547
3925.235596 0.000000 2674.626709 0.000000 0.369782 0.000000 -0.929119 0.217259 0.217259 0.217259
3936.801270 0.000000 2683.080811 0.000000 0.063323 0.000000 -0.997993 0.248901 0.248901 0.248901
3906.199219 0.000000 2661.877930 0.000000 0.386209 0.000000 -0.922411 0.244962 0.244962 0.244962
3931.119873 0.000000 2656.714355 0.000000 0.211547 0.000000 -0.977368 0.249308 0.249308 0.249308
3931.877441 0.000000 2666.256592 0.000000 0.701688 0.000000 -0.712484 0.241789 0.241789 0.241789
3921.862305 0.000000 2691.093018 0.000000 0.601977 0.000000 -0.798514 0.237623 0.237623 0.237623
3949.839355 0.000000 2681.451416 0.000000 0.704199 0.000000 -0.710003 0.240550 0.240550 0.240550
3912.953125 0.000000 2680.696289 0.000000 0.193055 0.000000 -0.981188 0.267321 0.267321 0.267321
3929.349609 0.000000 2674.716309 0.000000 0.688325 0.000000 -0.725403 0.256485 0.256485 0.256485
3911.434570 0.000000 2665.509277 0.000000 0.551106 0.000000 -0.834436 0.260311 0.260311 0.260311
3904.369629 0.000000 2665.667480 0.000000 0.683598 0.000000 -0.729859 0.245662 0.245662 0.245662
3935.303223 0.000000 2681.777100 0.000000 0.545800 0.000000 -0.837915 0.250535 0.250535 0.250535
3936.608643 0.000000 2686.296875 0.000000 0.676650 0.000000 -0.736305 0.306204 0.306204 0.306204
3921.468994 0.000000 2672.504150 0.000000 0.344589 0.000000 -0.938754 0.291463 0.291463 0.291463
3924.314697 0.000000 2681.671143 0.000000 0.186456 0.000000 -0.982463 0.275731 0.275731 0.275731
3928.874268 0.000000 2672.780762 0.000000 0.513449 0.000000 -0.858120 0.315837 0.315837 0.315837
3905.323486 0.000000 2660.822998 0.000000 0.526549 0.000000 -0.850145 0.271791 0.271791 0.271791
3924.959229 0.000000 2680.435303 0.000000 0.516546 0.000000 -0.856260 0.271316 0.271316 0.271316
3927.724365 0.000000 2681.895020 0.000000 0.321637 0.000000 -0.946863 0.322722 0.322722 0.322722
3909.597168 0.000000 2681.652344 0.000000 0.567610 0.000000 -0.823298 0.307228 0.307228 0.307228
3923.737305 0.000000 2661.247314 0.000000 0.590287 0.000000 -0.807194 0.316393 0.316393 0.316393
3944.398438 0.000000 2663.632080 0.000000 0.717045 0.000000 -0.697027 0.314412 0.314412 0.314412
3906.732422 0.000000 2662.979248 0.000000 0.307656 0.000000 -0.951498 0.323603 0.323603 0.323603
3909.292969 0.000000 2660.782959 0.000000 0.795083 0.000000 -0.606500 0.297901 0.297901 0.297901
3945.342041 0.000000 2683.415527 0.000000 0.805681 0.000000 -0.592349 0.311681 0.311681 0.311681
3950.601562 0.000000 2661.868164 0.000000 0.444364 0.000000 -0.895846 0.285519 0.285519 0.285519
3954.833740 0.000000 2663.345947 0.000000 0.762187 0.000000 -0.647357 0.301153 0.301153 0.301153
3927.342773 0.000000 2679.506104 0.000000 0.430087 0.000000 -0.902787 0.321509 0.321509 0.321509
3922.234375 0.000000 2686.228760 0.000000 0.014712 0.000000 -0.999892 0.329719 0.329719 0.329719
3940.343262 0.000000 2661.306885 0.000000 0.113295 0.000000 -0.993561 0.316465 0.316465 0.316465
3936.590820 0.000000 2681.906494 0.000000 0.368736 0.000000 -0.929534 0.322787 0.322787 0.322787
3936.901855 0.000000 2661.649414 0.000000 0.215949 0.000000 -0.976405 0.325843 0.325843 0.325843
3914.093018 0.000000 2674.552246 0.000000 0.070446 0.000000 -0.997516 0.328653 0.328653 0.328653
3904.126221 0.000000 2674.187500 0.000000 0.534611 0.000000 -0.845098 0.319228 0.319228 0.319228
3932.225586 0.000000 2682.395508 0.000000 0.564729 0.000000 -0.825276 0.312921 0.312921 0.312921
3923.508545 0.000000 2671.157715 0.000000 0.619692 0.000000 -0.784845 0.317235 0.317235 0.317235
3924.834473 0.000000 2677.662598 0.000000 0.130072 0.000000 -0.991505 0.327509 0.327509 0.327509
3944.990479 0.000000 2662.717041 0.000000 0.521729 0.000000 -0.853112 0.319096 0.319096 0.319096
3926.463867 0.000000 2679.008301 0.000000 0.440182 0.000000 -0.897908 0.321295 0.321295 0.321295
3912.681152 0.000000 2676.152344 0.000000 0.478595 0.000000 -0.878036 0.320469 0.320469 0.320469
3911.659180 0.000000 2659.499512 0.000000 0.050452 0.000000 -0.998726 0.329036 0.329036 0.329036
3914.930176 0.000000 2676.488281 0.000000 0.549257 0.000000 -0.835653 0.318895 0.318895 0.318895
3922.223877 0.000000 2677.918701 0.000000 0.651265 0.000000 -0.758850 0.316454 0.316454 0.316454
4010.678223 0.000000 2692.940674 0.000000 0.351481 0.000000 -0.936195 0.252836 0.252836 0.252836
3974.054199 0.000000 2656.364258 0.000000 0.124790 0.000000 -0.992183 0.281032 0.281032 0.281032
4016.317139 0.000000 2696.497070 0.000000 0.641806 0.000000 -0.766867 0.314401 0.314401 0.314401
4048.098877 0.000000 2664.525146 0.000000 0.125012 0.000000 -0.992155 0.250834 0.250834 0.250834
4074.712402 0.000000 2675.984131 0.000000 0.061912 0.000000 -0.998082 0.255329 0.255329 0.255329
4071.388184 0.000000 2672.826416 0.000000 0.592963 0.000000 -0.805230 0.265253 0.265253 0.265253
4091.524170 0.000000 2668.224854 0.000000 0.552388 0.000000 -0.833587 0.297515 0.297515 0.297515
4050.397949 0.000000 2676.900879 0.000000 0.466264 0.000000 -0.884645 0.310411 0.310411 0.310411
4046.511963 0.000000 2665.400146 0.000000 0.343559 0.000000 -0.939131 0.304258 0.304258 0.304258
6740.436035 0.000000 1510.865601 0.000000 0.620708 0.000000 -0.784042 0.218042 0.218042 0.218042
6733.139648 0.000000 1512.138428 0.000000 0.101130 0.000000 -0.994873 0.257478 0.257478 0.257478
6738.010742 0.000000 1519.126831 0.000000 0.544282 0.000000 -0.838902 0.292665 0.292665 0.292665
6742.889648 0.000000 1517.855713 0.000000 0.479655 0.000000 -0.877457 0.272469 0.272469 0.272469
6729.022461 0.000000 1511.661011 0.000000 0.760757 0.000000 -0.649037 0.312828 0.312828 0.312828
6729.062988 0.000000 1510.573730 0.000000 0.740717 0.000000 -0.671817 0.313380 0.313380 0.313380
4211.402344 0.000000 2595.764160 0.000000 0.712201 0.000000 -0.701975 0.206937 0.206937 0.206937
4213.005371 0.000000 2593.992188 0.000000 0.439902 0.000000 -0.898046 0.228331 0.228331 0.228331
4205.747070 0.000000 2590.488525 0.000000 0.002603 0.000000 -0.999997 0.227122 0.227122 0.227122
4151.777832 0.000000 2627.216309 0.000000 0.471831 0.000000 -0.881689 0.298932 0.298932 0.298932
4177.288086 0.000000 2603.362549 0.000000 0.656542 0.000000 -0.754290 0.253929 0.253929 0.253929
4204.655273 0.000000 2650.206543 0.000000 0.173828 0.000000 -0.984776 0.326036 0.326036 0.326036
4195.590332 0.000000 2644.169434 0.000000 0.555172 0.000000 -0.831735 0.316883 0.316883 0.316883
4199.715332 0.000000 2645.788086 0.000000 0.403149 0.000000 -0.915134 0.322032 0.322032 0.322032
4177.011230 0.000000 2656.102783 0.000000 0.505813 0.000000 -0.862643 0.318430 0.318430 0.318430
4176.073730 0.000000 2657.275146 0.000000 0.594849 0.000000 -0.803837 0.316539 0.316539 0.316539
4228.635742 0.000000 2610.684082 0.000000 0.746897 0.000000 -0.664940 0.242333 0.242333 0.242333
"}
