﻿object={
	name="palm_dense_generator_3_0"
	clamp_to_water_level=no
	render_under_water=no
	generated_content=yes
	layer="semidynamic_high"
	pdxmesh="tree_palm_01_mesh"
	count=10
	transform="4787.213867 0.000000 2418.601074 0.000000 0.370305 0.000000 0.928910 0.244339 0.244339 0.244339
4780.412598 0.000000 2414.617432 0.000000 0.010976 0.000000 0.999940 0.171138 0.171138 0.171138
4774.646484 0.000000 2404.500977 0.000000 0.595152 0.000000 0.803613 0.310211 0.310211 0.310211
4790.180664 0.000000 2396.193848 0.000000 0.863798 0.000000 0.503838 0.397768 0.397768 0.397768
4788.319336 0.000000 2399.969482 0.000000 0.283955 0.000000 0.958838 0.296784 0.296784 0.296784
4771.506348 0.000000 2404.213867 0.000000 0.484187 0.000000 0.874965 0.320867 0.320867 0.320867
4782.644531 0.000000 2417.340088 0.000000 0.225081 0.000000 0.974340 0.391160 0.391160 0.391160
4830.608887 0.000000 2434.367676 0.000000 0.179930 0.000000 0.983679 0.213212 0.213212 0.213212
4843.440918 0.000000 2436.516602 0.000000 0.462640 0.000000 0.886546 0.348765 0.348765 0.348765
4845.243652 0.000000 2437.690186 0.000000 0.668509 0.000000 0.743704 0.628783 0.628783 0.628783
"}
object={
	name="palm_dense_generator_3_1"
	clamp_to_water_level=no
	render_under_water=no
	generated_content=yes
	layer="semidynamic_high"
	pdxmesh="tree_palm_02_mesh"
	count=6
	transform="4781.465820 0.000000 2416.639648 0.000000 0.928444 0.000000 -0.371473 0.573401 0.573401 0.573401
4790.403320 0.000000 2392.029541 0.000000 0.999030 0.000000 -0.044032 0.507901 0.507901 0.507901
4790.848633 0.000000 2394.856445 0.000000 0.992596 0.000000 0.121463 0.479344 0.479344 0.479344
4782.588379 0.000000 2416.125000 0.000000 0.975804 0.000000 0.218647 0.568201 0.568201 0.568201
4836.099609 0.000000 2410.661621 0.000000 0.944832 0.000000 -0.327555 0.562110 0.562110 0.562110
4840.398438 0.000000 2437.694580 0.000000 0.915834 0.000000 -0.401557 0.561123 0.561123 0.561123
"}
object={
	name="palm_dense_generator_3_2"
	clamp_to_water_level=no
	render_under_water=no
	generated_content=yes
	layer="semidynamic_high"
	pdxmesh="tree_palm_03_mesh"
	count=6
	transform="4788.072754 0.000000 2420.846924 0.000000 0.000877 0.000000 -1.000000 0.779256 0.779256 0.779256
4770.559570 0.000000 2405.549316 0.000000 0.704119 0.000000 -0.710082 0.632768 0.632768 0.632768
4783.705078 0.000000 2403.627686 0.000000 0.436886 0.000000 -0.899517 0.730654 0.730654 0.730654
4846.908691 0.000000 2440.137451 0.000000 0.420939 0.000000 -0.907089 0.682552 0.682552 0.682552
4842.844238 0.000000 2437.728027 0.000000 0.143884 0.000000 -0.989595 0.720580 0.720580 0.720580
4844.467773 0.000000 2436.833496 0.000000 0.500102 0.000000 -0.865966 0.934421 0.934421 0.934421
"}
