﻿object={
	name="palm_dense_generator_1_0"
	clamp_to_water_level=no
	render_under_water=no
	generated_content=yes
	layer="semidynamic"
	pdxmesh="tree_palm_01_mesh"
	count=2
	transform="4772.276367 0.000000 2405.590576 0.000000 0.640568 0.000000 0.767901 0.341634 0.341634 0.341634
4783.917480 0.000000 2409.125732 0.000000 0.635469 0.000000 0.772126 0.339114 0.339114 0.339114
"}
object={
	name="palm_dense_generator_1_1"
	clamp_to_water_level=no
	render_under_water=no
	generated_content=yes
	layer="semidynamic"
	pdxmesh="tree_palm_02_mesh"
	count=5
	transform="4781.434082 0.000000 2402.072998 0.000000 0.978928 0.000000 -0.204205 0.539970 0.539970 0.539970
4770.857422 0.000000 2401.472656 0.000000 0.941659 0.000000 0.336569 0.442796 0.442796 0.442796
4845.516602 0.000000 2443.561523 0.000000 0.996344 0.000000 0.085427 0.481839 0.481839 0.481839
4847.447754 0.000000 2441.513916 0.000000 0.998453 0.000000 0.055594 0.491064 0.491064 0.491064
4833.491699 0.000000 2434.723389 0.000000 0.878201 0.000000 0.478292 0.431541 0.431541 0.431541
"}
object={
	name="palm_dense_generator_1_2"
	clamp_to_water_level=no
	render_under_water=no
	generated_content=yes
	layer="semidynamic"
	pdxmesh="tree_palm_03_mesh"
	count=8
	transform="4773.982422 0.000000 2422.605469 0.000000 0.368469 0.000000 -0.929640 0.702455 0.702455 0.702455
4785.272949 0.000000 2405.968750 0.000000 0.125505 0.000000 -0.992093 0.801399 0.801399 0.801399
4766.236816 0.000000 2424.873535 0.000000 0.661717 0.000000 -0.749754 0.676817 0.676817 0.676817
4789.519043 0.000000 2398.969238 0.000000 0.843905 0.000000 -0.536493 0.589701 0.589701 0.589701
4844.062988 0.000000 2437.817139 0.000000 0.307550 0.000000 -0.951532 0.968638 0.968638 0.968638
4840.015625 0.000000 2436.456787 0.000000 0.710110 0.000000 -0.704090 0.615547 0.615547 0.615547
4847.663086 0.000000 2438.840088 0.000000 0.816930 0.000000 -0.576737 0.730468 0.730468 0.730468
4845.587891 0.000000 2436.600342 0.000000 0.794365 0.000000 -0.607441 0.870520 0.870520 0.870520
"}
