﻿object={
	name="pine_sparse_generator_3_0"
	clamp_to_water_level=no
	render_under_water=no
	generated_content=yes
	layer="semidynamic_high"
	pdxmesh="tree_fir_001_mesh"
	count=38
	transform="4701.948242 0.000000 2526.432861 0.000000 0.042213 0.000000 0.999109 0.550244 0.550244 0.550244
4700.231934 0.000000 2526.915283 0.000000 0.335668 0.000000 0.941981 0.558665 0.558665 0.558665
6131.824219 0.000000 2473.162598 0.000000 0.414464 0.000000 0.910065 0.452036 0.452036 0.452036
6132.024414 0.000000 2469.147949 0.000000 0.449777 0.000000 0.893141 0.576345 0.576345 0.576345
6122.590820 0.000000 2488.721436 0.000000 0.338665 0.000000 0.940907 0.652998 0.652998 0.652998
4350.281738 0.000000 2764.317627 0.000000 0.370115 0.000000 0.928986 0.508354 0.508354 0.508354
4277.449707 0.000000 2817.625977 0.000000 0.247346 0.000000 0.968927 0.411181 0.411181 0.411181
4259.595703 0.000000 2844.330566 0.000000 0.197474 0.000000 0.980308 0.422854 0.422854 0.422854
4257.799316 0.000000 2863.104736 0.000000 0.310719 0.000000 0.950502 0.535104 0.535104 0.535104
4256.813965 0.000000 2862.073486 0.000000 0.142523 0.000000 0.989792 0.530619 0.530619 0.530619
4256.724121 0.000000 2846.635010 0.000000 0.290347 0.000000 0.956921 0.573031 0.573031 0.573031
4257.560059 0.000000 2853.225342 0.000000 0.559916 0.000000 0.828549 0.651484 0.651484 0.651484
4257.751465 0.000000 2864.195312 0.000000 0.405480 0.000000 0.914104 0.653644 0.653644 0.653644
4369.664551 0.000000 2774.390381 0.000000 0.385562 0.000000 0.922682 0.384101 0.384101 0.384101
4354.732422 0.000000 2775.947998 0.000000 0.480426 0.000000 0.877035 0.621654 0.621654 0.621654
4392.134277 0.000000 2812.324951 0.000000 0.572384 0.000000 0.819986 0.611023 0.611023 0.611023
4394.127930 0.000000 2815.187744 0.000000 0.121525 0.000000 0.992588 0.566208 0.566208 0.566208
4392.275879 0.000000 2816.507080 0.000000 0.463532 0.000000 0.886080 0.551899 0.551899 0.551899
4393.344238 0.000000 2817.162354 0.000000 0.512942 0.000000 0.858423 0.553432 0.553432 0.553432
4364.040527 0.000000 2786.506836 0.000000 0.225704 0.000000 0.974196 0.603819 0.603819 0.603819
4459.175293 0.000000 2786.031738 0.000000 0.464267 0.000000 0.885695 0.471170 0.471170 0.471170
4454.060059 0.000000 2788.558594 0.000000 0.116814 0.000000 0.993154 0.472550 0.472550 0.472550
4417.993652 0.000000 2791.184326 0.000000 0.488986 0.000000 0.872292 0.538369 0.538369 0.538369
4418.932617 0.000000 2791.895508 0.000000 0.548907 0.000000 0.835884 0.583297 0.583297 0.583297
4416.016602 0.000000 2790.887695 0.000000 0.256190 0.000000 0.966626 0.531878 0.531878 0.531878
4425.796387 0.000000 2800.228516 0.000000 0.392848 0.000000 0.919603 0.623598 0.623598 0.623598
4395.954590 0.000000 2847.924805 0.000000 0.421338 0.000000 0.906904 0.448567 0.448567 0.448567
6204.292969 0.000000 2428.666504 0.000000 0.200531 0.000000 0.979687 0.587520 0.587520 0.587520
6220.955566 0.000000 2428.207764 0.000000 0.549108 0.000000 0.835751 0.532969 0.532969 0.532969
6214.966309 0.000000 2420.213623 0.000000 0.498921 0.000000 0.866647 0.655110 0.655110 0.655110
6240.789062 0.000000 2425.463867 0.000000 0.384626 0.000000 0.923073 0.567191 0.567191 0.567191
6161.469238 0.000000 2446.566650 0.000000 0.150548 0.000000 0.988603 0.462713 0.462713 0.462713
6263.779785 0.000000 2452.014404 0.000000 0.182479 0.000000 0.983210 0.543820 0.543820 0.543820
6317.531250 0.000000 2447.221191 0.000000 0.418294 0.000000 0.908312 0.432229 0.432229 0.432229
6301.938965 0.000000 2445.361572 0.000000 0.157890 0.000000 0.987457 0.434595 0.434595 0.434595
6287.223145 0.000000 2457.174561 0.000000 0.228795 0.000000 0.973475 0.476695 0.476695 0.476695
6308.154785 0.000000 2436.530518 0.000000 0.005018 0.000000 0.999987 0.525330 0.525330 0.525330
6331.344238 0.000000 2465.465088 0.000000 0.366869 0.000000 0.930273 0.513605 0.513605 0.513605
"}
object={
	name="pine_sparse_generator_3_1"
	clamp_to_water_level=no
	render_under_water=no
	generated_content=yes
	layer="semidynamic_high"
	pdxmesh="tree_fir_002_mesh"
	count=52
	transform="4704.813477 0.000000 2528.818359 0.000000 0.671795 0.000000 0.740737 0.496537 0.496537 0.496537
6135.893555 0.000000 2472.333008 0.000000 0.940188 0.000000 0.340655 0.430614 0.430614 0.430614
6139.962402 0.000000 2467.776367 0.000000 0.891838 0.000000 0.452355 0.479871 0.479871 0.479871
6128.316895 0.000000 2470.559570 0.000000 0.752435 0.000000 0.658666 0.519428 0.519428 0.519428
6137.239746 0.000000 2472.157471 0.000000 0.727486 0.000000 0.686123 0.500086 0.500086 0.500086
6135.349609 0.000000 2469.298096 0.000000 0.751547 0.000000 0.659679 0.541581 0.541581 0.541581
4350.841797 0.000000 2765.782227 0.000000 0.773186 0.000000 0.634179 0.520180 0.520180 0.520180
4345.471191 0.000000 2784.073730 0.000000 0.921724 0.000000 0.387847 0.572487 0.572487 0.572487
4256.240234 0.000000 2838.188721 0.000000 0.857178 0.000000 0.515020 0.476560 0.476560 0.476560
4262.214844 0.000000 2836.848633 0.000000 0.908580 0.000000 0.417710 0.548903 0.548903 0.548903
4259.216309 0.000000 2849.149170 0.000000 0.940675 0.000000 0.339308 0.629047 0.629047 0.629047
4260.659668 0.000000 2860.316650 0.000000 0.622011 0.000000 0.783009 0.582369 0.582369 0.582369
4412.454590 0.000000 2808.073486 0.000000 0.914139 0.000000 0.405400 0.419938 0.419938 0.419938
4371.935547 0.000000 2777.492920 0.000000 0.890271 0.000000 0.455432 0.445669 0.445669 0.445669
4415.210449 0.000000 2802.336182 0.000000 0.722129 0.000000 0.691758 0.440590 0.440590 0.440590
4391.382324 0.000000 2801.352783 0.000000 0.601193 0.000000 0.799103 0.450623 0.450623 0.450623
4357.850586 0.000000 2785.512695 0.000000 0.669913 0.000000 0.742439 0.481768 0.481768 0.481768
4409.099121 0.000000 2814.736572 0.000000 0.603028 0.000000 0.797720 0.563608 0.563608 0.563608
4390.706543 0.000000 2813.070557 0.000000 0.855723 0.000000 0.517434 0.523532 0.523532 0.523532
4360.681152 0.000000 2789.121094 0.000000 0.893929 0.000000 0.448209 0.680466 0.680466 0.680466
4361.402832 0.000000 2788.372559 0.000000 0.593228 0.000000 0.805034 0.660672 0.660672 0.660672
4420.993652 0.000000 2791.917480 0.000000 0.885438 0.000000 0.464758 0.570170 0.570170 0.570170
4455.871094 0.000000 2788.169922 0.000000 0.736735 0.000000 0.676182 0.487417 0.487417 0.487417
4417.148926 0.000000 2791.883545 0.000000 0.614334 0.000000 0.789046 0.542251 0.542251 0.542251
4419.739746 0.000000 2790.005127 0.000000 0.933980 0.000000 0.357327 0.601873 0.601873 0.601873
4407.129883 0.000000 2850.812012 0.000000 0.634032 0.000000 0.773307 0.489957 0.489957 0.489957
4416.043457 0.000000 2848.469727 0.000000 0.880653 0.000000 0.473762 0.458571 0.458571 0.458571
6200.630371 0.000000 2425.798828 0.000000 0.875377 0.000000 0.483441 0.395784 0.395784 0.395784
6164.196289 0.000000 2421.105957 0.000000 0.734590 0.000000 0.678512 0.502165 0.502165 0.502165
6201.671875 0.000000 2427.215088 0.000000 0.865809 0.000000 0.500374 0.678525 0.678525 0.678525
6155.890137 0.000000 2423.076660 0.000000 0.652977 0.000000 0.757378 0.588991 0.588991 0.588991
6215.386719 0.000000 2417.559326 0.000000 0.794383 0.000000 0.607418 0.522841 0.522841 0.522841
6244.687500 0.000000 2422.914062 0.000000 0.915968 0.000000 0.401251 0.683946 0.683946 0.683946
6215.959473 0.000000 2421.602539 0.000000 0.881387 0.000000 0.472394 0.678934 0.678934 0.678934
6207.462891 0.000000 2429.177979 0.000000 0.880047 0.000000 0.474886 0.456654 0.456654 0.456654
6155.761719 0.000000 2453.237793 0.000000 0.661819 0.000000 0.749664 0.463130 0.463130 0.463130
6172.834961 0.000000 2437.503906 0.000000 0.802161 0.000000 0.597108 0.674559 0.674559 0.674559
6161.255371 0.000000 2439.116455 0.000000 0.822150 0.000000 0.569272 0.563117 0.563117 0.563117
6173.493652 0.000000 2436.186035 0.000000 0.897787 0.000000 0.440431 0.681867 0.681867 0.681867
6155.583496 0.000000 2455.414551 0.000000 0.617534 0.000000 0.786544 0.665594 0.665594 0.665594
6263.424805 0.000000 2453.097168 0.000000 0.862837 0.000000 0.505483 0.567028 0.567028 0.567028
6243.712891 0.000000 2445.608643 0.000000 0.819426 0.000000 0.573185 0.672799 0.672799 0.672799
6228.853027 0.000000 2449.744629 0.000000 0.846061 0.000000 0.533086 0.640679 0.640679 0.640679
6246.267090 0.000000 2450.639648 0.000000 0.929984 0.000000 0.367600 0.685330 0.685330 0.685330
6316.062988 0.000000 2437.817139 0.000000 0.919560 0.000000 0.392950 0.394778 0.394778 0.394778
6274.199219 0.000000 2435.940430 0.000000 0.899884 0.000000 0.436129 0.411788 0.411788 0.411788
6329.864746 0.000000 2457.419434 0.000000 0.665490 0.000000 0.746407 0.437366 0.437366 0.437366
6284.215332 0.000000 2439.684570 0.000000 0.852110 0.000000 0.523363 0.562721 0.562721 0.562721
6318.356934 0.000000 2446.125244 0.000000 0.680199 0.000000 0.733028 0.570050 0.570050 0.570050
6340.993652 0.000000 2453.011230 0.000000 0.841308 0.000000 0.540556 0.491002 0.491002 0.491002
6340.561035 0.000000 2475.109619 0.000000 0.701224 0.000000 0.712941 0.563549 0.563549 0.563549
6352.053223 0.000000 2490.672852 0.000000 0.881190 0.000000 0.472762 0.528508 0.528508 0.528508
"}
object={
	name="pine_sparse_generator_3_2"
	clamp_to_water_level=no
	render_under_water=no
	generated_content=yes
	layer="semidynamic_high"
	pdxmesh="tree_fir_003_mesh"
	count=65
	transform="4702.684082 0.000000 2527.572998 0.000000 0.978120 0.000000 -0.208044 0.684930 0.684930 0.684930
4700.235840 0.000000 2527.989502 0.000000 0.960297 0.000000 -0.278981 0.601071 0.601071 0.601071
6137.993164 0.000000 2465.424072 0.000000 0.999451 0.000000 -0.033129 0.468256 0.468256 0.468256
6133.139160 0.000000 2468.823242 0.000000 0.999924 0.000000 0.012356 0.608460 0.608460 0.608460
6121.729980 0.000000 2491.284424 0.000000 0.999572 0.000000 0.029271 0.698793 0.698793 0.698793
4277.005371 0.000000 2819.929688 0.000000 0.987229 0.000000 0.159305 0.406497 0.406497 0.406497
4274.394043 0.000000 2819.856201 0.000000 0.980161 0.000000 0.198201 0.415604 0.415604 0.415604
4335.448242 0.000000 2792.241943 0.000000 0.999244 0.000000 -0.038869 0.425113 0.425113 0.425113
4261.508789 0.000000 2839.607178 0.000000 0.988910 0.000000 0.148516 0.474608 0.474608 0.474608
4260.268066 0.000000 2846.844727 0.000000 0.963916 0.000000 -0.266206 0.672990 0.672990 0.672990
4255.121582 0.000000 2855.479004 0.000000 0.978636 0.000000 -0.205601 0.537142 0.537142 0.537142
4257.173340 0.000000 2848.615967 0.000000 0.998515 0.000000 -0.054472 0.702429 0.702429 0.702429
4253.720703 0.000000 2846.802002 0.000000 0.985600 0.000000 -0.169094 0.595916 0.595916 0.595916
4352.860352 0.000000 2767.091553 0.000000 0.999922 0.000000 -0.012526 0.599377 0.599377 0.599377
4397.311035 0.000000 2802.084229 0.000000 0.994616 0.000000 -0.103630 0.401374 0.401374 0.401374
4394.678223 0.000000 2805.909424 0.000000 0.973435 0.000000 0.228962 0.407396 0.407396 0.407396
4389.265137 0.000000 2787.397949 0.000000 0.996408 0.000000 0.084682 0.442693 0.442693 0.442693
4412.055664 0.000000 2773.651611 0.000000 0.993175 0.000000 0.116632 0.473277 0.473277 0.473277
4401.244629 0.000000 2804.786621 0.000000 0.954517 0.000000 -0.298156 0.527317 0.527317 0.527317
4390.464355 0.000000 2810.628418 0.000000 0.999571 0.000000 -0.029275 0.511413 0.511413 0.511413
4400.177246 0.000000 2805.776367 0.000000 0.989412 0.000000 -0.145133 0.523825 0.523825 0.523825
4376.864258 0.000000 2794.288330 0.000000 0.997083 0.000000 0.076319 0.520840 0.520840 0.520840
4357.319336 0.000000 2787.702881 0.000000 0.963844 0.000000 0.266467 0.646806 0.646806 0.646806
4367.586426 0.000000 2793.603760 0.000000 0.998364 0.000000 -0.057177 0.702209 0.702209 0.702209
4355.154785 0.000000 2788.486328 0.000000 0.969496 0.000000 -0.245108 0.674246 0.674246 0.674246
4366.050293 0.000000 2799.887451 0.000000 0.971921 0.000000 -0.235308 0.709485 0.709485 0.709485
4372.545898 0.000000 2799.894775 0.000000 0.999699 0.000000 0.024538 0.698911 0.698911 0.698911
4367.467773 0.000000 2786.111084 0.000000 0.989417 0.000000 0.145103 0.694249 0.694249 0.694249
4444.928223 0.000000 2785.614502 0.000000 0.999204 0.000000 -0.039896 0.400552 0.400552 0.400552
4456.179688 0.000000 2795.918945 0.000000 0.998000 0.000000 -0.063215 0.417618 0.417618 0.417618
4476.312988 0.000000 2791.489258 0.000000 0.989608 0.000000 -0.143788 0.456440 0.456440 0.456440
4443.236816 0.000000 2785.221191 0.000000 0.993172 0.000000 -0.116662 0.704812 0.704812 0.704812
4390.337891 0.000000 2837.954834 0.000000 0.999952 0.000000 -0.009761 0.400133 0.400133 0.400133
4405.519043 0.000000 2850.844238 0.000000 0.962640 0.000000 -0.270785 0.403779 0.403779 0.403779
4396.330078 0.000000 2842.983643 0.000000 0.958133 0.000000 -0.286323 0.533054 0.533054 0.533054
6206.147949 0.000000 2417.298584 0.000000 0.995491 0.000000 -0.094853 0.703611 0.703611 0.703611
6152.362793 0.000000 2428.128662 0.000000 0.990931 0.000000 0.134374 0.536997 0.536997 0.536997
6221.763672 0.000000 2426.981934 0.000000 0.997152 0.000000 0.075419 0.522810 0.522810 0.522810
6214.282227 0.000000 2418.398193 0.000000 0.956259 0.000000 -0.292523 0.557276 0.557276 0.557276
6148.470703 0.000000 2463.817139 0.000000 0.997683 0.000000 -0.068028 0.652254 0.652254 0.652254
6265.360352 0.000000 2440.084717 0.000000 0.999751 0.000000 -0.022316 0.426820 0.426820 0.426820
6243.595703 0.000000 2448.939941 0.000000 0.999868 0.000000 0.016267 0.455596 0.455596 0.455596
6245.604004 0.000000 2451.412109 0.000000 0.991277 0.000000 -0.131794 0.476014 0.476014 0.476014
6209.598145 0.000000 2432.393799 0.000000 0.999433 0.000000 -0.033657 0.470231 0.470231 0.470231
6232.631836 0.000000 2439.440918 0.000000 0.956714 0.000000 0.291030 0.527440 0.527440 0.527440
6237.510254 0.000000 2442.891113 0.000000 0.974126 0.000000 -0.226005 0.677573 0.677573 0.677573
6266.750488 0.000000 2443.315430 0.000000 0.951942 0.000000 -0.306279 0.529513 0.529513 0.529513
6234.770996 0.000000 2438.428711 0.000000 0.978369 0.000000 0.206867 0.575732 0.575732 0.575732
6235.200684 0.000000 2439.458252 0.000000 0.997314 0.000000 0.073249 0.579388 0.579388 0.579388
6261.339355 0.000000 2437.148682 0.000000 0.981100 0.000000 0.193499 0.599241 0.599241 0.599241
6218.381348 0.000000 2430.225830 0.000000 0.999981 0.000000 -0.006217 0.697292 0.697292 0.697292
6244.130371 0.000000 2428.829102 0.000000 0.962470 0.000000 0.271389 0.688689 0.688689 0.688689
6264.119629 0.000000 2455.225830 0.000000 0.975899 0.000000 0.218221 0.648480 0.648480 0.648480
6228.220215 0.000000 2448.789062 0.000000 0.997219 0.000000 -0.074530 0.662341 0.662341 0.662341
6325.566895 0.000000 2441.290283 0.000000 0.978947 0.000000 -0.204113 0.402833 0.402833 0.402833
6324.679199 0.000000 2448.517334 0.000000 0.987870 0.000000 0.155285 0.418206 0.418206 0.418206
6321.542480 0.000000 2450.256836 0.000000 0.991975 0.000000 0.126434 0.465316 0.465316 0.465316
6312.166504 0.000000 2441.434326 0.000000 0.999260 0.000000 -0.038454 0.503745 0.503745 0.503745
6340.483887 0.000000 2458.576904 0.000000 0.985642 0.000000 -0.168848 0.435072 0.435072 0.435072
6351.736328 0.000000 2459.589355 0.000000 0.968284 0.000000 0.249853 0.437948 0.437948 0.437948
6357.894043 0.000000 2482.102051 0.000000 0.994780 0.000000 0.102042 0.491073 0.491073 0.491073
6337.280273 0.000000 2462.677490 0.000000 0.998992 0.000000 0.044885 0.484413 0.484413 0.484413
6343.015137 0.000000 2493.534668 0.000000 0.987353 0.000000 0.158535 0.484108 0.484108 0.484108
6342.753418 0.000000 2490.477295 0.000000 0.969376 0.000000 0.245581 0.505453 0.505453 0.505453
6355.737305 0.000000 2491.794189 0.000000 0.999906 0.000000 0.013676 0.612338 0.612338 0.612338
"}
object={
	name="pine_sparse_generator_3_3"
	clamp_to_water_level=no
	render_under_water=no
	generated_content=yes
	layer="semidynamic_high"
	pdxmesh="tree_fir_004_mesh"
	count=51
	transform="6137.001953 0.000000 2464.260254 0.000000 0.881049 0.000000 -0.473024 0.476707 0.476707 0.476707
6130.478027 0.000000 2470.703857 0.000000 0.911561 0.000000 -0.411165 0.613155 0.613155 0.613155
6136.311035 0.000000 2473.480225 0.000000 0.888016 0.000000 -0.459812 0.527143 0.527143 0.527143
6134.847168 0.000000 2471.689941 0.000000 0.594526 0.000000 -0.804077 0.629938 0.629938 0.629938
6137.960449 0.000000 2475.055908 0.000000 0.611682 0.000000 -0.791104 0.688719 0.688719 0.688719
6130.309082 0.000000 2464.640625 0.000000 0.882283 0.000000 -0.470719 0.719100 0.719100 0.719100
6118.824707 0.000000 2490.550293 0.000000 0.863287 0.000000 -0.504714 0.407344 0.407344 0.407344
4341.449707 0.000000 2761.141602 0.000000 0.881053 0.000000 -0.473018 0.440251 0.440251 0.440251
4276.072754 0.000000 2816.237549 0.000000 0.935172 0.000000 -0.354194 0.438156 0.438156 0.438156
4281.993164 0.000000 2804.330322 0.000000 0.715128 0.000000 -0.698994 0.496348 0.496348 0.496348
4350.970703 0.000000 2790.390381 0.000000 0.668606 0.000000 -0.743617 0.441660 0.441660 0.441660
4332.409668 0.000000 2793.762695 0.000000 0.813869 0.000000 -0.581048 0.513853 0.513853 0.513853
4343.433594 0.000000 2788.937500 0.000000 0.944862 0.000000 -0.327470 0.548115 0.548115 0.548115
4261.265137 0.000000 2843.882324 0.000000 0.925735 0.000000 -0.378174 0.468739 0.468739 0.468739
4258.942871 0.000000 2862.653564 0.000000 0.847540 0.000000 -0.530732 0.582156 0.582156 0.582156
4261.645508 0.000000 2859.998535 0.000000 0.691106 0.000000 -0.722753 0.565626 0.565626 0.565626
4260.375977 0.000000 2861.483398 0.000000 0.610460 0.000000 -0.792047 0.635710 0.635710 0.635710
4409.072754 0.000000 2817.851562 0.000000 0.726093 0.000000 -0.687596 0.428063 0.428063 0.428063
4362.704590 0.000000 2790.476807 0.000000 0.948666 0.000000 -0.316278 0.441515 0.441515 0.441515
4354.009277 0.000000 2788.783203 0.000000 0.647983 0.000000 -0.761655 0.695617 0.695617 0.695617
4356.081543 0.000000 2787.704102 0.000000 0.730600 0.000000 -0.682806 0.681173 0.681173 0.681173
4384.863281 0.000000 2788.559082 0.000000 0.910335 0.000000 -0.413873 0.590892 0.590892 0.590892
4385.799316 0.000000 2806.620361 0.000000 0.891278 0.000000 -0.453457 0.541205 0.541205 0.541205
4359.460938 0.000000 2788.677490 0.000000 0.837524 0.000000 -0.546400 0.669136 0.669136 0.669136
4375.335449 0.000000 2803.228760 0.000000 0.813566 0.000000 -0.581473 0.723749 0.723749 0.723749
4456.688965 0.000000 2792.134766 0.000000 0.786796 0.000000 -0.617213 0.420540 0.420540 0.420540
4461.531250 0.000000 2786.127441 0.000000 0.690331 0.000000 -0.723494 0.459770 0.459770 0.459770
4451.595703 0.000000 2787.846191 0.000000 0.946370 0.000000 -0.323086 0.459663 0.459663 0.459663
4416.016113 0.000000 2776.386963 0.000000 0.652699 0.000000 -0.757617 0.493846 0.493846 0.493846
4417.121582 0.000000 2784.842773 0.000000 0.736155 0.000000 -0.676813 0.586927 0.586927 0.586927
4406.609375 0.000000 2852.067383 0.000000 0.845668 0.000000 -0.533710 0.498384 0.498384 0.498384
4403.413574 0.000000 2843.769287 0.000000 0.868589 0.000000 -0.495534 0.700069 0.700069 0.700069
6238.288086 0.000000 2426.806152 0.000000 0.789572 0.000000 -0.613658 0.430682 0.430682 0.430682
6160.268066 0.000000 2441.106201 0.000000 0.907632 0.000000 -0.419766 0.530216 0.530216 0.530216
6160.122070 0.000000 2439.761963 0.000000 0.680070 0.000000 -0.733147 0.601553 0.601553 0.601553
6262.485352 0.000000 2454.242432 0.000000 0.835445 0.000000 -0.549574 0.472229 0.472229 0.472229
6211.916016 0.000000 2433.441162 0.000000 0.707022 0.000000 -0.707192 0.484159 0.484159 0.484159
6233.534668 0.000000 2438.390137 0.000000 0.940336 0.000000 -0.340248 0.542395 0.542395 0.542395
6240.052246 0.000000 2428.850342 0.000000 0.644071 0.000000 -0.764966 0.630222 0.630222 0.630222
6230.709473 0.000000 2448.790283 0.000000 0.696977 0.000000 -0.717094 0.525888 0.525888 0.525888
6220.067383 0.000000 2428.915283 0.000000 0.638599 0.000000 -0.769540 0.579917 0.579917 0.579917
6260.906250 0.000000 2435.080566 0.000000 0.887634 0.000000 -0.460549 0.616774 0.616774 0.616774
6316.083496 0.000000 2448.889160 0.000000 0.907759 0.000000 -0.419493 0.405641 0.405641 0.405641
6335.163574 0.000000 2461.502686 0.000000 0.923590 0.000000 -0.383381 0.406514 0.406514 0.406514
6329.198730 0.000000 2455.563477 0.000000 0.607676 0.000000 -0.794185 0.511666 0.511666 0.511666
6330.873047 0.000000 2444.576904 0.000000 0.749912 0.000000 -0.661537 0.544929 0.544929 0.544929
6341.832520 0.000000 2460.693848 0.000000 0.748160 0.000000 -0.663518 0.448088 0.448088 0.448088
6350.057129 0.000000 2480.664062 0.000000 0.632045 0.000000 -0.774932 0.467317 0.467317 0.467317
6345.880371 0.000000 2462.346680 0.000000 0.680237 0.000000 -0.732992 0.493141 0.493141 0.493141
6343.807129 0.000000 2462.029785 0.000000 0.633565 0.000000 -0.773690 0.575881 0.575881 0.575881
6350.294922 0.000000 2475.336426 0.000000 0.799663 0.000000 -0.600449 0.640196 0.640196 0.640196
"}
object={
	name="pine_sparse_generator_3_4"
	clamp_to_water_level=no
	render_under_water=no
	generated_content=yes
	layer="semidynamic_high"
	pdxmesh="tree_fir_005_mesh"
	count=50
	transform="4707.804199 0.000000 2528.614014 0.000000 0.048661 0.000000 -0.998815 0.539125 0.539125 0.539125
6128.927734 0.000000 2473.843994 0.000000 0.197429 0.000000 -0.980317 0.753351 0.753351 0.753351
6131.748047 0.000000 2470.283447 0.000000 0.310430 0.000000 -0.950596 0.637044 0.637044 0.637044
6137.099121 0.000000 2475.830322 0.000000 0.323481 0.000000 -0.946235 0.699842 0.699842 0.699842
6139.344238 0.000000 2465.465088 0.000000 0.468523 0.000000 -0.883451 0.602144 0.602144 0.602144
6128.827148 0.000000 2472.666016 0.000000 0.078694 0.000000 -0.996899 0.758015 0.758015 0.758015
6131.848633 0.000000 2465.503418 0.000000 0.249853 0.000000 -0.968284 0.751374 0.751374 0.751374
6123.191406 0.000000 2489.859863 0.000000 0.014312 0.000000 -0.999898 0.759706 0.759706 0.759706
4345.661133 0.000000 2785.466309 0.000000 0.440104 0.000000 -0.897947 0.613701 0.613701 0.613701
4263.260742 0.000000 2845.822754 0.000000 0.296724 0.000000 -0.954963 0.465443 0.465443 0.465443
4352.926758 0.000000 2764.943604 0.000000 0.400176 0.000000 -0.916438 0.518666 0.518666 0.518666
4412.832520 0.000000 2800.056152 0.000000 0.149219 0.000000 -0.988804 0.419299 0.419299 0.419299
4388.742188 0.000000 2820.939453 0.000000 0.350015 0.000000 -0.936744 0.449685 0.449685 0.449685
4407.353516 0.000000 2774.878174 0.000000 0.450711 0.000000 -0.892670 0.496379 0.496379 0.496379
4365.299805 0.000000 2779.200928 0.000000 0.002818 0.000000 -0.999996 0.551049 0.551049 0.551049
4361.525391 0.000000 2789.782227 0.000000 0.164470 0.000000 -0.986382 0.759075 0.759075 0.759075
4374.619629 0.000000 2801.255615 0.000000 0.045593 0.000000 -0.998960 0.767968 0.767968 0.767968
4371.693848 0.000000 2797.070068 0.000000 0.289543 0.000000 -0.957165 0.657285 0.657285 0.657285
4395.276855 0.000000 2813.220947 0.000000 0.197587 0.000000 -0.980285 0.675561 0.675561 0.675561
4355.510254 0.000000 2775.008545 0.000000 0.368515 0.000000 -0.929622 0.698218 0.698218 0.698218
4394.279785 0.000000 2812.591064 0.000000 0.381483 0.000000 -0.924376 0.669498 0.669498 0.669498
4370.234375 0.000000 2799.197510 0.000000 0.142417 0.000000 -0.989807 0.761386 0.761386 0.761386
4474.504395 0.000000 2791.493164 0.000000 0.100379 0.000000 -0.994949 0.419821 0.419821 0.419821
4448.594727 0.000000 2787.372803 0.000000 0.190813 0.000000 -0.981626 0.497297 0.497297 0.497297
4463.484375 0.000000 2787.193359 0.000000 0.137998 0.000000 -0.990433 0.617950 0.617950 0.617950
4420.788086 0.000000 2790.235107 0.000000 0.512752 0.000000 -0.858537 0.611449 0.611449 0.611449
4424.616211 0.000000 2784.978027 0.000000 0.149967 0.000000 -0.988691 0.600104 0.600104 0.600104
4406.180664 0.000000 2848.068848 0.000000 0.215526 0.000000 -0.976498 0.422140 0.422140 0.422140
4388.560547 0.000000 2838.274414 0.000000 0.144179 0.000000 -0.989552 0.457354 0.457354 0.457354
4391.789551 0.000000 2838.156250 0.000000 0.094838 0.000000 -0.995493 0.520765 0.520765 0.520765
6169.916992 0.000000 2417.109863 0.000000 0.169485 0.000000 -0.985533 0.419020 0.419020 0.419020
6155.572266 0.000000 2454.406982 0.000000 0.459271 0.000000 -0.888296 0.741568 0.741568 0.741568
6147.692383 0.000000 2462.129150 0.000000 0.142109 0.000000 -0.989851 0.762897 0.762897 0.762897
6219.583984 0.000000 2432.385742 0.000000 0.172176 0.000000 -0.985066 0.525678 0.525678 0.525678
6229.918945 0.000000 2449.733154 0.000000 0.245638 0.000000 -0.969362 0.704793 0.704793 0.704793
6241.743164 0.000000 2429.066650 0.000000 0.492643 0.000000 -0.870231 0.635591 0.635591 0.635591
6235.824219 0.000000 2441.689697 0.000000 0.179107 0.000000 -0.983830 0.758208 0.758208 0.758208
6233.039551 0.000000 2437.455566 0.000000 0.328423 0.000000 -0.944531 0.747527 0.747527 0.747527
6236.514160 0.000000 2442.625000 0.000000 0.056507 0.000000 -0.998402 0.722514 0.722514 0.722514
6242.505859 0.000000 2444.259521 0.000000 0.171543 0.000000 -0.985177 0.762317 0.762317 0.762317
6289.267090 0.000000 2459.461914 0.000000 0.562450 0.000000 -0.826831 0.487640 0.487640 0.487640
6286.835449 0.000000 2458.468750 0.000000 0.384197 0.000000 -0.923251 0.499888 0.499888 0.499888
6319.484375 0.000000 2448.287109 0.000000 0.187879 0.000000 -0.982192 0.542638 0.542638 0.542638
6284.183105 0.000000 2438.483398 0.000000 0.435432 0.000000 -0.900222 0.607410 0.607410 0.607410
6325.096680 0.000000 2442.738525 0.000000 0.545220 0.000000 -0.838293 0.642325 0.642325 0.642325
6298.768555 0.000000 2443.760498 0.000000 0.030243 0.000000 -0.999543 0.574565 0.574565 0.574565
6309.656250 0.000000 2437.528809 0.000000 0.448653 0.000000 -0.893706 0.594180 0.594180 0.594180
6325.577637 0.000000 2443.860107 0.000000 0.214336 0.000000 -0.976760 0.653055 0.653055 0.653055
6348.375000 0.000000 2483.495850 0.000000 0.433276 0.000000 -0.901261 0.415584 0.415584 0.415584
6345.525391 0.000000 2450.875977 0.000000 0.209469 0.000000 -0.977815 0.572471 0.572471 0.572471
"}
