{
	"name" : "Anbennar-Vicky3",
	"id" : "org.anbennar.based",	
	"version" : "1.0.0",
	"supported_game_version" : "1.2.*",
	"short_description" : "Blackpowder Age",
	"tags" : [
		"overhaul"
	],
	"relationships" : [
	],
	"game_custom_data" : {
			"multiplayer_synchronized": false,
			"replace_paths" : [
				"common/achievements",
				"common/map/textures",
				"common/character_templates",
				"common/customizable_localization",
				"common/country_creation",
				"common/country_definitions",
				"common/country_formation",
				"common/dna_data",
				"common/decisions",
				"common/dynamic_country_map_colors",
				"common/dynamic_country_names",
				"common/strategic_regions",
				"common/history",
				"common/history/ai",
				"common/history/buildings",
				"common/history/characters",
				"common/history/countries",
				"common/history/diplomacy",
				"common/history/diplomatic_plays",
				"common/history/interests",
				"common/history/governments",
				"common/history/global",
				"common/history/pops",
				"common/history/population",
				"common/history/production_methods",
				"common/history/states",
				"common/history/trade_routes",
				"common/journal_entries",
				"events",
				"gfx/map/textures",
				"map_data/state_regions"
				
			]
	}
}