﻿game_object_locator={
	name="port"
	clamp_to_water_level=yes
	render_under_water=no
	generated_content=no
	layer="locators"
	instances={
		{
			id=1
			position={ 4116.344238 0.000000 2787.887695 }
			rotation={ -0.000000 -0.998975 -0.000000 0.045266 }
			scale={ 1.000000 1.000000 1.000000 }
		}
		{
			id=2
			position={ 4149.389648 0.000000 2741.077637 }
			rotation={ -0.000000 -0.986433 -0.000000 0.164166 }
			scale={ 1.000000 1.000000 1.000000 }
		}
		{
			id=3
			position={ 4152.399902 0.000000 2714.103027 }
			rotation={ -0.000000 -0.912774 -0.000000 0.408466 }
			scale={ 1.000000 1.000000 1.000000 }
		}
		{
			id=6
			position={ 4146.653809 0.000000 2677.806885 }
			rotation={ -0.000000 -0.515166 -0.000000 0.857091 }
			scale={ 1.000000 1.000000 1.000000 }
		}
		{
			id=7
			position={ 4206.467773 0.000000 2642.000488 }
			rotation={ -0.000000 -0.502185 -0.000000 0.864760 }
			scale={ 1.000000 1.000000 1.000000 }
		}
		{
			id=8
			position={ 4195.633789 0.000000 2776.514160 }
			rotation={ -0.000000 -0.947725 -0.000000 0.319089 }
			scale={ 1.000000 1.000000 1.000000 }
		}
		{
			id=12
			position={ 4196.310059 0.000000 2811.517822 }
			rotation={ -0.000000 -0.821890 -0.000000 0.569646 }
			scale={ 1.000000 1.000000 1.000000 }
		}
		{
			id=13
			position={ 4191.899902 0.000000 2914.289307 }
			rotation={ -0.000000 -0.382008 -0.000000 0.924159 }
			scale={ 1.000000 1.000000 1.000000 }
		}
		{
			id=18
			position={ 4067.751953 0.000000 2744.020264 }
			rotation={ -0.000000 -0.996473 -0.000000 -0.083916 }
			scale={ 1.000000 1.000000 1.000000 }
		}
		{
			id=19
			position={ 4090.317871 0.000000 2703.028076 }
			rotation={ -0.000000 0.408355 -0.000000 0.912823 }
			scale={ 1.000000 1.000000 1.000000 }
		}
		{
			id=20
			position={ 4072.188721 0.000000 2669.919678 }
			rotation={ -0.000000 -0.065564 -0.000000 0.997849 }
			scale={ 1.000000 1.000000 1.000000 }
		}
		{
			id=22
			position={ 4071.165771 0.000000 2812.238525 }
			rotation={ -0.000000 0.553767 -0.000000 0.832672 }
			scale={ 1.000000 1.000000 1.000000 }
		}
		{
			id=25
			position={ 4358.210449 0.000000 2654.473389 }
			rotation={ -0.000000 -0.355460 -0.000000 0.934692 }
			scale={ 1.000000 1.000000 1.000000 }
		}
		{
			id=26
			position={ 4371.136719 0.000000 2674.330566 }
			rotation={ -0.000000 0.722556 -0.000000 0.691312 }
			scale={ 1.000000 1.000000 1.000000 }
		}
		{
			id=36
			position={ 4408.112305 0.000000 2687.646973 }
			rotation={ -0.000000 0.127397 -0.000000 0.991852 }
			scale={ 1.000000 1.000000 1.000000 }
		}
		{
			id=37
			position={ 4007.913086 0.000000 2722.708008 }
			rotation={ -0.000000 -0.464899 -0.000000 0.885364 }
			scale={ 1.000000 1.000000 1.000000 }
		}
		{
			id=38
			position={ 3988.239746 0.000000 2742.083496 }
			rotation={ -0.000000 -0.398335 -0.000000 0.917240 }
			scale={ 1.000000 1.000000 1.000000 }
		}
		{
			id=39
			position={ 3968.506104 0.000000 2715.763672 }
			rotation={ -0.000000 -0.894710 -0.000000 -0.446648 }
			scale={ 1.000000 1.000000 1.000000 }
		}
		{
			id=41
			position={ 3973.376953 0.000000 2700.691162 }
			rotation={ -0.000000 0.474197 -0.000000 0.880419 }
			scale={ 1.000000 1.000000 1.000000 }
		}
		{
			id=42
			position={ 3875.835205 0.000000 2660.345215 }
			rotation={ -0.000000 0.248380 -0.000000 0.968663 }
			scale={ 1.000000 1.000000 1.000000 }
		}
		{
			id=43
			position={ 3841.113525 0.000000 2735.718262 }
			rotation={ -0.000000 0.901487 -0.000000 -0.432807 }
			scale={ 1.000000 1.000000 1.000000 }
		}
		{
			id=44
			position={ 3854.479736 0.000000 2791.720459 }
			rotation={ -0.000000 -0.237221 -0.000000 0.971456 }
			scale={ 1.000000 1.000000 1.000000 }
		}
		{
			id=46
			position={ 3869.847412 0.000000 2839.875488 }
			rotation={ -0.000000 -0.939780 -0.000000 0.341781 }
			scale={ 1.000000 1.000000 1.000000 }
		}
		{
			id=48
			position={ 4251.149414 0.000000 2567.725098 }
			rotation={ -0.000000 -0.401775 -0.000000 0.915739 }
			scale={ 1.000000 1.000000 1.000000 }
		}
		{
			id=49
			position={ 4317.525879 0.000000 2592.531494 }
			rotation={ -0.000000 0.938732 -0.000000 0.344650 }
			scale={ 1.000000 1.000000 1.000000 }
		}
		{
			id=50
			position={ 4301.735352 0.000000 2571.378174 }
			rotation={ -0.000000 0.681101 -0.000000 0.732190 }
			scale={ 1.000000 1.000000 1.000000 }
		}
		{
			id=51
			position={ 4278.499023 0.000000 2515.291748 }
			rotation={ -0.000000 0.588403 -0.000000 -0.808568 }
			scale={ 1.000000 1.000000 1.000000 }
		}
		{
			id=52
			position={ 4221.000000 0.000000 2487.000000 }
			rotation={ -0.000000 -0.000000 -0.000000 1.000000 }
			scale={ 1.000000 1.000000 1.000000 }
		}
		{
			id=53
			position={ 4128.000000 0.000000 2489.000000 }
			rotation={ -0.000000 -1.000000 -0.000000 -0.000000 }
			scale={ 1.000000 1.000000 1.000000 }
		}
		{
			id=54
			position={ 4019.000000 0.000000 2497.000000 }
			rotation={ -0.000000 -1.000000 -0.000000 -0.000000 }
			scale={ 1.000000 1.000000 1.000000 }
		}
		{
			id=60
			position={ 4095.295654 0.000000 2876.460938 }
			rotation={ -0.000000 0.539148 -0.000000 0.842211 }
			scale={ 1.000000 1.000000 1.000000 }
		}
		{
			id=61
			position={ 4077.868652 0.000000 2842.205811 }
			rotation={ -0.000000 0.522415 -0.000000 0.852692 }
			scale={ 1.000000 1.000000 1.000000 }
		}
		{
			id=63
			position={ 3892.488281 0.000000 2886.017090 }
			rotation={ -0.000000 -0.907692 -0.000000 0.419636 }
			scale={ 1.000000 1.000000 1.000000 }
		}
		{
			id=64
			position={ 3912.023193 0.000000 2901.723633 }
			rotation={ -0.000000 -0.986678 -0.000000 0.162689 }
			scale={ 1.000000 1.000000 1.000000 }
		}
		{
			id=65
			position={ 3940.621582 0.000000 2943.512451 }
			rotation={ -0.000000 -0.989282 -0.000000 0.146022 }
			scale={ 1.000000 1.000000 1.000000 }
		}
		{
			id=66
			position={ 3878.270508 0.000000 2977.312012 }
			rotation={ -0.000000 -0.909517 -0.000000 0.415665 }
			scale={ 1.000000 1.000000 1.000000 }
		}
		{
			id=67
			position={ 3842.987061 0.000000 2939.783936 }
			rotation={ -0.000000 -0.981211 -0.000000 -0.192935 }
			scale={ 1.000000 1.000000 1.000000 }
		}
		{
			id=68
			position={ 3968.794678 0.000000 3046.694092 }
			rotation={ -0.000000 -0.994213 -0.000000 0.107427 }
			scale={ 1.000000 1.000000 1.000000 }
		}
		{
			id=69
			position={ 3927.307129 0.000000 3156.384766 }
			rotation={ -0.000000 -0.180376 -0.000000 0.983598 }
			scale={ 1.000000 1.000000 1.000000 }
		}
		{
			id=72
			position={ 4135.437500 0.000000 2926.349365 }
			rotation={ 0.000000 0.707107 0.000000 0.707107 }
			scale={ 1.000000 1.000000 1.000000 }
		}
		{
			id=73
			position={ 4168.531250 0.000000 2934.036865 }
			rotation={ -0.000000 -0.394160 -0.000000 0.919042 }
			scale={ 1.000000 1.000000 1.000000 }
		}
		{
			id=79
			position={ 4050.691162 0.000000 3053.321045 }
			rotation={ -0.000000 0.924287 -0.000000 -0.381700 }
			scale={ 1.000000 1.000000 1.000000 }
		}
		{
			id=80
			position={ 4060.147705 0.000000 3094.786377 }
			rotation={ -0.000000 0.218224 -0.000000 -0.975899 }
			scale={ 1.000000 1.000000 1.000000 }
		}
		{
			id=81
			position={ 4139.070801 0.000000 3167.663574 }
			rotation={ -0.000000 0.180157 -0.000000 -0.983638 }
			scale={ 1.000000 1.000000 1.000000 }
		}
		{
			id=83
			position={ 4254.127441 0.000000 3139.958252 }
			rotation={ -0.000000 -0.879129 -0.000000 -0.476584 }
			scale={ 1.000000 1.000000 1.000000 }
		}
		{
			id=84
			position={ 4303.892090 0.000000 3101.890625 }
			rotation={ -0.000000 -1.000000 -0.000000 -0.000000 }
			scale={ 1.000000 1.000000 1.000000 }
		}
		{
			id=122
			position={ 4363.923340 0.000000 3084.557373 }
			rotation={ -0.000000 0.687817 -0.000000 -0.725884 }
			scale={ 1.000000 1.000000 1.000000 }
		}
		{
			id=123
			position={ 4363.381836 0.000000 3132.200439 }
			rotation={ -0.000000 0.861369 -0.000000 -0.507981 }
			scale={ 1.000000 1.000000 1.000000 }
		}
		{
			id=124
			position={ 4445.550781 0.000000 3132.964844 }
			rotation={ -0.000000 -0.925459 -0.000000 0.378847 }
			scale={ 1.000000 1.000000 1.000000 }
		}
		{
			id=125
			position={ 4457.592773 0.000000 3137.480225 }
			rotation={ -0.000000 -0.765856 -0.000000 0.643012 }
			scale={ 1.000000 1.000000 1.000000 }
		}
		{
			id=128
			position={ 4368.958008 0.000000 3254.833984 }
			rotation={ -0.000000 -0.483974 -0.000000 0.875083 }
			scale={ 1.000000 1.000000 1.000000 }
		}
		{
			id=129
			position={ 4334.427246 0.000000 3262.031982 }
			rotation={ -0.000000 0.084066 -0.000000 0.996461 }
			scale={ 1.000000 1.000000 1.000000 }
		}
		{
			id=130
			position={ 4290.576172 0.000000 3216.994385 }
			rotation={ -0.000000 0.338052 -0.000000 0.941128 }
			scale={ 1.000000 1.000000 1.000000 }
		}
		{
			id=131
			position={ 4142.942871 0.000000 3248.232910 }
			rotation={ -0.000000 0.123037 -0.000000 0.992402 }
			scale={ 1.000000 1.000000 1.000000 }
		}
		{
			id=132
			position={ 4111.279785 0.000000 3239.028320 }
			rotation={ -0.000000 -0.418253 -0.000000 0.908331 }
			scale={ 1.000000 1.000000 1.000000 }
		}
		{
			id=133
			position={ 4059.395264 0.000000 3244.440918 }
			rotation={ -0.000000 -0.096653 -0.000000 0.995318 }
			scale={ 1.000000 1.000000 1.000000 }
		}
		{
			id=136
			position={ 3937.247314 0.000000 3410.958252 }
			rotation={ -0.000000 0.035055 -0.000000 0.999386 }
			scale={ 1.000000 1.000000 1.000000 }
		}
		{
			id=141
			position={ 3821.630371 0.000000 2642.125488 }
			rotation={ -0.000000 0.604621 -0.000000 0.796514 }
			scale={ 1.000000 1.000000 1.000000 }
		}
		{
			id=142
			position={ 4212.488770 0.000000 2837.988037 }
			rotation={ -0.000000 -0.936161 -0.000000 0.351571 }
			scale={ 1.000000 1.000000 1.000000 }
		}
		{
			id=146
			position={ 4504.000000 0.000000 2626.000000 }
			rotation={ -0.000000 -0.000000 -0.000000 1.000000 }
			scale={ 1.000000 1.000000 1.000000 }
		}
		{
			id=153
			position={ 3466.000000 0.000000 3103.000000 }
			rotation={ 0.000000 0.707107 0.000000 0.707107 }
			scale={ 1.000000 1.000000 1.000000 }
		}
		{
			id=154
			position={ 3618.000000 0.000000 2797.000000 }
			rotation={ 0.000000 0.707107 0.000000 0.707107 }
			scale={ 1.000000 1.000000 1.000000 }
		}
		{
			id=200
			position={ 3155.000000 0.000000 2441.000000 }
			rotation={ 0.000000 0.707107 0.000000 0.707107 }
			scale={ 1.000000 1.000000 1.000000 }
		}
		{
			id=201
			position={ 2927.000000 0.000000 2382.000000 }
			rotation={ 0.000000 0.707107 0.000000 0.707107 }
			scale={ 1.000000 1.000000 1.000000 }
		}
		{
			id=202
			position={ 2764.000000 0.000000 2510.000000 }
			rotation={ 0.000000 0.707107 0.000000 0.707107 }
			scale={ 1.000000 1.000000 1.000000 }
		}
		{
			id=203
			position={ 2528.000000 0.000000 2605.000000 }
			rotation={ 0.000000 0.707107 0.000000 0.707107 }
			scale={ 1.000000 1.000000 1.000000 }
		}
		{
			id=204
			position={ 2864.000000 0.000000 2230.000000 }
			rotation={ 0.000000 0.707107 0.000000 0.707107 }
			scale={ 1.000000 1.000000 1.000000 }
		}
		{
			id=205
			position={ 2847.000000 0.000000 2415.000000 }
			rotation={ -0.000000 -0.707107 -0.000000 0.707107 }
			scale={ 1.000000 1.000000 1.000000 }
		}
		{
			id=206
			position={ 2758.000000 0.000000 2449.000000 }
			rotation={ -0.000000 -1.000000 -0.000000 -0.000000 }
			scale={ 1.000000 1.000000 1.000000 }
		}
		{
			id=207
			position={ 2552.000000 0.000000 2369.000000 }
			rotation={ -0.000000 -0.000000 -0.000000 1.000000 }
			scale={ 1.000000 1.000000 1.000000 }
		}
		{
			id=209
			position={ 2723.000000 0.000000 2248.000000 }
			rotation={ 0.000000 0.707107 0.000000 0.707107 }
			scale={ 1.000000 1.000000 1.000000 }
		}
		{
			id=210
			position={ 3134.000000 0.000000 2241.000000 }
			rotation={ -0.000000 -0.000000 -0.000000 1.000000 }
			scale={ 1.000000 1.000000 1.000000 }
		}
		{
			id=211
			position={ 2755.000000 0.000000 2159.000000 }
			rotation={ 0.000000 0.707107 0.000000 0.707107 }
			scale={ 1.000000 1.000000 1.000000 }
		}
		{
			id=212
			position={ 2615.000000 0.000000 2046.000000 }
			rotation={ 0.000000 0.707107 0.000000 0.707107 }
			scale={ 1.000000 1.000000 1.000000 }
		}
		{
			id=213
			position={ 2425.000000 0.000000 1783.000000 }
			rotation={ 0.000000 0.707107 0.000000 0.707107 }
			scale={ 1.000000 1.000000 1.000000 }
		}
		{
			id=214
			position={ 2811.000000 0.000000 1906.000000 }
			rotation={ -0.000000 -0.707107 -0.000000 0.707107 }
			scale={ 1.000000 1.000000 1.000000 }
		}
		{
			id=215
			position={ 2758.000000 0.000000 1763.000000 }
			rotation={ 0.000000 0.707107 0.000000 0.707107 }
			scale={ 1.000000 1.000000 1.000000 }
		}
		{
			id=216
			position={ 2688.000000 0.000000 1800.000000 }
			rotation={ -0.000000 -0.000000 -0.000000 1.000000 }
			scale={ 1.000000 1.000000 1.000000 }
		}
		{
			id=217
			position={ 2707.000000 0.000000 1990.000000 }
			rotation={ -0.000000 -0.707107 -0.000000 0.707107 }
			scale={ 1.000000 1.000000 1.000000 }
		}
		{
			id=218
			position={ 2330.000000 0.000000 2290.000000 }
			rotation={ 0.000000 0.707107 0.000000 0.707107 }
			scale={ 1.000000 1.000000 1.000000 }
		}
		{
			id=219
			position={ 2158.000000 0.000000 2072.000000 }
			rotation={ 0.000000 0.707107 0.000000 0.707107 }
			scale={ 1.000000 1.000000 1.000000 }
		}
		{
			id=220
			position={ 2083.000000 0.000000 1951.000000 }
			rotation={ 0.000000 0.707107 0.000000 0.707107 }
			scale={ 1.000000 1.000000 1.000000 }
		}
		{
			id=221
			position={ 1950.000000 0.000000 1989.000000 }
			rotation={ 0.000000 0.707107 0.000000 0.707107 }
			scale={ 1.000000 1.000000 1.000000 }
		}
		{
			id=222
			position={ 1872.000000 0.000000 2150.000000 }
			rotation={ 0.000000 0.707107 0.000000 0.707107 }
			scale={ 1.000000 1.000000 1.000000 }
		}
		{
			id=223
			position={ 1962.000000 0.000000 2295.000000 }
			rotation={ -0.000000 -0.000000 -0.000000 1.000000 }
			scale={ 1.000000 1.000000 1.000000 }
		}
		{
			id=224
			position={ 2235.000000 0.000000 2450.000000 }
			rotation={ 0.000000 0.707107 0.000000 0.707107 }
			scale={ 1.000000 1.000000 1.000000 }
		}
		{
			id=225
			position={ 2414.000000 0.000000 2636.000000 }
			rotation={ 0.000000 0.707107 0.000000 0.707107 }
			scale={ 1.000000 1.000000 1.000000 }
		}
		{
			id=226
			position={ 2389.000000 0.000000 2519.000000 }
			rotation={ 0.000000 0.707107 0.000000 0.707107 }
			scale={ 1.000000 1.000000 1.000000 }
		}
		{
			id=227
			position={ 2256.000000 0.000000 2519.000000 }
			rotation={ 0.000000 0.707107 0.000000 0.707107 }
			scale={ 1.000000 1.000000 1.000000 }
		}
		{
			id=229
			position={ 2437.000000 0.000000 2667.000000 }
			rotation={ 0.000000 0.707107 0.000000 0.707107 }
			scale={ 1.000000 1.000000 1.000000 }
		}
		{
			id=230
			position={ 2158.000000 0.000000 2517.000000 }
			rotation={ 0.000000 0.707107 0.000000 0.707107 }
			scale={ 1.000000 1.000000 1.000000 }
		}
		{
			id=232
			position={ 2083.000000 0.000000 2411.000000 }
			rotation={ -0.000000 -1.000000 -0.000000 -0.000000 }
			scale={ 1.000000 1.000000 1.000000 }
		}
		{
			id=233
			position={ 1985.000000 0.000000 2526.000000 }
			rotation={ 0.000000 0.707107 0.000000 0.707107 }
			scale={ 1.000000 1.000000 1.000000 }
		}
		{
			id=235
			position={ 1963.000000 0.000000 2528.000000 }
			rotation={ 0.000000 0.707107 0.000000 0.707107 }
			scale={ 1.000000 1.000000 1.000000 }
		}
		{
			id=236
			position={ 1933.000000 0.000000 2520.000000 }
			rotation={ 0.000000 0.707107 0.000000 0.707107 }
			scale={ 1.000000 1.000000 1.000000 }
		}
		{
			id=237
			position={ 1917.000000 0.000000 2458.000000 }
			rotation={ 0.000000 0.707107 0.000000 0.707107 }
			scale={ 1.000000 1.000000 1.000000 }
		}
		{
			id=238
			position={ 1936.000000 0.000000 2414.000000 }
			rotation={ -0.000000 -1.000000 -0.000000 -0.000000 }
			scale={ 1.000000 1.000000 1.000000 }
		}
		{
			id=240
			position={ 1972.000000 0.000000 2401.000000 }
			rotation={ -0.000000 -1.000000 -0.000000 -0.000000 }
			scale={ 1.000000 1.000000 1.000000 }
		}
		{
			id=241
			position={ 1920.000000 0.000000 2309.000000 }
			rotation={ -0.000000 -0.707107 -0.000000 0.707107 }
			scale={ 1.000000 1.000000 1.000000 }
		}
		{
			id=243
			position={ 1882.000000 0.000000 2215.000000 }
			rotation={ -0.000000 -0.707107 -0.000000 0.707107 }
			scale={ 1.000000 1.000000 1.000000 }
		}
		{
			id=244
			position={ 1839.000000 0.000000 2182.000000 }
			rotation={ -0.000000 -0.000000 -0.000000 1.000000 }
			scale={ 1.000000 1.000000 1.000000 }
		}
		{
			id=246
			position={ 1791.000000 0.000000 2069.000000 }
			rotation={ -0.000000 -0.707107 -0.000000 0.707107 }
			scale={ 1.000000 1.000000 1.000000 }
		}
		{
			id=247
			position={ 1833.000000 0.000000 1952.000000 }
			rotation={ -0.000000 -1.000000 -0.000000 -0.000000 }
			scale={ 1.000000 1.000000 1.000000 }
		}
		{
			id=295
			position={ 1988.000000 0.000000 3201.000000 }
			rotation={ 0.000000 0.707107 0.000000 0.707107 }
			scale={ 1.000000 1.000000 1.000000 }
		}
		{
			id=296
			position={ 2068.000000 0.000000 3283.000000 }
			rotation={ -0.000000 -0.707107 -0.000000 0.707107 }
			scale={ 1.000000 1.000000 1.000000 }
		}
		{
			id=297
			position={ 1880.000000 0.000000 3105.000000 }
			rotation={ -0.000000 -0.000000 -0.000000 1.000000 }
			scale={ 1.000000 1.000000 1.000000 }
		}
		{
			id=298
			position={ 1851.000000 0.000000 3161.000000 }
			rotation={ 0.000000 0.707107 0.000000 0.707107 }
			scale={ 1.000000 1.000000 1.000000 }
		}
		{
			id=299
			position={ 1762.000000 0.000000 3168.000000 }
			rotation={ -0.000000 -1.000000 -0.000000 -0.000000 }
			scale={ 1.000000 1.000000 1.000000 }
		}
		{
			id=300
			position={ 4449.000000 0.000000 2594.000000 }
			rotation={ -0.000000 -1.000000 -0.000000 -0.000000 }
			scale={ 1.000000 1.000000 1.000000 }
		}
		{
			id=301
			position={ 4539.000000 0.000000 2553.000000 }
			rotation={ -0.000000 -1.000000 -0.000000 -0.000000 }
			scale={ 1.000000 1.000000 1.000000 }
		}
		{
			id=302
			position={ 4571.000000 0.000000 2567.000000 }
			rotation={ 0.000000 0.707107 0.000000 0.707107 }
			scale={ 1.000000 1.000000 1.000000 }
		}
		{
			id=303
			position={ 4642.000000 0.000000 2563.000000 }
			rotation={ 0.000000 0.707107 0.000000 0.707107 }
			scale={ 1.000000 1.000000 1.000000 }
		}
		{
			id=304
			position={ 4656.000000 0.000000 2539.000000 }
			rotation={ -0.000000 -0.000000 -0.000000 1.000000 }
			scale={ 1.000000 1.000000 1.000000 }
		}
		{
			id=305
			position={ 4682.917480 0.000000 2434.934326 }
			rotation={ -0.000000 -0.861679 -0.000000 0.507453 }
			scale={ 1.000000 1.000000 1.000000 }
		}
		{
			id=306
			position={ 4750.154785 0.000000 2432.161621 }
			rotation={ -0.000000 -0.567744 -0.000000 0.823206 }
			scale={ 1.000000 1.000000 1.000000 }
		}
		{
			id=307
			position={ 4723.611328 0.000000 2354.311279 }
			rotation={ -0.000000 -0.669445 -0.000000 0.742862 }
			scale={ 1.000000 1.000000 1.000000 }
		}
		{
			id=308
			position={ 4792.000000 0.000000 2305.000000 }
			rotation={ -0.000000 -0.000000 -0.000000 1.000000 }
			scale={ 1.000000 1.000000 1.000000 }
		}
		{
			id=309
			position={ 4765.805664 0.000000 2407.389404 }
			rotation={ -0.000000 -0.999693 -0.000000 0.024774 }
			scale={ 1.000000 1.000000 1.000000 }
		}
		{
			id=323
			position={ 5261.000000 0.000000 2105.000000 }
			rotation={ -0.000000 -0.707107 -0.000000 0.707107 }
			scale={ 1.000000 1.000000 1.000000 }
		}
		{
			id=324
			position={ 5276.000000 0.000000 2135.000000 }
			rotation={ 0.000000 0.707107 0.000000 0.707107 }
			scale={ 1.000000 1.000000 1.000000 }
		}
		{
			id=326
			position={ 5557.000000 0.000000 2187.000000 }
			rotation={ 0.000000 0.707107 0.000000 0.707107 }
			scale={ 1.000000 1.000000 1.000000 }
		}
		{
			id=329
			position={ 4723.000000 0.000000 2300.000000 }
			rotation={ -0.000000 -1.000000 -0.000000 -0.000000 }
			scale={ 1.000000 1.000000 1.000000 }
		}
		{
			id=331
			position={ 4523.000000 0.000000 2337.000000 }
			rotation={ -0.000000 -0.707107 -0.000000 0.707107 }
			scale={ 1.000000 1.000000 1.000000 }
		}
		{
			id=333
			position={ 4405.000000 0.000000 2386.000000 }
			rotation={ -0.000000 -1.000000 -0.000000 -0.000000 }
			scale={ 1.000000 1.000000 1.000000 }
		}
		{
			id=338
			position={ 4482.000000 0.000000 2603.000000 }
			rotation={ -0.000000 -1.000000 -0.000000 -0.000000 }
			scale={ 1.000000 1.000000 1.000000 }
		}
		{
			id=339
			position={ 4525.000000 0.000000 2545.000000 }
			rotation={ 0.000000 0.707107 0.000000 0.707107 }
			scale={ 1.000000 1.000000 1.000000 }
		}
		{
			id=400
			position={ 5704.000000 0.000000 2197.000000 }
			rotation={ 0.000000 0.707107 0.000000 0.707107 }
			scale={ 1.000000 1.000000 1.000000 }
		}
		{
			id=401
			position={ 5791.000000 0.000000 2118.000000 }
			rotation={ 0.000000 0.707107 0.000000 0.707107 }
			scale={ 1.000000 1.000000 1.000000 }
		}
		{
			id=408
			position={ 5836.000000 0.000000 2116.000000 }
			rotation={ 0.000000 0.707107 0.000000 0.707107 }
			scale={ 1.000000 1.000000 1.000000 }
		}
		{
			id=409
			position={ 5851.000000 0.000000 2178.000000 }
			rotation={ 0.000000 0.707107 0.000000 0.707107 }
			scale={ 1.000000 1.000000 1.000000 }
		}
		{
			id=428
			position={ 5875.000000 0.000000 2217.000000 }
			rotation={ -0.000000 -0.707107 -0.000000 0.707107 }
			scale={ 1.000000 1.000000 1.000000 }
		}
		{
			id=429
			position={ 6051.000000 0.000000 3159.000000 }
			rotation={ -0.000000 -0.000000 -0.000000 1.000000 }
			scale={ 1.000000 1.000000 1.000000 }
		}
		{
			id=430
			position={ 6325.000000 0.000000 3221.000000 }
			rotation={ -0.000000 -0.000000 -0.000000 1.000000 }
			scale={ 1.000000 1.000000 1.000000 }
		}
		{
			id=432
			position={ 6592.000000 0.000000 2992.000000 }
			rotation={ -0.000000 -0.707107 -0.000000 0.707107 }
			scale={ 1.000000 1.000000 1.000000 }
		}
		{
			id=433
			position={ 6663.000000 0.000000 2931.000000 }
			rotation={ -0.000000 -0.707107 -0.000000 0.707107 }
			scale={ 1.000000 1.000000 1.000000 }
		}
		{
			id=438
			position={ 6575.000000 0.000000 2606.000000 }
			rotation={ 0.000000 0.707107 0.000000 0.707107 }
			scale={ 1.000000 1.000000 1.000000 }
		}
		{
			id=439
			position={ 6688.000000 0.000000 2723.000000 }
			rotation={ -0.000000 -0.707107 -0.000000 0.707107 }
			scale={ 1.000000 1.000000 1.000000 }
		}
		{
			id=440
			position={ 6759.000000 0.000000 2783.000000 }
			rotation={ -0.000000 -0.707107 -0.000000 0.707107 }
			scale={ 1.000000 1.000000 1.000000 }
		}
		{
			id=441
			position={ 6949.000000 0.000000 3292.000000 }
			rotation={ 0.000000 0.707107 0.000000 0.707107 }
			scale={ 1.000000 1.000000 1.000000 }
		}
		{
			id=451
			position={ 6338.000000 0.000000 2246.000000 }
			rotation={ 0.000000 0.707107 0.000000 0.707107 }
			scale={ 1.000000 1.000000 1.000000 }
		}
		{
			id=452
			position={ 6439.000000 0.000000 2365.000000 }
			rotation={ -0.000000 -0.707107 -0.000000 0.707107 }
			scale={ 1.000000 1.000000 1.000000 }
		}
		{
			id=455
			position={ 6454.000000 0.000000 2382.000000 }
			rotation={ -0.000000 -0.707107 -0.000000 0.707107 }
			scale={ 1.000000 1.000000 1.000000 }
		}
		{
			id=456
			position={ 6429.000000 0.000000 2518.000000 }
			rotation={ -0.000000 -1.000000 -0.000000 -0.000000 }
			scale={ 1.000000 1.000000 1.000000 }
		}
		{
			id=457
			position={ 6419.000000 0.000000 2550.000000 }
			rotation={ 0.000000 0.707107 0.000000 0.707107 }
			scale={ 1.000000 1.000000 1.000000 }
		}
		{
			id=461
			position={ 5876.000000 0.000000 2181.000000 }
			rotation={ 0.000000 0.707107 0.000000 0.707107 }
			scale={ 1.000000 1.000000 1.000000 }
		}
		{
			id=468
			position={ 5925.000000 0.000000 2133.000000 }
			rotation={ 0.000000 0.707107 0.000000 0.707107 }
			scale={ 1.000000 1.000000 1.000000 }
		}
		{
			id=472
			position={ 6056.000000 0.000000 2086.000000 }
			rotation={ 0.000000 0.707107 0.000000 0.707107 }
			scale={ 1.000000 1.000000 1.000000 }
		}
		{
			id=475
			position={ 6060.000000 0.000000 2011.000000 }
			rotation={ 0.000000 0.707107 0.000000 0.707107 }
			scale={ 1.000000 1.000000 1.000000 }
		}
		{
			id=479
			position={ 6295.000000 0.000000 2165.000000 }
			rotation={ 0.000000 0.707107 0.000000 0.707107 }
			scale={ 1.000000 1.000000 1.000000 }
		}
		{
			id=480
			position={ 6085.000000 0.000000 1874.000000 }
			rotation={ 0.000000 0.707107 0.000000 0.707107 }
			scale={ 1.000000 1.000000 1.000000 }
		}
		{
			id=481
			position={ 6102.000000 0.000000 1983.000000 }
			rotation={ -0.000000 -0.000000 -0.000000 1.000000 }
			scale={ 1.000000 1.000000 1.000000 }
		}
		{
			id=482
			position={ 6192.000000 0.000000 1931.000000 }
			rotation={ 0.000000 0.707107 0.000000 0.707107 }
			scale={ 1.000000 1.000000 1.000000 }
		}
		{
			id=483
			position={ 6265.000000 0.000000 2015.000000 }
			rotation={ -0.000000 -0.707107 -0.000000 0.707107 }
			scale={ 1.000000 1.000000 1.000000 }
		}
		{
			id=484
			position={ 6268.000000 0.000000 2083.000000 }
			rotation={ -0.000000 -0.707107 -0.000000 0.707107 }
			scale={ 1.000000 1.000000 1.000000 }
		}
		{
			id=486
			position={ 5861.000000 0.000000 2005.000000 }
			rotation={ 0.000000 0.707107 0.000000 0.707107 }
			scale={ 1.000000 1.000000 1.000000 }
		}
		{
			id=487
			position={ 6223.000000 0.000000 1841.000000 }
			rotation={ 0.000000 0.707107 0.000000 0.707107 }
			scale={ 1.000000 1.000000 1.000000 }
		}
		{
			id=488
			position={ 6204.000000 0.000000 1640.000000 }
			rotation={ 0.000000 0.707107 0.000000 0.707107 }
			scale={ 1.000000 1.000000 1.000000 }
		}
		{
			id=489
			position={ 6125.000000 0.000000 1632.000000 }
			rotation={ 0.000000 0.707107 0.000000 0.707107 }
			scale={ 1.000000 1.000000 1.000000 }
		}
		{
			id=490
			position={ 6089.000000 0.000000 1474.000000 }
			rotation={ 0.000000 0.707107 0.000000 0.707107 }
			scale={ 1.000000 1.000000 1.000000 }
		}
		{
			id=501
			position={ 2128.000000 0.000000 3242.000000 }
			rotation={ 0.000000 0.707107 0.000000 0.707107 }
			scale={ 1.000000 1.000000 1.000000 }
		}
		{
			id=503
			position={ 2407.000000 0.000000 3238.000000 }
			rotation={ -0.000000 -1.000000 -0.000000 -0.000000 }
			scale={ 1.000000 1.000000 1.000000 }
		}
		{
			id=504
			position={ 2462.000000 0.000000 2988.000000 }
			rotation={ 0.000000 0.707107 0.000000 0.707107 }
			scale={ 1.000000 1.000000 1.000000 }
		}
		{
			id=505
			position={ 2434.000000 0.000000 3201.000000 }
			rotation={ -0.000000 -1.000000 -0.000000 -0.000000 }
			scale={ 1.000000 1.000000 1.000000 }
		}
		{
			id=506
			position={ 2424.000000 0.000000 3325.000000 }
			rotation={ 0.000000 0.707107 0.000000 0.707107 }
			scale={ 1.000000 1.000000 1.000000 }
		}
		{
			id=507
			position={ 2273.000000 0.000000 3337.000000 }
			rotation={ 0.000000 0.707107 0.000000 0.707107 }
			scale={ 1.000000 1.000000 1.000000 }
		}
		{
			id=508
			position={ 2658.000000 0.000000 3307.000000 }
			rotation={ 0.000000 0.707107 0.000000 0.707107 }
			scale={ 1.000000 1.000000 1.000000 }
		}
		{
			id=509
			position={ 2428.000000 0.000000 2701.000000 }
			rotation={ -0.000000 -1.000000 -0.000000 -0.000000 }
			scale={ 1.000000 1.000000 1.000000 }
		}
		{
			id=510
			position={ 2773.000000 0.000000 2962.000000 }
			rotation={ -0.000000 -0.000000 -0.000000 1.000000 }
			scale={ 1.000000 1.000000 1.000000 }
		}
		{
			id=511
			position={ 2699.000000 0.000000 2730.000000 }
			rotation={ 0.000000 0.707107 0.000000 0.707107 }
			scale={ 1.000000 1.000000 1.000000 }
		}
		{
			id=512
			position={ 1880.000000 0.000000 3300.000000 }
			rotation={ 0.000000 0.707107 0.000000 0.707107 }
			scale={ 1.000000 1.000000 1.000000 }
		}
		{
			id=513
			position={ 1769.000000 0.000000 3346.000000 }
			rotation={ 0.000000 0.707107 0.000000 0.707107 }
			scale={ 1.000000 1.000000 1.000000 }
		}
		{
			id=514
			position={ 2139.000000 0.000000 3291.000000 }
			rotation={ 0.000000 0.707107 0.000000 0.707107 }
			scale={ 1.000000 1.000000 1.000000 }
		}
		{
			id=515
			position={ 2065.000000 0.000000 3392.000000 }
			rotation={ 0.000000 0.707107 0.000000 0.707107 }
			scale={ 1.000000 1.000000 1.000000 }
		}
		{
			id=516
			position={ 1631.000000 0.000000 3276.000000 }
			rotation={ 0.000000 0.707107 0.000000 0.707107 }
			scale={ 1.000000 1.000000 1.000000 }
		}
		{
			id=517
			position={ 1416.000000 0.000000 3248.000000 }
			rotation={ 0.000000 0.707107 0.000000 0.707107 }
			scale={ 1.000000 1.000000 1.000000 }
		}
		{
			id=518
			position={ 1965.000000 0.000000 3195.000000 }
			rotation={ 0.000000 0.707107 0.000000 0.707107 }
			scale={ 1.000000 1.000000 1.000000 }
		}
		{
			id=520
			position={ 2589.000000 0.000000 3027.000000 }
			rotation={ 0.000000 0.707107 0.000000 0.707107 }
			scale={ 1.000000 1.000000 1.000000 }
		}
		{
			id=523
			position={ 1851.000000 0.000000 3407.000000 }
			rotation={ 0.000000 0.707107 0.000000 0.707107 }
			scale={ 1.000000 1.000000 1.000000 }
		}
		{
			id=524
			position={ 1424.000000 0.000000 3472.000000 }
			rotation={ -0.000000 -1.000000 -0.000000 -0.000000 }
			scale={ 1.000000 1.000000 1.000000 }
		}
		{
			id=525
			position={ 1314.000000 0.000000 3091.000000 }
			rotation={ 0.000000 0.707107 0.000000 0.707107 }
			scale={ 1.000000 1.000000 1.000000 }
		}
		{
			id=526
			position={ 1690.000000 0.000000 1760.000000 }
			rotation={ -0.000000 -0.000000 -0.000000 1.000000 }
			scale={ 1.000000 1.000000 1.000000 }
		}
		{
			id=527
			position={ 1794.000000 0.000000 1764.000000 }
			rotation={ 0.000000 0.707107 0.000000 0.707107 }
			scale={ 1.000000 1.000000 1.000000 }
		}
		{
			id=528
			position={ 1747.000000 0.000000 1630.000000 }
			rotation={ 0.000000 0.707107 0.000000 0.707107 }
			scale={ 1.000000 1.000000 1.000000 }
		}
		{
			id=529
			position={ 1539.000000 0.000000 1597.000000 }
			rotation={ 0.000000 0.707107 0.000000 0.707107 }
			scale={ 1.000000 1.000000 1.000000 }
		}
		{
			id=530
			position={ 1724.000000 0.000000 1914.000000 }
			rotation={ 0.000000 0.707107 0.000000 0.707107 }
			scale={ 1.000000 1.000000 1.000000 }
		}
		{
			id=531
			position={ 1476.000000 0.000000 1859.000000 }
			rotation={ 0.000000 0.707107 0.000000 0.707107 }
			scale={ 1.000000 1.000000 1.000000 }
		}
		{
			id=532
			position={ 1398.000000 0.000000 2007.000000 }
			rotation={ -0.000000 -0.000000 -0.000000 1.000000 }
			scale={ 1.000000 1.000000 1.000000 }
		}
		{
			id=533
			position={ 1687.000000 0.000000 1997.000000 }
			rotation={ 0.000000 0.707107 0.000000 0.707107 }
			scale={ 1.000000 1.000000 1.000000 }
		}
		{
			id=534
			position={ 1570.000000 0.000000 2053.000000 }
			rotation={ -0.000000 -0.000000 -0.000000 1.000000 }
			scale={ 1.000000 1.000000 1.000000 }
		}
		{
			id=536
			position={ 1492.000000 0.000000 2119.000000 }
			rotation={ 0.000000 0.707107 0.000000 0.707107 }
			scale={ 1.000000 1.000000 1.000000 }
		}
		{
			id=542
			position={ 1414.000000 0.000000 2115.000000 }
			rotation={ 0.000000 0.707107 0.000000 0.707107 }
			scale={ 1.000000 1.000000 1.000000 }
		}
		{
			id=544
			position={ 1375.000000 0.000000 2058.000000 }
			rotation={ -0.000000 -0.707107 -0.000000 0.707107 }
			scale={ 1.000000 1.000000 1.000000 }
		}
		{
			id=545
			position={ 1338.000000 0.000000 1992.000000 }
			rotation={ 0.000000 0.707107 0.000000 0.707107 }
			scale={ 1.000000 1.000000 1.000000 }
		}
		{
			id=546
			position={ 1239.000000 0.000000 1901.000000 }
			rotation={ 0.000000 0.707107 0.000000 0.707107 }
			scale={ 1.000000 1.000000 1.000000 }
		}
		{
			id=547
			position={ 1202.000000 0.000000 1903.000000 }
			rotation={ 0.000000 0.707107 0.000000 0.707107 }
			scale={ 1.000000 1.000000 1.000000 }
		}
		{
			id=551
			position={ 1050.000000 0.000000 2123.000000 }
			rotation={ -0.000000 -1.000000 -0.000000 -0.000000 }
			scale={ 1.000000 1.000000 1.000000 }
		}
		{
			id=552
			position={ 983.000000 0.000000 2112.000000 }
			rotation={ -0.000000 -1.000000 -0.000000 -0.000000 }
			scale={ 1.000000 1.000000 1.000000 }
		}
		{
			id=554
			position={ 982.000000 0.000000 1996.000000 }
			rotation={ 0.000000 0.707107 0.000000 0.707107 }
			scale={ 1.000000 1.000000 1.000000 }
		}
		{
			id=555
			position={ 1105.000000 0.000000 1900.000000 }
			rotation={ 0.000000 0.707107 0.000000 0.707107 }
			scale={ 1.000000 1.000000 1.000000 }
		}
		{
			id=556
			position={ 1047.000000 0.000000 2324.000000 }
			rotation={ 0.000000 0.707107 0.000000 0.707107 }
			scale={ 1.000000 1.000000 1.000000 }
		}
		{
			id=557
			position={ 1695.000000 0.000000 1524.000000 }
			rotation={ -0.000000 -1.000000 -0.000000 -0.000000 }
			scale={ 1.000000 1.000000 1.000000 }
		}
		{
			id=558
			position={ 1720.000000 0.000000 1432.000000 }
			rotation={ -0.000000 -0.000000 -0.000000 1.000000 }
			scale={ 1.000000 1.000000 1.000000 }
		}
		{
			id=559
			position={ 1803.000000 0.000000 1562.000000 }
			rotation={ -0.000000 -1.000000 -0.000000 -0.000000 }
			scale={ 1.000000 1.000000 1.000000 }
		}
		{
			id=560
			position={ 1837.000000 0.000000 1614.000000 }
			rotation={ 0.000000 0.707107 0.000000 0.707107 }
			scale={ 1.000000 1.000000 1.000000 }
		}
		{
			id=565
			position={ 1825.000000 0.000000 1337.000000 }
			rotation={ 0.000000 0.707107 0.000000 0.707107 }
			scale={ 1.000000 1.000000 1.000000 }
		}
		{
			id=570
			position={ 1913.000000 0.000000 1670.000000 }
			rotation={ -0.000000 -1.000000 -0.000000 -0.000000 }
			scale={ 1.000000 1.000000 1.000000 }
		}
		{
			id=572
			position={ 2051.000000 0.000000 1749.000000 }
			rotation={ -0.000000 -0.707107 -0.000000 0.707107 }
			scale={ 1.000000 1.000000 1.000000 }
		}
		{
			id=573
			position={ 2213.000000 0.000000 1722.000000 }
			rotation={ 0.000000 0.707107 0.000000 0.707107 }
			scale={ 1.000000 1.000000 1.000000 }
		}
		{
			id=575
			position={ 2354.000000 0.000000 1740.000000 }
			rotation={ -0.000000 -0.707107 -0.000000 0.707107 }
			scale={ 1.000000 1.000000 1.000000 }
		}
		{
			id=576
			position={ 2522.000000 0.000000 1769.000000 }
			rotation={ -0.000000 -1.000000 -0.000000 -0.000000 }
			scale={ 1.000000 1.000000 1.000000 }
		}
		{
			id=577
			position={ 2552.000000 0.000000 1621.000000 }
			rotation={ 0.000000 0.707107 0.000000 0.707107 }
			scale={ 1.000000 1.000000 1.000000 }
		}
		{
			id=578
			position={ 2669.000000 0.000000 1532.000000 }
			rotation={ -0.000000 -1.000000 -0.000000 -0.000000 }
			scale={ 1.000000 1.000000 1.000000 }
		}
		{
			id=579
			position={ 2359.000000 0.000000 1515.000000 }
			rotation={ -0.000000 -1.000000 -0.000000 -0.000000 }
			scale={ 1.000000 1.000000 1.000000 }
		}
		{
			id=582
			position={ 2499.000000 0.000000 1433.000000 }
			rotation={ -0.000000 -1.000000 -0.000000 -0.000000 }
			scale={ 1.000000 1.000000 1.000000 }
		}
		{
			id=584
			position={ 2659.000000 0.000000 1494.000000 }
			rotation={ -0.000000 -1.000000 -0.000000 -0.000000 }
			scale={ 1.000000 1.000000 1.000000 }
		}
		{
			id=585
			position={ 2733.000000 0.000000 1495.000000 }
			rotation={ -0.000000 -1.000000 -0.000000 -0.000000 }
			scale={ 1.000000 1.000000 1.000000 }
		}
		{
			id=586
			position={ 2966.000000 0.000000 1426.000000 }
			rotation={ -0.000000 -0.707107 -0.000000 0.707107 }
			scale={ 1.000000 1.000000 1.000000 }
		}
		{
			id=588
			position={ 3057.000000 0.000000 1429.000000 }
			rotation={ -0.000000 -0.707107 -0.000000 0.707107 }
			scale={ 1.000000 1.000000 1.000000 }
		}
		{
			id=589
			position={ 3122.000000 0.000000 1290.000000 }
			rotation={ -0.000000 -1.000000 -0.000000 -0.000000 }
			scale={ 1.000000 1.000000 1.000000 }
		}
		{
			id=590
			position={ 3166.000000 0.000000 1247.000000 }
			rotation={ -0.000000 -0.707107 -0.000000 0.707107 }
			scale={ 1.000000 1.000000 1.000000 }
		}
		{
			id=591
			position={ 3196.000000 0.000000 1077.000000 }
			rotation={ 0.000000 0.707107 0.000000 0.707107 }
			scale={ 1.000000 1.000000 1.000000 }
		}
		{
			id=592
			position={ 3090.000000 0.000000 1100.000000 }
			rotation={ 0.000000 0.707107 0.000000 0.707107 }
			scale={ 1.000000 1.000000 1.000000 }
		}
		{
			id=593
			position={ 2823.000000 0.000000 1199.000000 }
			rotation={ 0.000000 0.707107 0.000000 0.707107 }
			scale={ 1.000000 1.000000 1.000000 }
		}
		{
			id=594
			position={ 2762.000000 0.000000 1167.000000 }
			rotation={ 0.000000 0.707107 0.000000 0.707107 }
			scale={ 1.000000 1.000000 1.000000 }
		}
		{
			id=595
			position={ 2708.000000 0.000000 1139.000000 }
			rotation={ 0.000000 0.707107 0.000000 0.707107 }
			scale={ 1.000000 1.000000 1.000000 }
		}
		{
			id=596
			position={ 2801.000000 0.000000 1098.000000 }
			rotation={ 0.000000 0.707107 0.000000 0.707107 }
			scale={ 1.000000 1.000000 1.000000 }
		}
		{
			id=597
			position={ 3174.000000 0.000000 921.000000 }
			rotation={ 0.000000 0.707107 0.000000 0.707107 }
			scale={ 1.000000 1.000000 1.000000 }
		}
		{
			id=598
			position={ 3090.000000 0.000000 903.000000 }
			rotation={ 0.000000 0.707107 0.000000 0.707107 }
			scale={ 1.000000 1.000000 1.000000 }
		}
		{
			id=599
			position={ 2906.000000 0.000000 794.000000 }
			rotation={ 0.000000 0.707107 0.000000 0.707107 }
			scale={ 1.000000 1.000000 1.000000 }
		}
		{
			id=600
			position={ 2867.000000 0.000000 962.000000 }
			rotation={ 0.000000 0.707107 0.000000 0.707107 }
			scale={ 1.000000 1.000000 1.000000 }
		}
		{
			id=601
			position={ 2859.000000 0.000000 1569.000000 }
			rotation={ 0.000000 0.707107 0.000000 0.707107 }
			scale={ 1.000000 1.000000 1.000000 }
		}
		{
			id=602
			position={ 3308.000000 0.000000 1006.000000 }
			rotation={ 0.000000 0.707107 0.000000 0.707107 }
			scale={ 1.000000 1.000000 1.000000 }
		}
		{
			id=603
			position={ 3427.000000 0.000000 1373.000000 }
			rotation={ -0.000000 -0.000000 -0.000000 1.000000 }
			scale={ 1.000000 1.000000 1.000000 }
		}
		{
			id=604
			position={ 3602.000000 0.000000 1312.000000 }
			rotation={ -0.000000 -0.707107 -0.000000 0.707107 }
			scale={ 1.000000 1.000000 1.000000 }
		}
		{
			id=605
			position={ 1079.000000 0.000000 2415.000000 }
			rotation={ -0.000000 -0.000000 -0.000000 1.000000 }
			scale={ 1.000000 1.000000 1.000000 }
		}
		{
			id=606
			position={ 1108.000000 0.000000 2497.000000 }
			rotation={ -0.000000 -1.000000 -0.000000 -0.000000 }
			scale={ 1.000000 1.000000 1.000000 }
		}
		{
			id=607
			position={ 1156.000000 0.000000 2579.000000 }
			rotation={ 0.000000 0.707107 0.000000 0.707107 }
			scale={ 1.000000 1.000000 1.000000 }
		}
		{
			id=608
			position={ 1066.000000 0.000000 2597.000000 }
			rotation={ -0.000000 -0.707107 -0.000000 0.707107 }
			scale={ 1.000000 1.000000 1.000000 }
		}
		{
			id=609
			position={ 973.000000 0.000000 2558.000000 }
			rotation={ 0.000000 0.707107 0.000000 0.707107 }
			scale={ 1.000000 1.000000 1.000000 }
		}
		{
			id=610
			position={ 924.000000 0.000000 2567.000000 }
			rotation={ 0.000000 0.707107 0.000000 0.707107 }
			scale={ 1.000000 1.000000 1.000000 }
		}
		{
			id=612
			position={ 912.000000 0.000000 2712.000000 }
			rotation={ -0.000000 -0.000000 -0.000000 1.000000 }
			scale={ 1.000000 1.000000 1.000000 }
		}
		{
			id=614
			position={ 768.000000 0.000000 2764.000000 }
			rotation={ 0.000000 0.707107 0.000000 0.707107 }
			scale={ 1.000000 1.000000 1.000000 }
		}
		{
			id=615
			position={ 941.000000 0.000000 2887.000000 }
			rotation={ -0.000000 -1.000000 -0.000000 -0.000000 }
			scale={ 1.000000 1.000000 1.000000 }
		}
		{
			id=616
			position={ 902.000000 0.000000 2724.000000 }
			rotation={ 0.000000 0.707107 0.000000 0.707107 }
			scale={ 1.000000 1.000000 1.000000 }
		}
		{
			id=617
			position={ 1005.000000 0.000000 2887.000000 }
			rotation={ -0.000000 -1.000000 -0.000000 -0.000000 }
			scale={ 1.000000 1.000000 1.000000 }
		}
		{
			id=618
			position={ 1016.000000 0.000000 2960.000000 }
			rotation={ 0.000000 0.707107 0.000000 0.707107 }
			scale={ 1.000000 1.000000 1.000000 }
		}
		{
			id=619
			position={ 1001.000000 0.000000 3012.000000 }
			rotation={ -0.000000 -0.000000 -0.000000 1.000000 }
			scale={ 1.000000 1.000000 1.000000 }
		}
		{
			id=620
			position={ 1219.000000 0.000000 3023.000000 }
			rotation={ -0.000000 -1.000000 -0.000000 -0.000000 }
			scale={ 1.000000 1.000000 1.000000 }
		}
		{
			id=621
			position={ 1287.000000 0.000000 2816.000000 }
			rotation={ -0.000000 -1.000000 -0.000000 -0.000000 }
			scale={ 1.000000 1.000000 1.000000 }
		}
		{
			id=622
			position={ 1365.000000 0.000000 2749.000000 }
			rotation={ -0.000000 -1.000000 -0.000000 -0.000000 }
			scale={ 1.000000 1.000000 1.000000 }
		}
		{
			id=624
			position={ 1438.000000 0.000000 2761.000000 }
			rotation={ -0.000000 -0.000000 -0.000000 1.000000 }
			scale={ 1.000000 1.000000 1.000000 }
		}
		{
			id=625
			position={ 1472.000000 0.000000 3058.000000 }
			rotation={ -0.000000 -0.000000 -0.000000 1.000000 }
			scale={ 1.000000 1.000000 1.000000 }
		}
		{
			id=633
			position={ 5544.000000 0.000000 3370.000000 }
			rotation={ 0.000000 0.707107 0.000000 0.707107 }
			scale={ 1.000000 1.000000 1.000000 }
		}
		{
			id=635
			position={ 5287.000000 0.000000 3060.000000 }
			rotation={ -0.000000 -0.707107 -0.000000 0.707107 }
			scale={ 1.000000 1.000000 1.000000 }
		}
		{
			id=639
			position={ 5609.000000 0.000000 3106.000000 }
			rotation={ -0.000000 -0.707107 -0.000000 0.707107 }
			scale={ 1.000000 1.000000 1.000000 }
		}
		{
			id=641
			position={ 5687.000000 0.000000 3084.000000 }
			rotation={ 0.000000 0.707107 0.000000 0.707107 }
			scale={ 1.000000 1.000000 1.000000 }
		}
		{
			id=651
			position={ 5357.000000 0.000000 2977.000000 }
			rotation={ -0.000000 -0.707107 -0.000000 0.707107 }
			scale={ 1.000000 1.000000 1.000000 }
		}
		{
			id=652
			position={ 5332.000000 0.000000 2868.000000 }
			rotation={ -0.000000 -1.000000 -0.000000 -0.000000 }
			scale={ 1.000000 1.000000 1.000000 }
		}
		{
			id=653
			position={ 5488.000000 0.000000 2817.000000 }
			rotation={ -0.000000 -0.707107 -0.000000 0.707107 }
			scale={ 1.000000 1.000000 1.000000 }
		}
		{
			id=654
			position={ 5541.000000 0.000000 2757.000000 }
			rotation={ -0.000000 -1.000000 -0.000000 -0.000000 }
			scale={ 1.000000 1.000000 1.000000 }
		}
		{
			id=655
			position={ 5607.000000 0.000000 2808.000000 }
			rotation={ -0.000000 -1.000000 -0.000000 -0.000000 }
			scale={ 1.000000 1.000000 1.000000 }
		}
		{
			id=656
			position={ 5733.000000 0.000000 2875.000000 }
			rotation={ -0.000000 -1.000000 -0.000000 -0.000000 }
			scale={ 1.000000 1.000000 1.000000 }
		}
		{
			id=658
			position={ 5789.000000 0.000000 3073.000000 }
			rotation={ 0.000000 0.707107 0.000000 0.707107 }
			scale={ 1.000000 1.000000 1.000000 }
		}
		{
			id=660
			position={ 6028.000000 0.000000 3154.000000 }
			rotation={ -0.000000 -1.000000 -0.000000 -0.000000 }
			scale={ 1.000000 1.000000 1.000000 }
		}
		{
			id=661
			position={ 5487.000000 0.000000 2874.000000 }
			rotation={ -0.000000 -1.000000 -0.000000 -0.000000 }
			scale={ 1.000000 1.000000 1.000000 }
		}
		{
			id=662
			position={ 5402.000000 0.000000 2940.000000 }
			rotation={ 0.000000 0.707107 0.000000 0.707107 }
			scale={ 1.000000 1.000000 1.000000 }
		}
		{
			id=663
			position={ 5517.000000 0.000000 2913.000000 }
			rotation={ 0.000000 0.707107 0.000000 0.707107 }
			scale={ 1.000000 1.000000 1.000000 }
		}
		{
			id=664
			position={ 5602.000000 0.000000 2946.000000 }
			rotation={ -0.000000 -0.707107 -0.000000 0.707107 }
			scale={ 1.000000 1.000000 1.000000 }
		}
		{
			id=665
			position={ 5580.000000 0.000000 2987.000000 }
			rotation={ -0.000000 -1.000000 -0.000000 -0.000000 }
			scale={ 1.000000 1.000000 1.000000 }
		}
		{
			id=666
			position={ 5725.000000 0.000000 2936.000000 }
			rotation={ 0.000000 0.707107 0.000000 0.707107 }
			scale={ 1.000000 1.000000 1.000000 }
		}
		{
			id=667
			position={ 5693.000000 0.000000 3038.000000 }
			rotation={ -0.000000 -1.000000 -0.000000 -0.000000 }
			scale={ 1.000000 1.000000 1.000000 }
		}
		{
			id=668
			position={ 5611.000000 0.000000 3120.000000 }
			rotation={ -0.000000 -0.000000 -0.000000 1.000000 }
			scale={ 1.000000 1.000000 1.000000 }
		}
		{
			id=669
			position={ 5733.000000 0.000000 3105.000000 }
			rotation={ 0.000000 0.707107 0.000000 0.707107 }
			scale={ 1.000000 1.000000 1.000000 }
		}
		{
			id=700
			position={ 1516.000000 0.000000 846.000000 }
			rotation={ 0.000000 0.707107 0.000000 0.707107 }
			scale={ 1.000000 1.000000 1.000000 }
		}
		{
			id=701
			position={ 1592.000000 0.000000 847.000000 }
			rotation={ 0.000000 0.707107 0.000000 0.707107 }
			scale={ 1.000000 1.000000 1.000000 }
		}
		{
			id=702
			position={ 1646.000000 0.000000 940.000000 }
			rotation={ 0.000000 0.707107 0.000000 0.707107 }
			scale={ 1.000000 1.000000 1.000000 }
		}
		{
			id=703
			position={ 1648.000000 0.000000 963.000000 }
			rotation={ 0.000000 0.707107 0.000000 0.707107 }
			scale={ 1.000000 1.000000 1.000000 }
		}
		{
			id=704
			position={ 1600.000000 0.000000 1047.000000 }
			rotation={ -0.000000 -0.707107 -0.000000 0.707107 }
			scale={ 1.000000 1.000000 1.000000 }
		}
		{
			id=705
			position={ 1397.000000 0.000000 894.000000 }
			rotation={ -0.000000 -1.000000 -0.000000 -0.000000 }
			scale={ 1.000000 1.000000 1.000000 }
		}
		{
			id=706
			position={ 1687.000000 0.000000 946.000000 }
			rotation={ 0.000000 0.707107 0.000000 0.707107 }
			scale={ 1.000000 1.000000 1.000000 }
		}
		{
			id=707
			position={ 1722.000000 0.000000 822.000000 }
			rotation={ 0.000000 0.707107 0.000000 0.707107 }
			scale={ 1.000000 1.000000 1.000000 }
		}
		{
			id=708
			position={ 1866.000000 0.000000 967.000000 }
			rotation={ 0.000000 0.707107 0.000000 0.707107 }
			scale={ 1.000000 1.000000 1.000000 }
		}
		{
			id=709
			position={ 1842.000000 0.000000 939.000000 }
			rotation={ -0.000000 -1.000000 -0.000000 -0.000000 }
			scale={ 1.000000 1.000000 1.000000 }
		}
		{
			id=710
			position={ 1824.000000 0.000000 884.000000 }
			rotation={ -0.000000 -0.000000 -0.000000 1.000000 }
			scale={ 1.000000 1.000000 1.000000 }
		}
		{
			id=711
			position={ 1829.000000 0.000000 815.000000 }
			rotation={ -0.000000 -0.000000 -0.000000 1.000000 }
			scale={ 1.000000 1.000000 1.000000 }
		}
		{
			id=712
			position={ 1900.000000 0.000000 684.000000 }
			rotation={ -0.000000 -1.000000 -0.000000 -0.000000 }
			scale={ 1.000000 1.000000 1.000000 }
		}
		{
			id=715
			position={ 2095.000000 0.000000 737.000000 }
			rotation={ 0.000000 0.707107 0.000000 0.707107 }
			scale={ 1.000000 1.000000 1.000000 }
		}
		{
			id=716
			position={ 2181.000000 0.000000 891.000000 }
			rotation={ 0.000000 0.707107 0.000000 0.707107 }
			scale={ 1.000000 1.000000 1.000000 }
		}
		{
			id=720
			position={ 2359.000000 0.000000 909.000000 }
			rotation={ 0.000000 0.707107 0.000000 0.707107 }
			scale={ 1.000000 1.000000 1.000000 }
		}
		{
			id=723
			position={ 2489.000000 0.000000 910.000000 }
			rotation={ 0.000000 0.707107 0.000000 0.707107 }
			scale={ 1.000000 1.000000 1.000000 }
		}
		{
			id=726
			position={ 2573.000000 0.000000 895.000000 }
			rotation={ 0.000000 0.707107 0.000000 0.707107 }
			scale={ 1.000000 1.000000 1.000000 }
		}
		{
			id=727
			position={ 2629.000000 0.000000 1055.000000 }
			rotation={ 0.000000 0.707107 0.000000 0.707107 }
			scale={ 1.000000 1.000000 1.000000 }
		}
		{
			id=752
			position={ 4309.000000 0.000000 2422.000000 }
			rotation={ -0.000000 -1.000000 -0.000000 -0.000000 }
			scale={ 1.000000 1.000000 1.000000 }
		}
		{
			id=756
			position={ 4760.000000 0.000000 2282.000000 }
			rotation={ -0.000000 -1.000000 -0.000000 -0.000000 }
			scale={ 1.000000 1.000000 1.000000 }
		}
		{
			id=764
			position={ 4098.000000 0.000000 1874.000000 }
			rotation={ 0.000000 0.707107 0.000000 0.707107 }
			scale={ 1.000000 1.000000 1.000000 }
		}
		{
			id=765
			position={ 4100.000000 0.000000 1836.000000 }
			rotation={ -0.000000 -0.000000 -0.000000 1.000000 }
			scale={ 1.000000 1.000000 1.000000 }
		}
		{
			id=766
			position={ 4097.000000 0.000000 1774.000000 }
			rotation={ 0.000000 0.707107 0.000000 0.707107 }
			scale={ 1.000000 1.000000 1.000000 }
		}
		{
			id=767
			position={ 4243.000000 0.000000 1670.000000 }
			rotation={ 0.000000 0.707107 0.000000 0.707107 }
			scale={ 1.000000 1.000000 1.000000 }
		}
		{
			id=768
			position={ 4309.000000 0.000000 1708.000000 }
			rotation={ 0.000000 0.707107 0.000000 0.707107 }
			scale={ 1.000000 1.000000 1.000000 }
		}
		{
			id=770
			position={ 4368.000000 0.000000 1740.000000 }
			rotation={ 0.000000 0.707107 0.000000 0.707107 }
			scale={ 1.000000 1.000000 1.000000 }
		}
		{
			id=772
			position={ 4460.000000 0.000000 1726.000000 }
			rotation={ 0.000000 0.707107 0.000000 0.707107 }
			scale={ 1.000000 1.000000 1.000000 }
		}
		{
			id=774
			position={ 4559.000000 0.000000 1790.000000 }
			rotation={ -0.000000 -0.707107 -0.000000 0.707107 }
			scale={ 1.000000 1.000000 1.000000 }
		}
		{
			id=775
			position={ 4598.000000 0.000000 1830.000000 }
			rotation={ 0.000000 0.707107 0.000000 0.707107 }
			scale={ 1.000000 1.000000 1.000000 }
		}
	}
}
